<?xml version="1.0" encoding="UTF-8" standalone="no"?>
<svg 
   width="390.95999pt"
   height="277.91998pt"
   viewBox="0 0 390.95999 277.91998"
   version="1.1"
   id="svg374"
   xmlns:xlink="http://www.w3.org/1999/xlink"
   xmlns="http://www.w3.org/2000/svg"
   xmlns:svg="http://www.w3.org/2000/svg" content="%3Cmxfile%20host%3D%22app.diagrams.net%22%20modified%3D%222023-11-12T18%3A40%3A37.921Z%22%20agent%3D%22Mozilla%2F5.0%20(Windows%20NT%2010.0%3B%20Win64%3B%20x64)%20AppleWebKit%2F537.36%20(KHTML%2C%20like%20Gecko)%20Chrome%2F119.0.0.0%20Safari%2F537.36%20Edg%2F119.0.0.0%22%20etag%3D%22TZCiaqf7JW7AotlP2FKS%22%20version%3D%2222.1.0%22%20type%3D%22onedrive%22%3E%20%20%20%3Cdiagram%20id%3D%22dA5YoWcAnDTg-60LYt-b%22%20name%3D%22P%C3%A1gina-6%22%3E%20%20%20%20%20%3CmxGraphModel%20dx%3D%22834%22%20dy%3D%22468%22%20grid%3D%221%22%20gridSize%3D%2210%22%20guides%3D%221%22%20tooltips%3D%221%22%20connect%3D%221%22%20arrows%3D%221%22%20fold%3D%221%22%20page%3D%220%22%20pageScale%3D%221%22%20pageWidth%3D%221100%22%20pageHeight%3D%22850%22%20math%3D%220%22%20shadow%3D%220%22%3E%20%20%20%20%20%20%20%3Croot%3E%20%20%20%20%20%20%20%20%20%3CmxCell%20id%3D%220%22%20%2F%3E%20%20%20%20%20%20%20%20%20%3CmxCell%20id%3D%221%22%20parent%3D%220%22%20%2F%3E%20%20%20%20%20%20%20%20%20%3CmxCell%20id%3D%22cQqXGhXMKhl466xhdUJn-1%22%20value%3D%22%22%20style%3D%22endArrow%3Dnone%3Bdashed%3D1%3Bhtml%3D1%3Brounded%3D0%3BstrokeWidth%3D2%3BentryX%3D0.5%3BentryY%3D1%3BentryDx%3D0%3BentryDy%3D0%3BfontFamily%3DNimbus%20Roman%20No9%20L%3BfontSource%3Dhttps%253A%252F%252Fwww.1001fonts.com%252Fdownload%252Ffont%252Fnimbus-roman-no9-l.regular.otf%3BfontSize%3D10.9%3BfontStyle%3D0%22%20parent%3D%221%22%20edge%3D%221%22%3E%20%20%20%20%20%20%20%20%20%20%20%3CmxGeometry%20width%3D%2250%22%20height%3D%2250%22%20relative%3D%221%22%20as%3D%22geometry%22%3E%20%20%20%20%20%20%20%20%20%20%20%20%20%3CmxPoint%20x%3D%22280%22%20y%3D%22565%22%20as%3D%22sourcePoint%22%20%2F%3E%20%20%20%20%20%20%20%20%20%20%20%20%20%3CmxPoint%20x%3D%22280%22%20y%3D%22270.0000000000001%22%20as%3D%22targetPoint%22%20%2F%3E%20%20%20%20%20%20%20%20%20%20%20%20%20%3CArray%20as%3D%22points%22%20%2F%3E%20%20%20%20%20%20%20%20%20%20%20%3C%2FmxGeometry%3E%20%20%20%20%20%20%20%20%20%3C%2FmxCell%3E%20%20%20%20%20%20%20%20%20%3CmxCell%20id%3D%22cQqXGhXMKhl466xhdUJn-2%22%20value%3D%22%22%20style%3D%22endArrow%3Dnone%3Bhtml%3D1%3Brounded%3D0%3BstrokeWidth%3D2%3BfontSize%3D10.9%3BfontStyle%3D0%3BfontFamily%3DNimbus%20Roman%20No9%20L%3BfontSource%3Dhttps%253A%252F%252Fwww.1001fonts.com%252Fdownload%252Ffont%252Fnimbus-roman-no9-l.regular.otf%3BexitX%3D0.679%3BexitY%3D0.023%3BexitDx%3D0%3BexitDy%3D0%3BexitPerimeter%3D0%3B%22%20parent%3D%221%22%20source%3D%22OQE20ANvS8DG4DLcXn3s-1%22%20edge%3D%221%22%3E%20%20%20%20%20%20%20%20%20%20%20%3CmxGeometry%20width%3D%2250%22%20height%3D%2250%22%20relative%3D%221%22%20as%3D%22geometry%22%3E%20%20%20%20%20%20%20%20%20%20%20%20%20%3CmxPoint%20x%3D%22270%22%20y%3D%22390%22%20as%3D%22sourcePoint%22%20%2F%3E%20%20%20%20%20%20%20%20%20%20%20%20%20%3CmxPoint%20x%3D%22640%22%20y%3D%22390%22%20as%3D%22targetPoint%22%20%2F%3E%20%20%20%20%20%20%20%20%20%20%20%3C%2FmxGeometry%3E%20%20%20%20%20%20%20%20%20%3C%2FmxCell%3E%20%20%20%20%20%20%20%20%20%3CmxCell%20id%3D%22cQqXGhXMKhl466xhdUJn-3%22%20value%3D%22%22%20style%3D%22endArrow%3Dclassic%3Bhtml%3D1%3Brounded%3D0%3BstrokeWidth%3D2%3BendFill%3D1%3BfontSize%3D10.9%3BfontStyle%3D0%3BfontFamily%3DNimbus%20Roman%20No9%20L%3BfontSource%3Dhttps%253A%252F%252Fwww.1001fonts.com%252Fdownload%252Ffont%252Fnimbus-roman-no9-l.regular.otf%3BstrokeColor%3D%23FF1818%3B%22%20parent%3D%221%22%20edge%3D%221%22%3E%20%20%20%20%20%20%20%20%20%20%20%3CmxGeometry%20width%3D%2250%22%20height%3D%2250%22%20relative%3D%221%22%20as%3D%22geometry%22%3E%20%20%20%20%20%20%20%20%20%20%20%20%20%3CmxPoint%20x%3D%22280%22%20y%3D%22390%22%20as%3D%22sourcePoint%22%20%2F%3E%20%20%20%20%20%20%20%20%20%20%20%20%20%3CmxPoint%20x%3D%22280.5%22%20y%3D%22510%22%20as%3D%22targetPoint%22%20%2F%3E%20%20%20%20%20%20%20%20%20%20%20%3C%2FmxGeometry%3E%20%20%20%20%20%20%20%20%20%3C%2FmxCell%3E%20%20%20%20%20%20%20%20%20%3CmxCell%20id%3D%22cQqXGhXMKhl466xhdUJn-4%22%20style%3D%22edgeStyle%3DorthogonalEdgeStyle%3Brounded%3D0%3BorthogonalLoop%3D1%3BjettySize%3Dauto%3Bhtml%3D1%3BexitX%3D0.5%3BexitY%3D1%3BexitDx%3D0%3BexitDy%3D0%3BfontSize%3D10.9%3BfontStyle%3D0%3BstrokeWidth%3D2%3BfontFamily%3DNimbus%20Roman%20No9%20L%3BfontSource%3Dhttps%253A%252F%252Fwww.1001fonts.com%252Fdownload%252Ffont%252Fnimbus-roman-no9-l.regular.otf%3B%22%20parent%3D%221%22%20edge%3D%221%22%3E%20%20%20%20%20%20%20%20%20%20%20%3CmxGeometry%20relative%3D%221%22%20as%3D%22geometry%22%3E%20%20%20%20%20%20%20%20%20%20%20%20%20%3CmxPoint%20x%3D%22260%22%20y%3D%22390%22%20as%3D%22sourcePoint%22%20%2F%3E%20%20%20%20%20%20%20%20%20%20%20%20%20%3CmxPoint%20x%3D%22260%22%20y%3D%22390%22%20as%3D%22targetPoint%22%20%2F%3E%20%20%20%20%20%20%20%20%20%20%20%3C%2FmxGeometry%3E%20%20%20%20%20%20%20%20%20%3C%2FmxCell%3E%20%20%20%20%20%20%20%20%20%3CmxCell%20id%3D%22cQqXGhXMKhl466xhdUJn-5%22%20value%3D%22%22%20style%3D%22endArrow%3Dclassic%3Bhtml%3D1%3Brounded%3D0%3BfontSize%3D10.9%3BstrokeWidth%3D2%3BendFill%3D1%3BfontStyle%3D0%3BentryX%3D0.5%3BentryY%3D1%3BentryDx%3D0%3BentryDy%3D0%3BfontFamily%3DNimbus%20Roman%20No9%20L%3BfontSource%3Dhttps%253A%252F%252Fwww.1001fonts.com%252Fdownload%252Ffont%252Fnimbus-roman-no9-l.regular.otf%3BstrokeColor%3D%231AFF1F%3B%22%20parent%3D%221%22%20edge%3D%221%22%3E%20%20%20%20%20%20%20%20%20%20%20%3CmxGeometry%20width%3D%2250%22%20height%3D%2250%22%20relative%3D%221%22%20as%3D%22geometry%22%3E%20%20%20%20%20%20%20%20%20%20%20%20%20%3CmxPoint%20x%3D%22639.43%22%20y%3D%22390%22%20as%3D%22sourcePoint%22%20%2F%3E%20%20%20%20%20%20%20%20%20%20%20%20%20%3CmxPoint%20x%3D%22639.93%22%20y%3D%22320%22%20as%3D%22targetPoint%22%20%2F%3E%20%20%20%20%20%20%20%20%20%20%20%3C%2FmxGeometry%3E%20%20%20%20%20%20%20%20%20%3C%2FmxCell%3E%20%20%20%20%20%20%20%20%20%3CmxCell%20id%3D%22cQqXGhXMKhl466xhdUJn-6%22%20value%3D%22100.000%20COP%22%20style%3D%22text%3Bhtml%3D1%3BstrokeColor%3Dnone%3BfillColor%3Dnone%3Balign%3Dcenter%3BverticalAlign%3Dmiddle%3BwhiteSpace%3Dwrap%3Brounded%3D0%3BfontSize%3D10.9%3BfontStyle%3D0%3BstrokeWidth%3D2%3BfontFamily%3DNimbus%20Roman%20No9%20L%3BfontSource%3Dhttps%253A%252F%252Fwww.1001fonts.com%252Fdownload%252Ffont%252Fnimbus-roman-no9-l.regular.otf%3B%22%20parent%3D%221%22%20vertex%3D%221%22%3E%20%20%20%20%20%20%20%20%20%20%20%3CmxGeometry%20x%3D%22170%22%20y%3D%22490%22%20width%3D%22130%22%20height%3D%2230%22%20as%3D%22geometry%22%20%2F%3E%20%20%20%20%20%20%20%20%20%3C%2FmxCell%3E%20%20%20%20%20%20%20%20%20%3CmxCell%20id%3D%22cQqXGhXMKhl466xhdUJn-8%22%20value%3D%221%22%20style%3D%22text%3Bhtml%3D1%3BstrokeColor%3Dnone%3BfillColor%3Dnone%3Balign%3Dcenter%3BverticalAlign%3Dmiddle%3BwhiteSpace%3Dwrap%3Brounded%3D0%3BfontSize%3D10.9%3BfontStyle%3D0%3BstrokeWidth%3D2%3BfontFamily%3DNimbus%20Roman%20No9%20L%3BfontSource%3Dhttps%253A%252F%252Fwww.1001fonts.com%252Fdownload%252Ffont%252Fnimbus-roman-no9-l.regular.otf%3B%22%20parent%3D%221%22%20vertex%3D%221%22%3E%20%20%20%20%20%20%20%20%20%20%20%3CmxGeometry%20x%3D%22290%22%20y%3D%22390%22%20width%3D%2260%22%20height%3D%2230%22%20as%3D%22geometry%22%20%2F%3E%20%20%20%20%20%20%20%20%20%3C%2FmxCell%3E%20%20%20%20%20%20%20%20%20%3CmxCell%20id%3D%22cQqXGhXMKhl466xhdUJn-9%22%20value%3D%22%26lt%3Bfont%20style%3D%26quot%3Bfont-size%3A%2010.9px%3B%26quot%3B%26gt%3Bpmv%26lt%3B%2Ffont%26gt%3B%22%20style%3D%22text%3Bhtml%3D1%3BstrokeColor%3Dnone%3BfillColor%3Dnone%3Balign%3Dcenter%3BverticalAlign%3Dmiddle%3BwhiteSpace%3Dwrap%3Brounded%3D0%3BfontStyle%3D0%3BstrokeWidth%3D2%3BfontFamily%3DNimbus%20Roman%20No9%20L%3BfontSource%3Dhttps%253A%252F%252Fwww.1001fonts.com%252Fdownload%252Ffont%252Fnimbus-roman-no9-l.regular.otf%3BfontSize%3D10.9%3B%22%20parent%3D%221%22%20vertex%3D%221%22%3E%20%20%20%20%20%20%20%20%20%20%20%3CmxGeometry%20x%3D%22630%22%20y%3D%22370%22%20width%3D%2260%22%20height%3D%2230%22%20as%3D%22geometry%22%20%2F%3E%20%20%20%20%20%20%20%20%20%3C%2FmxCell%3E%20%20%20%20%20%20%20%20%20%3CmxCell%20id%3D%22cQqXGhXMKhl466xhdUJn-10%22%20value%3D%22i%20%3D%205%25%20pmv%22%20style%3D%22text%3Bhtml%3D1%3BstrokeColor%3Dnone%3BfillColor%3Dnone%3Balign%3Dcenter%3BverticalAlign%3Dmiddle%3BwhiteSpace%3Dwrap%3Brounded%3D0%3BfontStyle%3D0%3BfontSize%3D10.9%3BstrokeWidth%3D2%3BfontFamily%3DNimbus%20Roman%20No9%20L%3BfontSource%3Dhttps%253A%252F%252Fwww.1001fonts.com%252Fdownload%252Ffont%252Fnimbus-roman-no9-l.regular.otf%3B%22%20parent%3D%221%22%20vertex%3D%221%22%3E%20%20%20%20%20%20%20%20%20%20%20%3CmxGeometry%20x%3D%22422.5%22%20y%3D%22400%22%20width%3D%2275%22%20height%3D%2230%22%20as%3D%22geometry%22%20%2F%3E%20%20%20%20%20%20%20%20%20%3C%2FmxCell%3E%20%20%20%20%20%20%20%20%20%3CmxCell%20id%3D%22cQqXGhXMKhl466xhdUJn-11%22%20value%3D%22%26lt%3Bspan%20style%3D%26quot%3Bfont-size%3A%2010.9px%3B%26quot%3B%26gt%3B10%26lt%3B%2Fspan%26gt%3B%22%20style%3D%22text%3Bhtml%3D1%3BstrokeColor%3Dnone%3BfillColor%3Dnone%3Balign%3Dcenter%3BverticalAlign%3Dmiddle%3BwhiteSpace%3Dwrap%3Brounded%3D0%3BstrokeWidth%3D2%3BfontFamily%3DNimbus%20Roman%20No9%20L%3BfontSource%3Dhttps%253A%252F%252Fwww.1001fonts.com%252Fdownload%252Ffont%252Fnimbus-roman-no9-l.regular.otf%3BfontSize%3D10.9%3BfontStyle%3D0%22%20parent%3D%221%22%20vertex%3D%221%22%3E%20%20%20%20%20%20%20%20%20%20%20%3CmxGeometry%20x%3D%22590%22%20y%3D%22390%22%20width%3D%2260%22%20height%3D%2230%22%20as%3D%22geometry%22%20%2F%3E%20%20%20%20%20%20%20%20%20%3C%2FmxCell%3E%20%20%20%20%20%20%20%20%20%3CmxCell%20id%3D%22cQqXGhXMKhl466xhdUJn-12%22%20value%3D%22%26lt%3Bspan%20style%3D%26quot%3Bfont-size%3A%2010.9px%3B%26quot%3B%26gt%3Bn%20%3D%2010%20pmv%26lt%3B%2Fspan%26gt%3B%22%20style%3D%22text%3Bhtml%3D1%3BstrokeColor%3Dnone%3BfillColor%3Dnone%3Balign%3Dcenter%3BverticalAlign%3Dmiddle%3BwhiteSpace%3Dwrap%3Brounded%3D0%3BfontSize%3D10.9%3BstrokeWidth%3D2%3BfontFamily%3DNimbus%20Roman%20No9%20L%3BfontSource%3Dhttps%253A%252F%252Fwww.1001fonts.com%252Fdownload%252Ffont%252Fnimbus-roman-no9-l.regular.otf%3BfontStyle%3D0%22%20parent%3D%221%22%20vertex%3D%221%22%3E%20%20%20%20%20%20%20%20%20%20%20%3CmxGeometry%20x%3D%22420%22%20y%3D%22430%22%20width%3D%2280%22%20height%3D%2230%22%20as%3D%22geometry%22%20%2F%3E%20%20%20%20%20%20%20%20%20%3C%2FmxCell%3E%20%20%20%20%20%20%20%20%20%3CmxCell%20id%3D%22cQqXGhXMKhl466xhdUJn-13%22%20value%3D%22pf%22%20style%3D%22text%3Bhtml%3D1%3BstrokeColor%3Dnone%3BfillColor%3Dnone%3Balign%3Dcenter%3BverticalAlign%3Dmiddle%3BwhiteSpace%3Dwrap%3Brounded%3D0%3BfontSize%3D10.9%3BstrokeWidth%3D2%3BfontFamily%3DNimbus%20Roman%20No9%20L%3BfontSource%3Dhttps%253A%252F%252Fwww.1001fonts.com%252Fdownload%252Ffont%252Fnimbus-roman-no9-l.regular.otf%3BfontStyle%3D0%22%20parent%3D%221%22%20vertex%3D%221%22%3E%20%20%20%20%20%20%20%20%20%20%20%3CmxGeometry%20x%3D%22250%22%20y%3D%22240%22%20width%3D%2260%22%20height%3D%2230%22%20as%3D%22geometry%22%20%2F%3E%20%20%20%20%20%20%20%20%20%3C%2FmxCell%3E%20%20%20%20%20%20%20%20%20%3CmxCell%20id%3D%22cQqXGhXMKhl466xhdUJn-14%22%20value%3D%22%22%20style%3D%22endArrow%3Dclassic%3Bhtml%3D1%3Brounded%3D0%3Bdashed%3D1%3BstrokeWidth%3D2%3BendFill%3D1%3BstrokeColor%3D%230A21B3%3BedgeStyle%3DorthogonalEdgeStyle%3Bcurved%3D1%3BfontFamily%3DNimbus%20Roman%20No9%20L%3BfontSource%3Dhttps%253A%252F%252Fwww.1001fonts.com%252Fdownload%252Ffont%252Fnimbus-roman-no9-l.regular.otf%3BfontSize%3D10.9%3BfontStyle%3D0%3BentryX%3D0.681%3BentryY%3D0.037%3BentryDx%3D0%3BentryDy%3D0%3BentryPerimeter%3D0%3B%22%20parent%3D%221%22%20target%3D%22OQE20ANvS8DG4DLcXn3s-1%22%20edge%3D%221%22%3E%20%20%20%20%20%20%20%20%20%20%20%3CmxGeometry%20width%3D%2250%22%20height%3D%2250%22%20relative%3D%221%22%20as%3D%22geometry%22%3E%20%20%20%20%20%20%20%20%20%20%20%20%20%3CmxPoint%20x%3D%22640%22%20y%3D%22390%22%20as%3D%22sourcePoint%22%20%2F%3E%20%20%20%20%20%20%20%20%20%20%20%20%20%3CmxPoint%20x%3D%22270%22%20y%3D%22390%22%20as%3D%22targetPoint%22%20%2F%3E%20%20%20%20%20%20%20%20%20%20%20%20%20%3CArray%20as%3D%22points%22%3E%20%20%20%20%20%20%20%20%20%20%20%20%20%20%20%3CmxPoint%20x%3D%22640%22%20y%3D%22470%22%20%2F%3E%20%20%20%20%20%20%20%20%20%20%20%20%20%20%20%3CmxPoint%20x%3D%22281%22%20y%3D%22470%22%20%2F%3E%20%20%20%20%20%20%20%20%20%20%20%20%20%3C%2FArray%3E%20%20%20%20%20%20%20%20%20%20%20%3C%2FmxGeometry%3E%20%20%20%20%20%20%20%20%20%3C%2FmxCell%3E%20%20%20%20%20%20%20%20%20%3CmxCell%20id%3D%22cQqXGhXMKhl466xhdUJn-15%22%20value%3D%22%22%20style%3D%22endArrow%3Dclassic%3Bhtml%3D1%3Brounded%3D0%3BfontSize%3D10.9%3BstrokeWidth%3D2%3BendFill%3D1%3BfontStyle%3D0%3BfontFamily%3DNimbus%20Roman%20No9%20L%3BfontSource%3Dhttps%253A%252F%252Fwww.1001fonts.com%252Fdownload%252Ffont%252Fnimbus-roman-no9-l.regular.otf%3BstrokeColor%3D%231AFF1F%3B%22%20parent%3D%221%22%20edge%3D%221%22%3E%20%20%20%20%20%20%20%20%20%20%20%3CmxGeometry%20width%3D%2250%22%20height%3D%2250%22%20relative%3D%221%22%20as%3D%22geometry%22%3E%20%20%20%20%20%20%20%20%20%20%20%20%20%3CmxPoint%20x%3D%22319.5%22%20y%3D%22390%22%20as%3D%22sourcePoint%22%20%2F%3E%20%20%20%20%20%20%20%20%20%20%20%20%20%3CmxPoint%20x%3D%22320%22%20y%3D%22320%22%20as%3D%22targetPoint%22%20%2F%3E%20%20%20%20%20%20%20%20%20%20%20%3C%2FmxGeometry%3E%20%20%20%20%20%20%20%20%20%3C%2FmxCell%3E%20%20%20%20%20%20%20%20%20%3CmxCell%20id%3D%22cQqXGhXMKhl466xhdUJn-16%22%20value%3D%2216.280%20COP%22%20style%3D%22text%3Bhtml%3D1%3BstrokeColor%3Dnone%3BfillColor%3Dnone%3Balign%3Dcenter%3BverticalAlign%3Dmiddle%3BwhiteSpace%3Dwrap%3Brounded%3D0%3BfontSize%3D10.9%3BfontStyle%3D0%3BstrokeWidth%3D2%3BfontFamily%3DNimbus%20Roman%20No9%20L%3BfontSource%3Dhttps%253A%252F%252Fwww.1001fonts.com%252Fdownload%252Ffont%252Fnimbus-roman-no9-l.regular.otf%3B%22%20parent%3D%221%22%20vertex%3D%221%22%3E%20%20%20%20%20%20%20%20%20%20%20%3CmxGeometry%20x%3D%22410%22%20y%3D%22290%22%20width%3D%22140%22%20height%3D%2230%22%20as%3D%22geometry%22%20%2F%3E%20%20%20%20%20%20%20%20%20%3C%2FmxCell%3E%20%20%20%20%20%20%20%20%20%3CmxCell%20id%3D%22cQqXGhXMKhl466xhdUJn-17%22%20value%3D%22%22%20style%3D%22endArrow%3Dnone%3Bhtml%3D1%3BstrokeWidth%3D2%3Brounded%3D0%3BfontFamily%3DNimbus%20Roman%20No9%20L%3BfontSource%3Dhttps%253A%252F%252Fwww.1001fonts.com%252Fdownload%252Ffont%252Fnimbus-roman-no9-l.regular.otf%3BfontSize%3D10.9%3BfontStyle%3D0%3Bdashed%3D1%3B%22%20parent%3D%221%22%20edge%3D%221%22%3E%20%20%20%20%20%20%20%20%20%20%20%3CmxGeometry%20width%3D%2250%22%20height%3D%2250%22%20relative%3D%221%22%20as%3D%22geometry%22%3E%20%20%20%20%20%20%20%20%20%20%20%20%20%3CmxPoint%20x%3D%22305%22%20y%3D%22319.43%22%20as%3D%22sourcePoint%22%20%2F%3E%20%20%20%20%20%20%20%20%20%20%20%20%20%3CmxPoint%20x%3D%22660%22%20y%3D%22320%22%20as%3D%22targetPoint%22%20%2F%3E%20%20%20%20%20%20%20%20%20%20%20%3C%2FmxGeometry%3E%20%20%20%20%20%20%20%20%20%3C%2FmxCell%3E%20%20%20%20%20%20%20%20%20%3CmxCell%20id%3D%22cQqXGhXMKhl466xhdUJn-18%22%20value%3D%22%26lt%3Bspan%20style%3D%26quot%3Bfont-size%3A%2010.9px%3B%26quot%3B%26gt%3BPROYECTO%20B%26lt%3B%2Fspan%26gt%3B%22%20style%3D%22text%3Bhtml%3D1%3BstrokeColor%3Dnone%3BfillColor%3Dnone%3Balign%3Dcenter%3BverticalAlign%3Dmiddle%3BwhiteSpace%3Dwrap%3Brounded%3D0%3BstrokeWidth%3D2%3BfontFamily%3DNimbus%20Roman%20No9%20L%3BfontSource%3Dhttps%253A%252F%252Fwww.1001fonts.com%252Fdownload%252Ffont%252Fnimbus-roman-no9-l.regular.otf%3BfontSize%3D10.9%3BfontStyle%3D0%22%20parent%3D%221%22%20vertex%3D%221%22%3E%20%20%20%20%20%20%20%20%20%20%20%3CmxGeometry%20x%3D%22260%22%20y%3D%22200%22%20width%3D%22100%22%20height%3D%2230%22%20as%3D%22geometry%22%20%2F%3E%20%20%20%20%20%20%20%20%20%3C%2FmxCell%3E%20%20%20%20%20%20%20%20%20%3CmxCell%20id%3D%22YbPZ1A-_1l45s-6ToXe5-1%22%20value%3D%22%22%20style%3D%22endArrow%3Dclassic%3Bhtml%3D1%3Brounded%3D0%3BfontSize%3D10.9%3BstrokeWidth%3D2%3BendFill%3D1%3BfontStyle%3D0%3BfontFamily%3DNimbus%20Roman%20No9%20L%3BfontSource%3Dhttps%253A%252F%252Fwww.1001fonts.com%252Fdownload%252Ffont%252Fnimbus-roman-no9-l.regular.otf%3BstrokeColor%3D%231AFF1F%3B%22%20parent%3D%221%22%20edge%3D%221%22%3E%20%20%20%20%20%20%20%20%20%20%20%3CmxGeometry%20width%3D%2250%22%20height%3D%2250%22%20relative%3D%221%22%20as%3D%22geometry%22%3E%20%20%20%20%20%20%20%20%20%20%20%20%20%3CmxPoint%20x%3D%22360%22%20y%3D%22390%22%20as%3D%22sourcePoint%22%20%2F%3E%20%20%20%20%20%20%20%20%20%20%20%20%20%3CmxPoint%20x%3D%22360.5%22%20y%3D%22320%22%20as%3D%22targetPoint%22%20%2F%3E%20%20%20%20%20%20%20%20%20%20%20%3C%2FmxGeometry%3E%20%20%20%20%20%20%20%20%20%3C%2FmxCell%3E%20%20%20%20%20%20%20%20%20%3CmxCell%20id%3D%22YbPZ1A-_1l45s-6ToXe5-2%22%20value%3D%222%22%20style%3D%22text%3Bhtml%3D1%3BstrokeColor%3Dnone%3BfillColor%3Dnone%3Balign%3Dcenter%3BverticalAlign%3Dmiddle%3BwhiteSpace%3Dwrap%3Brounded%3D0%3BfontSize%3D10.9%3BfontStyle%3D0%3BstrokeWidth%3D2%3BfontFamily%3DNimbus%20Roman%20No9%20L%3BfontSource%3Dhttps%253A%252F%252Fwww.1001fonts.com%252Fdownload%252Ffont%252Fnimbus-roman-no9-l.regular.otf%3B%22%20parent%3D%221%22%20vertex%3D%221%22%3E%20%20%20%20%20%20%20%20%20%20%20%3CmxGeometry%20x%3D%22330%22%20y%3D%22390%22%20width%3D%2260%22%20height%3D%2230%22%20as%3D%22geometry%22%20%2F%3E%20%20%20%20%20%20%20%20%20%3C%2FmxCell%3E%20%20%20%20%20%20%20%20%20%3CmxCell%20id%3D%22YbPZ1A-_1l45s-6ToXe5-3%22%20value%3D%22%22%20style%3D%22endArrow%3Dclassic%3Bhtml%3D1%3Brounded%3D0%3BfontSize%3D10.9%3BstrokeWidth%3D2%3BendFill%3D1%3BfontStyle%3D0%3BentryX%3D0.5%3BentryY%3D1%3BentryDx%3D0%3BentryDy%3D0%3BfontFamily%3DNimbus%20Roman%20No9%20L%3BfontSource%3Dhttps%253A%252F%252Fwww.1001fonts.com%252Fdownload%252Ffont%252Fnimbus-roman-no9-l.regular.otf%3BstrokeColor%3D%231AFF1F%3B%22%20parent%3D%221%22%20edge%3D%221%22%3E%20%20%20%20%20%20%20%20%20%20%20%3CmxGeometry%20width%3D%2250%22%20height%3D%2250%22%20relative%3D%221%22%20as%3D%22geometry%22%3E%20%20%20%20%20%20%20%20%20%20%20%20%20%3CmxPoint%20x%3D%22600%22%20y%3D%22390%22%20as%3D%22sourcePoint%22%20%2F%3E%20%20%20%20%20%20%20%20%20%20%20%20%20%3CmxPoint%20x%3D%22600.5%22%20y%3D%22320%22%20as%3D%22targetPoint%22%20%2F%3E%20%20%20%20%20%20%20%20%20%20%20%3C%2FmxGeometry%3E%20%20%20%20%20%20%20%20%20%3C%2FmxCell%3E%20%20%20%20%20%20%20%20%20%3CmxCell%20id%3D%22OQE20ANvS8DG4DLcXn3s-1%22%20value%3D%220%22%20style%3D%22text%3Bhtml%3D1%3BstrokeColor%3Dnone%3BfillColor%3Dnone%3Balign%3Dcenter%3BverticalAlign%3Dmiddle%3BwhiteSpace%3Dwrap%3Brounded%3D0%3BfontSize%3D10.9%3BfontStyle%3D0%3BstrokeWidth%3D2%3BfontFamily%3DNimbus%20Roman%20No9%20L%3BfontSource%3Dhttps%253A%252F%252Fwww.1001fonts.com%252Fdownload%252Ffont%252Fnimbus-roman-no9-l.regular.otf%3B%22%20parent%3D%221%22%20vertex%3D%221%22%3E%20%20%20%20%20%20%20%20%20%20%20%3CmxGeometry%20x%3D%22240%22%20y%3D%22390%22%20width%3D%2260%22%20height%3D%2230%22%20as%3D%22geometry%22%20%2F%3E%20%20%20%20%20%20%20%20%20%3C%2FmxCell%3E%20%20%20%20%20%20%20%20%20%3CmxCell%20id%3D%22OQE20ANvS8DG4DLcXn3s-2%22%20value%3D%22%26lt%3Bspan%20style%3D%26quot%3Bfont-size%3A%2010.9px%3B%26quot%3B%26gt%3B9%26lt%3B%2Fspan%26gt%3B%22%20style%3D%22text%3Bhtml%3D1%3BstrokeColor%3Dnone%3BfillColor%3Dnone%3Balign%3Dcenter%3BverticalAlign%3Dmiddle%3BwhiteSpace%3Dwrap%3Brounded%3D0%3BstrokeWidth%3D2%3BfontFamily%3DNimbus%20Roman%20No9%20L%3BfontSource%3Dhttps%253A%252F%252Fwww.1001fonts.com%252Fdownload%252Ffont%252Fnimbus-roman-no9-l.regular.otf%3BfontSize%3D10.9%3BfontStyle%3D0%22%20parent%3D%221%22%20vertex%3D%221%22%3E%20%20%20%20%20%20%20%20%20%20%20%3CmxGeometry%20x%3D%22570%22%20y%3D%22390%22%20width%3D%2260%22%20height%3D%2230%22%20as%3D%22geometry%22%20%2F%3E%20%20%20%20%20%20%20%20%20%3C%2FmxCell%3E%20%20%20%20%20%20%20%20%20%3CmxCell%20id%3D%22OQE20ANvS8DG4DLcXn3s-3%22%20value%3D%22%26lt%3Bb%26gt%3B...%26lt%3B%2Fb%26gt%3B%22%20style%3D%22text%3Bhtml%3D1%3BstrokeColor%3Dnone%3BfillColor%3Dnone%3Balign%3Dcenter%3BverticalAlign%3Dmiddle%3BwhiteSpace%3Dwrap%3Brounded%3D0%3BfontStyle%3D0%3BfontSize%3D10.9%3BstrokeWidth%3D2%3BfontFamily%3DNimbus%20Roman%20No9%20L%3BfontSource%3Dhttps%253A%252F%252Fwww.1001fonts.com%252Fdownload%252Ffont%252Fnimbus-roman-no9-l.regular.otf%3B%22%20parent%3D%221%22%20vertex%3D%221%22%3E%20%20%20%20%20%20%20%20%20%20%20%3CmxGeometry%20x%3D%22442.5%22%20y%3D%22340%22%20width%3D%2275%22%20height%3D%2230%22%20as%3D%22geometry%22%20%2F%3E%20%20%20%20%20%20%20%20%20%3C%2FmxCell%3E%20%20%20%20%20%20%20%3C%2Froot%3E%20%20%20%20%20%3C%2FmxGraphModel%3E%20%20%20%3C%2Fdiagram%3E%20%3C%2Fmxfile%3E%20">
  <defs
     id="defs86">
    <g
       id="g84">
      <g
         id="glyph-0-0">
        <path
           d="M 1.140625 0 L 1.140625 -5.125 L 5.234375 -5.125 L 5.234375 0 Z M 1.265625 -0.125 L 5.09375 -0.125 L 5.09375 -4.984375 L 1.265625 -4.984375 Z M 1.265625 -0.125 "
           id="path2" />
      </g>
      <g
         id="glyph-0-1">
        <path
           d="M 0.953125 -4.890625 L 2.28125 -5.53125 L 2.40625 -5.53125 L 2.40625 -0.953125 C 2.40625 -0.648438 2.414063 -0.460938 2.4375 -0.390625 C 2.46875 -0.316406 2.519531 -0.257813 2.59375 -0.21875 C 2.675781 -0.175781 2.84375 -0.148438 3.09375 -0.140625 L 3.09375 0 L 1.0625 0 L 1.0625 -0.140625 C 1.3125 -0.148438 1.472656 -0.171875 1.546875 -0.203125 C 1.617188 -0.242188 1.671875 -0.296875 1.703125 -0.359375 C 1.734375 -0.429688 1.75 -0.628906 1.75 -0.953125 L 1.75 -3.875 C 1.75 -4.269531 1.738281 -4.523438 1.71875 -4.640625 C 1.695313 -4.722656 1.660156 -4.785156 1.609375 -4.828125 C 1.554688 -4.867188 1.5 -4.890625 1.4375 -4.890625 C 1.332031 -4.890625 1.191406 -4.847656 1.015625 -4.765625 Z M 0.953125 -4.890625 "
           id="path5" />
      </g>
      <g
         id="glyph-0-2">
        <path
           d="M 0.296875 -2.671875 C 0.296875 -3.296875 0.390625 -3.828125 0.578125 -4.265625 C 0.765625 -4.710938 1.007813 -5.046875 1.3125 -5.265625 C 1.550781 -5.441406 1.800781 -5.53125 2.0625 -5.53125 C 2.476563 -5.53125 2.851563 -5.316406 3.1875 -4.890625 C 3.59375 -4.367188 3.796875 -3.660156 3.796875 -2.765625 C 3.796875 -2.128906 3.707031 -1.59375 3.53125 -1.15625 C 3.351563 -0.71875 3.125 -0.398438 2.84375 -0.203125 C 2.5625 -0.00390625 2.285156 0.09375 2.015625 0.09375 C 1.503906 0.09375 1.078125 -0.207031 0.734375 -0.8125 C 0.441406 -1.332031 0.296875 -1.953125 0.296875 -2.671875 Z M 1.078125 -2.578125 C 1.078125 -1.828125 1.171875 -1.21875 1.359375 -0.75 C 1.503906 -0.351563 1.726563 -0.15625 2.03125 -0.15625 C 2.175781 -0.15625 2.328125 -0.21875 2.484375 -0.34375 C 2.640625 -0.476563 2.753906 -0.695313 2.828125 -1 C 2.953125 -1.457031 3.015625 -2.101563 3.015625 -2.9375 C 3.015625 -3.550781 2.953125 -4.066406 2.828125 -4.484375 C 2.734375 -4.785156 2.609375 -5.003906 2.453125 -5.140625 C 2.347656 -5.222656 2.21875 -5.265625 2.0625 -5.265625 C 1.875 -5.265625 1.710938 -5.1875 1.578125 -5.03125 C 1.378906 -4.800781 1.242188 -4.445313 1.171875 -3.96875 C 1.109375 -3.5 1.078125 -3.035156 1.078125 -2.578125 Z M 1.078125 -2.578125 "
           id="path8" />
      </g>
      <g
         id="glyph-0-3">
        <path
           d="M 1.03125 -0.78125 C 1.15625 -0.78125 1.257813 -0.734375 1.34375 -0.640625 C 1.425781 -0.554688 1.46875 -0.453125 1.46875 -0.328125 C 1.46875 -0.203125 1.421875 -0.0976563 1.328125 -0.015625 C 1.242188 0.0664063 1.144531 0.109375 1.03125 0.109375 C 0.90625 0.109375 0.796875 0.0664063 0.703125 -0.015625 C 0.617188 -0.0976563 0.578125 -0.203125 0.578125 -0.328125 C 0.578125 -0.453125 0.617188 -0.554688 0.703125 -0.640625 C 0.796875 -0.734375 0.90625 -0.78125 1.03125 -0.78125 Z M 1.03125 -0.78125 "
           id="path11" />
      </g>
      <g
         id="glyph-0-4" />
      <g
         id="glyph-0-5">
        <path
           d="M 4.921875 -5.546875 L 5.046875 -3.703125 L 4.921875 -3.703125 C 4.765625 -4.253906 4.53125 -4.648438 4.21875 -4.890625 C 3.914063 -5.128906 3.550781 -5.25 3.125 -5.25 C 2.757813 -5.25 2.429688 -5.15625 2.140625 -4.96875 C 1.847656 -4.789063 1.617188 -4.503906 1.453125 -4.109375 C 1.285156 -3.710938 1.203125 -3.21875 1.203125 -2.625 C 1.203125 -2.132813 1.28125 -1.707031 1.4375 -1.34375 C 1.59375 -0.976563 1.828125 -0.703125 2.140625 -0.515625 C 2.460938 -0.328125 2.828125 -0.234375 3.234375 -0.234375 C 3.585938 -0.234375 3.894531 -0.304688 4.15625 -0.453125 C 4.425781 -0.597656 4.722656 -0.894531 5.046875 -1.34375 L 5.171875 -1.265625 C 4.898438 -0.785156 4.582031 -0.429688 4.21875 -0.203125 C 3.863281 0.015625 3.4375 0.125 2.9375 0.125 C 2.039063 0.125 1.34375 -0.207031 0.84375 -0.875 C 0.476563 -1.375 0.296875 -1.957031 0.296875 -2.625 C 0.296875 -3.164063 0.414063 -3.660156 0.65625 -4.109375 C 0.90625 -4.566406 1.238281 -4.921875 1.65625 -5.171875 C 2.082031 -5.421875 2.546875 -5.546875 3.046875 -5.546875 C 3.441406 -5.546875 3.832031 -5.445313 4.21875 -5.25 C 4.320313 -5.195313 4.398438 -5.171875 4.453125 -5.171875 C 4.523438 -5.171875 4.585938 -5.195313 4.640625 -5.25 C 4.710938 -5.320313 4.765625 -5.421875 4.796875 -5.546875 Z M 4.921875 -5.546875 "
           id="path15" />
      </g>
      <g
         id="glyph-0-6">
        <path
           d="M 3 -5.546875 C 3.695313 -5.546875 4.300781 -5.273438 4.8125 -4.734375 C 5.332031 -4.203125 5.59375 -3.539063 5.59375 -2.75 C 5.59375 -1.914063 5.332031 -1.226563 4.8125 -0.6875 C 4.289063 -0.144531 3.664063 0.125 2.9375 0.125 C 2.1875 0.125 1.554688 -0.140625 1.046875 -0.671875 C 0.535156 -1.203125 0.28125 -1.890625 0.28125 -2.734375 C 0.28125 -3.585938 0.578125 -4.289063 1.171875 -4.84375 C 1.679688 -5.3125 2.289063 -5.546875 3 -5.546875 Z M 2.921875 -5.25 C 2.429688 -5.25 2.039063 -5.070313 1.75 -4.71875 C 1.382813 -4.269531 1.203125 -3.613281 1.203125 -2.75 C 1.203125 -1.863281 1.390625 -1.179688 1.765625 -0.703125 C 2.054688 -0.335938 2.441406 -0.15625 2.921875 -0.15625 C 3.429688 -0.15625 3.851563 -0.351563 4.1875 -0.75 C 4.519531 -1.144531 4.6875 -1.773438 4.6875 -2.640625 C 4.6875 -3.566406 4.503906 -4.253906 4.140625 -4.703125 C 3.835938 -5.066406 3.429688 -5.25 2.921875 -5.25 Z M 2.921875 -5.25 "
           id="path18" />
      </g>
      <g
         id="glyph-0-7">
        <path
           d="M 1.671875 -2.53125 L 1.671875 -0.953125 C 1.671875 -0.617188 1.710938 -0.410156 1.796875 -0.328125 C 1.890625 -0.203125 2.039063 -0.140625 2.25 -0.140625 L 2.453125 -0.140625 L 2.453125 0 L 0.140625 0 L 0.140625 -0.140625 L 0.34375 -0.140625 C 0.570313 -0.140625 0.734375 -0.21875 0.828125 -0.375 C 0.878906 -0.457031 0.90625 -0.648438 0.90625 -0.953125 L 0.90625 -4.46875 C 0.90625 -4.800781 0.867188 -5.007813 0.796875 -5.09375 C 0.691406 -5.207031 0.539063 -5.265625 0.34375 -5.265625 L 0.140625 -5.265625 L 0.140625 -5.421875 L 2.125 -5.421875 C 2.601563 -5.421875 2.984375 -5.367188 3.265625 -5.265625 C 3.546875 -5.171875 3.78125 -5.003906 3.96875 -4.765625 C 4.164063 -4.523438 4.265625 -4.242188 4.265625 -3.921875 C 4.265625 -3.484375 4.117188 -3.125 3.828125 -2.84375 C 3.535156 -2.5625 3.125 -2.421875 2.59375 -2.421875 C 2.457031 -2.421875 2.3125 -2.429688 2.15625 -2.453125 C 2.007813 -2.472656 1.847656 -2.5 1.671875 -2.53125 Z M 1.671875 -2.765625 C 1.816406 -2.734375 1.941406 -2.710938 2.046875 -2.703125 C 2.160156 -2.691406 2.253906 -2.6875 2.328125 -2.6875 C 2.609375 -2.6875 2.847656 -2.789063 3.046875 -3 C 3.253906 -3.21875 3.359375 -3.5 3.359375 -3.84375 C 3.359375 -4.070313 3.304688 -4.285156 3.203125 -4.484375 C 3.109375 -4.691406 2.972656 -4.84375 2.796875 -4.9375 C 2.617188 -5.039063 2.421875 -5.09375 2.203125 -5.09375 C 2.066406 -5.09375 1.890625 -5.066406 1.671875 -5.015625 Z M 1.671875 -2.765625 "
           id="path21" />
      </g>
      <g
         id="glyph-0-8">
        <path
           d="M -0.015625 -3.296875 L 1.125 -3.75 L 1.265625 -3.75 L 1.265625 -2.890625 C 1.460938 -3.210938 1.65625 -3.4375 1.84375 -3.5625 C 2.03125 -3.695313 2.226563 -3.765625 2.4375 -3.765625 C 2.8125 -3.765625 3.117188 -3.625 3.359375 -3.34375 C 3.660156 -2.988281 3.8125 -2.53125 3.8125 -1.96875 C 3.8125 -1.332031 3.628906 -0.804688 3.265625 -0.390625 C 2.972656 -0.0546875 2.597656 0.109375 2.140625 0.109375 C 1.941406 0.109375 1.769531 0.0820313 1.625 0.03125 C 1.519531 -0.0078125 1.398438 -0.09375 1.265625 -0.21875 L 1.265625 0.90625 C 1.265625 1.15625 1.28125 1.3125 1.3125 1.375 C 1.34375 1.445313 1.394531 1.503906 1.46875 1.546875 C 1.550781 1.585938 1.691406 1.609375 1.890625 1.609375 L 1.890625 1.75 L -0.03125 1.75 L -0.03125 1.609375 L 0.078125 1.609375 C 0.222656 1.609375 0.347656 1.578125 0.453125 1.515625 C 0.503906 1.484375 0.539063 1.4375 0.5625 1.375 C 0.59375 1.3125 0.609375 1.144531 0.609375 0.875 L 0.609375 -2.578125 C 0.609375 -2.816406 0.597656 -2.96875 0.578125 -3.03125 C 0.554688 -3.09375 0.519531 -3.140625 0.46875 -3.171875 C 0.425781 -3.203125 0.363281 -3.21875 0.28125 -3.21875 C 0.21875 -3.21875 0.140625 -3.203125 0.046875 -3.171875 Z M 1.265625 -2.65625 L 1.265625 -1.296875 C 1.265625 -0.992188 1.28125 -0.800781 1.3125 -0.71875 C 1.34375 -0.5625 1.429688 -0.421875 1.578125 -0.296875 C 1.722656 -0.179688 1.90625 -0.125 2.125 -0.125 C 2.394531 -0.125 2.613281 -0.226563 2.78125 -0.4375 C 3 -0.707031 3.109375 -1.09375 3.109375 -1.59375 C 3.109375 -2.144531 2.984375 -2.570313 2.734375 -2.875 C 2.566406 -3.082031 2.363281 -3.1875 2.125 -3.1875 C 2 -3.1875 1.875 -3.15625 1.75 -3.09375 C 1.65625 -3.039063 1.492188 -2.894531 1.265625 -2.65625 Z M 1.265625 -2.65625 "
           id="path24" />
      </g>
      <g
         id="glyph-0-9">
        <path
           d="M 1.34375 -2.984375 C 1.613281 -3.253906 1.769531 -3.410156 1.8125 -3.453125 C 1.9375 -3.554688 2.066406 -3.632813 2.203125 -3.6875 C 2.335938 -3.738281 2.472656 -3.765625 2.609375 -3.765625 C 2.835938 -3.765625 3.035156 -3.695313 3.203125 -3.5625 C 3.367188 -3.4375 3.476563 -3.242188 3.53125 -2.984375 C 3.8125 -3.304688 4.046875 -3.515625 4.234375 -3.609375 C 4.421875 -3.710938 4.613281 -3.765625 4.8125 -3.765625 C 5.007813 -3.765625 5.179688 -3.710938 5.328125 -3.609375 C 5.484375 -3.515625 5.601563 -3.351563 5.6875 -3.125 C 5.75 -2.96875 5.78125 -2.726563 5.78125 -2.40625 L 5.78125 -0.828125 C 5.78125 -0.597656 5.796875 -0.441406 5.828125 -0.359375 C 5.859375 -0.296875 5.910156 -0.242188 5.984375 -0.203125 C 6.054688 -0.160156 6.171875 -0.140625 6.328125 -0.140625 L 6.328125 0 L 4.53125 0 L 4.53125 -0.140625 L 4.59375 -0.140625 C 4.757813 -0.140625 4.882813 -0.171875 4.96875 -0.234375 C 5.03125 -0.273438 5.070313 -0.34375 5.09375 -0.4375 C 5.113281 -0.476563 5.125 -0.609375 5.125 -0.828125 L 5.125 -2.40625 C 5.125 -2.695313 5.085938 -2.90625 5.015625 -3.03125 C 4.910156 -3.207031 4.742188 -3.296875 4.515625 -3.296875 C 4.367188 -3.296875 4.222656 -3.257813 4.078125 -3.1875 C 3.941406 -3.113281 3.769531 -2.984375 3.5625 -2.796875 L 3.5625 -0.828125 C 3.5625 -0.578125 3.578125 -0.421875 3.609375 -0.359375 C 3.640625 -0.296875 3.691406 -0.242188 3.765625 -0.203125 C 3.835938 -0.160156 3.96875 -0.140625 4.15625 -0.140625 L 4.15625 0 L 2.3125 0 L 2.3125 -0.140625 C 2.507813 -0.140625 2.644531 -0.160156 2.71875 -0.203125 C 2.800781 -0.253906 2.859375 -0.332031 2.890625 -0.4375 C 2.898438 -0.476563 2.90625 -0.609375 2.90625 -0.828125 L 2.90625 -2.40625 C 2.90625 -2.695313 2.863281 -2.910156 2.78125 -3.046875 C 2.65625 -3.210938 2.488281 -3.296875 2.28125 -3.296875 C 2.132813 -3.296875 1.992188 -3.257813 1.859375 -3.1875 C 1.628906 -3.070313 1.457031 -2.941406 1.34375 -2.796875 L 1.34375 -0.828125 C 1.34375 -0.585938 1.359375 -0.429688 1.390625 -0.359375 C 1.421875 -0.285156 1.46875 -0.226563 1.53125 -0.1875 C 1.601563 -0.15625 1.738281 -0.140625 1.9375 -0.140625 L 1.9375 0 L 0.125 0 L 0.125 -0.140625 C 0.289063 -0.140625 0.40625 -0.15625 0.46875 -0.1875 C 0.539063 -0.226563 0.59375 -0.285156 0.625 -0.359375 C 0.664063 -0.441406 0.6875 -0.597656 0.6875 -0.828125 L 0.6875 -2.234375 C 0.6875 -2.628906 0.671875 -2.882813 0.640625 -3 C 0.628906 -3.09375 0.601563 -3.15625 0.5625 -3.1875 C 0.519531 -3.21875 0.460938 -3.234375 0.390625 -3.234375 C 0.316406 -3.234375 0.226563 -3.210938 0.125 -3.171875 L 0.0625 -3.328125 L 1.171875 -3.765625 L 1.34375 -3.765625 Z M 1.34375 -2.984375 "
           id="path27" />
      </g>
      <g
         id="glyph-0-10">
        <path
           d="M 0.0625 -3.65625 L 1.796875 -3.65625 L 1.796875 -3.515625 L 1.671875 -3.515625 C 1.566406 -3.515625 1.488281 -3.488281 1.4375 -3.4375 C 1.382813 -3.382813 1.359375 -3.316406 1.359375 -3.234375 C 1.359375 -3.140625 1.382813 -3.03125 1.4375 -2.90625 L 2.296875 -0.875 L 3.15625 -2.984375 C 3.21875 -3.128906 3.25 -3.238281 3.25 -3.3125 C 3.25 -3.351563 3.234375 -3.382813 3.203125 -3.40625 C 3.179688 -3.445313 3.144531 -3.472656 3.09375 -3.484375 C 3.050781 -3.503906 2.960938 -3.515625 2.828125 -3.515625 L 2.828125 -3.65625 L 4.015625 -3.65625 L 4.015625 -3.515625 C 3.878906 -3.503906 3.785156 -3.476563 3.734375 -3.4375 C 3.640625 -3.351563 3.554688 -3.21875 3.484375 -3.03125 L 2.171875 0.109375 L 2.015625 0.109375 L 0.703125 -2.984375 C 0.648438 -3.117188 0.59375 -3.21875 0.53125 -3.28125 C 0.476563 -3.34375 0.410156 -3.398438 0.328125 -3.453125 C 0.285156 -3.472656 0.195313 -3.492188 0.0625 -3.515625 Z M 0.0625 -3.65625 "
           id="path30" />
      </g>
      <g
         id="glyph-0-11">
        <path
           d="M 1.1875 -5.6875 C 1.300781 -5.6875 1.394531 -5.644531 1.46875 -5.5625 C 1.550781 -5.488281 1.59375 -5.394531 1.59375 -5.28125 C 1.59375 -5.164063 1.550781 -5.066406 1.46875 -4.984375 C 1.394531 -4.910156 1.300781 -4.875 1.1875 -4.875 C 1.070313 -4.875 0.972656 -4.910156 0.890625 -4.984375 C 0.816406 -5.066406 0.78125 -5.164063 0.78125 -5.28125 C 0.78125 -5.394531 0.816406 -5.488281 0.890625 -5.5625 C 0.972656 -5.644531 1.070313 -5.6875 1.1875 -5.6875 Z M 1.515625 -3.765625 L 1.515625 -0.828125 C 1.515625 -0.597656 1.53125 -0.441406 1.5625 -0.359375 C 1.601563 -0.285156 1.65625 -0.226563 1.71875 -0.1875 C 1.78125 -0.15625 1.898438 -0.140625 2.078125 -0.140625 L 2.078125 0 L 0.296875 0 L 0.296875 -0.140625 C 0.472656 -0.140625 0.59375 -0.15625 0.65625 -0.1875 C 0.71875 -0.226563 0.765625 -0.285156 0.796875 -0.359375 C 0.835938 -0.441406 0.859375 -0.597656 0.859375 -0.828125 L 0.859375 -2.234375 C 0.859375 -2.628906 0.84375 -2.890625 0.8125 -3.015625 C 0.800781 -3.097656 0.773438 -3.15625 0.734375 -3.1875 C 0.691406 -3.21875 0.632813 -3.234375 0.5625 -3.234375 C 0.488281 -3.234375 0.398438 -3.210938 0.296875 -3.171875 L 0.234375 -3.328125 L 1.34375 -3.765625 Z M 1.515625 -3.765625 "
           id="path33" />
      </g>
      <g
         id="glyph-0-12">
        <path
           d="M 0.140625 -3.53125 L 4.46875 -3.53125 L 4.46875 -3.203125 L 0.140625 -3.203125 Z M 0.140625 -2.234375 L 4.46875 -2.234375 L 4.46875 -1.90625 L 0.140625 -1.90625 Z M 0.140625 -2.234375 "
           id="path36" />
      </g>
      <g
         id="glyph-0-13">
        <path
           d="M 3.546875 -5.421875 L 3.25 -4.734375 L 1.609375 -4.734375 L 1.25 -4.015625 C 1.957031 -3.910156 2.519531 -3.644531 2.9375 -3.21875 C 3.289063 -2.863281 3.46875 -2.441406 3.46875 -1.953125 C 3.46875 -1.660156 3.410156 -1.394531 3.296875 -1.15625 C 3.179688 -0.914063 3.035156 -0.707031 2.859375 -0.53125 C 2.679688 -0.363281 2.484375 -0.226563 2.265625 -0.125 C 1.960938 0.0195313 1.648438 0.09375 1.328125 0.09375 C 0.992188 0.09375 0.753906 0.0390625 0.609375 -0.0625 C 0.460938 -0.175781 0.390625 -0.300781 0.390625 -0.4375 C 0.390625 -0.507813 0.421875 -0.570313 0.484375 -0.625 C 0.546875 -0.6875 0.625 -0.71875 0.71875 -0.71875 C 0.78125 -0.71875 0.835938 -0.707031 0.890625 -0.6875 C 0.941406 -0.664063 1.03125 -0.613281 1.15625 -0.53125 C 1.363281 -0.382813 1.566406 -0.3125 1.765625 -0.3125 C 2.078125 -0.3125 2.351563 -0.429688 2.59375 -0.671875 C 2.832031 -0.910156 2.953125 -1.195313 2.953125 -1.53125 C 2.953125 -1.851563 2.84375 -2.15625 2.625 -2.4375 C 2.414063 -2.726563 2.128906 -2.953125 1.765625 -3.109375 C 1.472656 -3.222656 1.078125 -3.289063 0.578125 -3.3125 L 1.609375 -5.421875 Z M 3.546875 -5.421875 "
           id="path39" />
      </g>
      <g
         id="glyph-0-14">
        <path
           d="M 5.5625 -5.546875 L 1.609375 0.21875 L 1.265625 0.21875 L 5.203125 -5.546875 Z M 1.453125 -5.546875 C 1.816406 -5.546875 2.097656 -5.394531 2.296875 -5.09375 C 2.492188 -4.800781 2.59375 -4.457031 2.59375 -4.0625 C 2.59375 -3.601563 2.476563 -3.242188 2.25 -2.984375 C 2.03125 -2.734375 1.765625 -2.609375 1.453125 -2.609375 C 1.234375 -2.609375 1.035156 -2.664063 0.859375 -2.78125 C 0.691406 -2.90625 0.550781 -3.082031 0.4375 -3.3125 C 0.332031 -3.539063 0.28125 -3.789063 0.28125 -4.0625 C 0.28125 -4.34375 0.332031 -4.601563 0.4375 -4.84375 C 0.550781 -5.082031 0.695313 -5.257813 0.875 -5.375 C 1.0625 -5.488281 1.253906 -5.546875 1.453125 -5.546875 Z M 1.4375 -5.328125 C 1.300781 -5.328125 1.179688 -5.242188 1.078125 -5.078125 C 0.972656 -4.921875 0.921875 -4.585938 0.921875 -4.078125 C 0.921875 -3.703125 0.953125 -3.414063 1.015625 -3.21875 C 1.054688 -3.070313 1.125 -2.960938 1.21875 -2.890625 C 1.28125 -2.835938 1.351563 -2.8125 1.4375 -2.8125 C 1.5625 -2.8125 1.671875 -2.878906 1.765625 -3.015625 C 1.890625 -3.222656 1.953125 -3.566406 1.953125 -4.046875 C 1.953125 -4.554688 1.890625 -4.914063 1.765625 -5.125 C 1.679688 -5.257813 1.570313 -5.328125 1.4375 -5.328125 Z M 5.375 -2.6875 C 5.570313 -2.6875 5.765625 -2.625 5.953125 -2.5 C 6.140625 -2.382813 6.28125 -2.210938 6.375 -1.984375 C 6.476563 -1.753906 6.53125 -1.503906 6.53125 -1.234375 C 6.53125 -0.765625 6.414063 -0.40625 6.1875 -0.15625 C 5.96875 0.09375 5.703125 0.21875 5.390625 0.21875 C 5.191406 0.21875 5 0.15625 4.8125 0.03125 C 4.632813 -0.0820313 4.492188 -0.25 4.390625 -0.46875 C 4.285156 -0.6875 4.234375 -0.941406 4.234375 -1.234375 C 4.234375 -1.515625 4.285156 -1.769531 4.390625 -2 C 4.492188 -2.226563 4.632813 -2.398438 4.8125 -2.515625 C 5 -2.628906 5.1875 -2.6875 5.375 -2.6875 Z M 5.390625 -2.484375 C 5.253906 -2.484375 5.140625 -2.410156 5.046875 -2.265625 C 4.929688 -2.078125 4.875 -1.722656 4.875 -1.203125 C 4.875 -0.722656 4.9375 -0.390625 5.0625 -0.203125 C 5.144531 -0.0664063 5.253906 0 5.390625 0 C 5.503906 0 5.613281 -0.0703125 5.71875 -0.21875 C 5.84375 -0.414063 5.90625 -0.75 5.90625 -1.21875 C 5.90625 -1.71875 5.84375 -2.070313 5.71875 -2.28125 C 5.625 -2.414063 5.515625 -2.484375 5.390625 -2.484375 Z M 5.390625 -2.484375 "
           id="path42" />
      </g>
      <g
         id="glyph-0-15">
        <path
           d="M 1.328125 -3 C 1.753906 -3.507813 2.160156 -3.765625 2.546875 -3.765625 C 2.742188 -3.765625 2.914063 -3.710938 3.0625 -3.609375 C 3.207031 -3.515625 3.320313 -3.351563 3.40625 -3.125 C 3.46875 -2.96875 3.5 -2.722656 3.5 -2.390625 L 3.5 -0.828125 C 3.5 -0.597656 3.515625 -0.441406 3.546875 -0.359375 C 3.578125 -0.285156 3.625 -0.226563 3.6875 -0.1875 C 3.757813 -0.15625 3.882813 -0.140625 4.0625 -0.140625 L 4.0625 0 L 2.25 0 L 2.25 -0.140625 L 2.328125 -0.140625 C 2.492188 -0.140625 2.609375 -0.164063 2.671875 -0.21875 C 2.742188 -0.269531 2.796875 -0.347656 2.828125 -0.453125 C 2.835938 -0.492188 2.84375 -0.617188 2.84375 -0.828125 L 2.84375 -2.328125 C 2.84375 -2.660156 2.796875 -2.898438 2.703125 -3.046875 C 2.617188 -3.203125 2.472656 -3.28125 2.265625 -3.28125 C 1.953125 -3.28125 1.640625 -3.109375 1.328125 -2.765625 L 1.328125 -0.828125 C 1.328125 -0.578125 1.34375 -0.425781 1.375 -0.375 C 1.40625 -0.289063 1.453125 -0.226563 1.515625 -0.1875 C 1.585938 -0.15625 1.722656 -0.140625 1.921875 -0.140625 L 1.921875 0 L 0.109375 0 L 0.109375 -0.140625 L 0.1875 -0.140625 C 0.375 -0.140625 0.5 -0.1875 0.5625 -0.28125 C 0.625 -0.375 0.65625 -0.554688 0.65625 -0.828125 L 0.65625 -2.1875 C 0.65625 -2.625 0.644531 -2.890625 0.625 -2.984375 C 0.613281 -3.085938 0.585938 -3.15625 0.546875 -3.1875 C 0.503906 -3.21875 0.445313 -3.234375 0.375 -3.234375 C 0.300781 -3.234375 0.210938 -3.210938 0.109375 -3.171875 L 0.046875 -3.328125 L 1.15625 -3.765625 L 1.328125 -3.765625 Z M 1.328125 -3 "
           id="path45" />
      </g>
      <g
         id="glyph-0-16">
        <path
           d="M 1.6875 -3.375 L 1.6875 -0.96875 C 1.6875 -0.625 1.722656 -0.40625 1.796875 -0.3125 C 1.898438 -0.195313 2.03125 -0.140625 2.1875 -0.140625 L 2.53125 -0.140625 L 2.53125 0 L 0.34375 0 L 0.34375 -0.140625 L 0.5 -0.140625 C 0.601563 -0.140625 0.695313 -0.164063 0.78125 -0.21875 C 0.875 -0.269531 0.9375 -0.34375 0.96875 -0.4375 C 1.007813 -0.53125 1.03125 -0.707031 1.03125 -0.96875 L 1.03125 -3.375 L 0.3125 -3.375 L 0.3125 -3.65625 L 1.03125 -3.65625 L 1.03125 -3.90625 C 1.03125 -4.269531 1.085938 -4.578125 1.203125 -4.828125 C 1.316406 -5.078125 1.492188 -5.28125 1.734375 -5.4375 C 1.984375 -5.59375 2.253906 -5.671875 2.546875 -5.671875 C 2.828125 -5.671875 3.085938 -5.582031 3.328125 -5.40625 C 3.484375 -5.28125 3.5625 -5.144531 3.5625 -5 C 3.5625 -4.914063 3.523438 -4.835938 3.453125 -4.765625 C 3.378906 -4.703125 3.304688 -4.671875 3.234375 -4.671875 C 3.171875 -4.671875 3.101563 -4.691406 3.03125 -4.734375 C 2.96875 -4.773438 2.882813 -4.867188 2.78125 -5.015625 C 2.6875 -5.160156 2.597656 -5.257813 2.515625 -5.3125 C 2.429688 -5.363281 2.335938 -5.390625 2.234375 -5.390625 C 2.117188 -5.390625 2.015625 -5.351563 1.921875 -5.28125 C 1.835938 -5.21875 1.773438 -5.117188 1.734375 -4.984375 C 1.703125 -4.847656 1.6875 -4.492188 1.6875 -3.921875 L 1.6875 -3.65625 L 2.625 -3.65625 L 2.625 -3.375 Z M 1.6875 -3.375 "
           id="path48" />
      </g>
      <g
         id="glyph-0-17">
        <path
           d="M 3.671875 -5.53125 L 3.671875 -5.390625 C 3.316406 -5.347656 3.023438 -5.273438 2.796875 -5.171875 C 2.578125 -5.066406 2.359375 -4.90625 2.140625 -4.6875 C 1.929688 -4.476563 1.753906 -4.238281 1.609375 -3.96875 C 1.460938 -3.707031 1.34375 -3.394531 1.25 -3.03125 C 1.632813 -3.289063 2.019531 -3.421875 2.40625 -3.421875 C 2.78125 -3.421875 3.101563 -3.269531 3.375 -2.96875 C 3.644531 -2.675781 3.78125 -2.296875 3.78125 -1.828125 C 3.78125 -1.367188 3.640625 -0.953125 3.359375 -0.578125 C 3.035156 -0.128906 2.601563 0.09375 2.0625 0.09375 C 1.6875 0.09375 1.367188 -0.0234375 1.109375 -0.265625 C 0.609375 -0.742188 0.359375 -1.363281 0.359375 -2.125 C 0.359375 -2.613281 0.453125 -3.078125 0.640625 -3.515625 C 0.835938 -3.953125 1.113281 -4.335938 1.46875 -4.671875 C 1.832031 -5.015625 2.179688 -5.242188 2.515625 -5.359375 C 2.847656 -5.472656 3.15625 -5.53125 3.4375 -5.53125 Z M 1.1875 -2.734375 C 1.132813 -2.367188 1.109375 -2.078125 1.109375 -1.859375 C 1.109375 -1.609375 1.15625 -1.332031 1.25 -1.03125 C 1.34375 -0.726563 1.484375 -0.488281 1.671875 -0.3125 C 1.804688 -0.1875 1.972656 -0.125 2.171875 -0.125 C 2.398438 -0.125 2.601563 -0.234375 2.78125 -0.453125 C 2.96875 -0.671875 3.0625 -0.984375 3.0625 -1.390625 C 3.0625 -1.847656 2.96875 -2.242188 2.78125 -2.578125 C 2.601563 -2.910156 2.347656 -3.078125 2.015625 -3.078125 C 1.921875 -3.078125 1.8125 -3.054688 1.6875 -3.015625 C 1.570313 -2.972656 1.40625 -2.878906 1.1875 -2.734375 Z M 1.1875 -2.734375 "
           id="path51" />
      </g>
      <g
         id="glyph-0-18">
        <path
           d="M 3.75 -1.046875 L 3.375 0 L 0.171875 0 L 0.171875 -0.140625 C 1.117188 -1.003906 1.78125 -1.707031 2.15625 -2.25 C 2.539063 -2.789063 2.734375 -3.285156 2.734375 -3.734375 C 2.734375 -4.078125 2.628906 -4.359375 2.421875 -4.578125 C 2.210938 -4.804688 1.960938 -4.921875 1.671875 -4.921875 C 1.398438 -4.921875 1.15625 -4.84375 0.9375 -4.6875 C 0.726563 -4.53125 0.578125 -4.300781 0.484375 -4 L 0.328125 -4 C 0.398438 -4.488281 0.570313 -4.863281 0.84375 -5.125 C 1.125 -5.394531 1.46875 -5.53125 1.875 -5.53125 C 2.3125 -5.53125 2.675781 -5.390625 2.96875 -5.109375 C 3.269531 -4.828125 3.421875 -4.492188 3.421875 -4.109375 C 3.421875 -3.835938 3.359375 -3.5625 3.234375 -3.28125 C 3.035156 -2.851563 2.710938 -2.398438 2.265625 -1.921875 C 1.609375 -1.191406 1.195313 -0.753906 1.03125 -0.609375 L 2.4375 -0.609375 C 2.726563 -0.609375 2.929688 -0.617188 3.046875 -0.640625 C 3.160156 -0.660156 3.265625 -0.703125 3.359375 -0.765625 C 3.453125 -0.828125 3.535156 -0.921875 3.609375 -1.046875 Z M 3.75 -1.046875 "
           id="path54" />
      </g>
      <g
         id="glyph-0-19">
        <path
           d="M 1.578125 -2.734375 C 1.140625 -3.085938 0.859375 -3.367188 0.734375 -3.578125 C 0.617188 -3.785156 0.5625 -4.003906 0.5625 -4.234375 C 0.5625 -4.585938 0.695313 -4.890625 0.96875 -5.140625 C 1.238281 -5.398438 1.597656 -5.53125 2.046875 -5.53125 C 2.484375 -5.53125 2.832031 -5.410156 3.09375 -5.171875 C 3.363281 -4.941406 3.5 -4.671875 3.5 -4.359375 C 3.5 -4.160156 3.425781 -3.957031 3.28125 -3.75 C 3.144531 -3.539063 2.847656 -3.289063 2.390625 -3 C 2.859375 -2.632813 3.164063 -2.347656 3.3125 -2.140625 C 3.519531 -1.867188 3.625 -1.582031 3.625 -1.28125 C 3.625 -0.90625 3.476563 -0.582031 3.1875 -0.3125 C 2.894531 -0.0390625 2.515625 0.09375 2.046875 0.09375 C 1.523438 0.09375 1.125 -0.0664063 0.84375 -0.390625 C 0.613281 -0.648438 0.5 -0.929688 0.5 -1.234375 C 0.5 -1.472656 0.578125 -1.707031 0.734375 -1.9375 C 0.898438 -2.175781 1.179688 -2.441406 1.578125 -2.734375 Z M 2.203125 -3.15625 C 2.515625 -3.445313 2.710938 -3.675781 2.796875 -3.84375 C 2.890625 -4.007813 2.9375 -4.195313 2.9375 -4.40625 C 2.9375 -4.6875 2.859375 -4.90625 2.703125 -5.0625 C 2.546875 -5.21875 2.332031 -5.296875 2.0625 -5.296875 C 1.78125 -5.296875 1.554688 -5.21875 1.390625 -5.0625 C 1.222656 -4.90625 1.140625 -4.722656 1.140625 -4.515625 C 1.140625 -4.378906 1.171875 -4.238281 1.234375 -4.09375 C 1.304688 -3.957031 1.410156 -3.828125 1.546875 -3.703125 Z M 1.765625 -2.578125 C 1.535156 -2.390625 1.367188 -2.1875 1.265625 -1.96875 C 1.160156 -1.75 1.109375 -1.507813 1.109375 -1.25 C 1.109375 -0.90625 1.203125 -0.628906 1.390625 -0.421875 C 1.578125 -0.222656 1.816406 -0.125 2.109375 -0.125 C 2.390625 -0.125 2.617188 -0.203125 2.796875 -0.359375 C 2.972656 -0.523438 3.0625 -0.722656 3.0625 -0.953125 C 3.0625 -1.148438 3.007813 -1.320313 2.90625 -1.46875 C 2.71875 -1.75 2.335938 -2.117188 1.765625 -2.578125 Z M 1.765625 -2.578125 "
           id="path57" />
      </g>
      <g
         id="glyph-0-20">
        <path
           d="M 5.53125 0 L 4.078125 0 L 2.25 -2.53125 C 2.113281 -2.53125 2.003906 -2.53125 1.921875 -2.53125 C 1.878906 -2.53125 1.835938 -2.53125 1.796875 -2.53125 C 1.765625 -2.53125 1.726563 -2.53125 1.6875 -2.53125 L 1.6875 -0.953125 C 1.6875 -0.617188 1.722656 -0.410156 1.796875 -0.328125 C 1.898438 -0.203125 2.050781 -0.140625 2.25 -0.140625 L 2.46875 -0.140625 L 2.46875 0 L 0.140625 0 L 0.140625 -0.140625 L 0.34375 -0.140625 C 0.570313 -0.140625 0.734375 -0.21875 0.828125 -0.375 C 0.890625 -0.457031 0.921875 -0.648438 0.921875 -0.953125 L 0.921875 -4.46875 C 0.921875 -4.800781 0.882813 -5.007813 0.8125 -5.09375 C 0.707031 -5.207031 0.550781 -5.265625 0.34375 -5.265625 L 0.140625 -5.265625 L 0.140625 -5.421875 L 2.109375 -5.421875 C 2.691406 -5.421875 3.117188 -5.378906 3.390625 -5.296875 C 3.660156 -5.210938 3.890625 -5.054688 4.078125 -4.828125 C 4.273438 -4.609375 4.375 -4.34375 4.375 -4.03125 C 4.375 -3.695313 4.265625 -3.40625 4.046875 -3.15625 C 3.828125 -2.914063 3.488281 -2.742188 3.03125 -2.640625 L 4.15625 -1.078125 C 4.40625 -0.722656 4.625 -0.488281 4.8125 -0.375 C 5 -0.257813 5.238281 -0.179688 5.53125 -0.140625 Z M 1.6875 -2.78125 C 1.738281 -2.78125 1.78125 -2.78125 1.8125 -2.78125 C 1.851563 -2.78125 1.882813 -2.78125 1.90625 -2.78125 C 2.425781 -2.78125 2.816406 -2.890625 3.078125 -3.109375 C 3.335938 -3.335938 3.46875 -3.625 3.46875 -3.96875 C 3.46875 -4.3125 3.359375 -4.585938 3.140625 -4.796875 C 2.929688 -5.015625 2.65625 -5.125 2.3125 -5.125 C 2.15625 -5.125 1.945313 -5.097656 1.6875 -5.046875 Z M 1.6875 -2.78125 "
           id="path60" />
      </g>
      <g
         id="glyph-0-21">
        <path
           d="M 3.90625 -5.421875 L 5.796875 -5.421875 L 5.796875 -5.265625 L 5.6875 -5.265625 C 5.613281 -5.265625 5.507813 -5.234375 5.375 -5.171875 C 5.25 -5.117188 5.128906 -5.035156 5.015625 -4.921875 C 4.910156 -4.804688 4.78125 -4.617188 4.625 -4.359375 L 3.3125 -2.296875 L 3.3125 -0.9375 C 3.3125 -0.601563 3.347656 -0.394531 3.421875 -0.3125 C 3.523438 -0.195313 3.6875 -0.140625 3.90625 -0.140625 L 4.078125 -0.140625 L 4.078125 0 L 1.78125 0 L 1.78125 -0.140625 L 1.96875 -0.140625 C 2.195313 -0.140625 2.359375 -0.210938 2.453125 -0.359375 C 2.515625 -0.441406 2.546875 -0.632813 2.546875 -0.9375 L 2.546875 -2.21875 L 1.0625 -4.5 C 0.882813 -4.757813 0.765625 -4.921875 0.703125 -4.984375 C 0.640625 -5.054688 0.507813 -5.140625 0.3125 -5.234375 C 0.257813 -5.253906 0.179688 -5.265625 0.078125 -5.265625 L 0.078125 -5.421875 L 2.390625 -5.421875 L 2.390625 -5.265625 L 2.28125 -5.265625 C 2.15625 -5.265625 2.035156 -5.234375 1.921875 -5.171875 C 1.816406 -5.117188 1.765625 -5.035156 1.765625 -4.921875 C 1.765625 -4.828125 1.847656 -4.65625 2.015625 -4.40625 L 3.140625 -2.65625 L 4.203125 -4.328125 C 4.367188 -4.578125 4.453125 -4.765625 4.453125 -4.890625 C 4.453125 -4.960938 4.429688 -5.023438 4.390625 -5.078125 C 4.347656 -5.140625 4.289063 -5.1875 4.21875 -5.21875 C 4.15625 -5.25 4.050781 -5.265625 3.90625 -5.265625 Z M 3.90625 -5.421875 "
           id="path63" />
      </g>
      <g
         id="glyph-0-22">
        <path
           d="M 1.71875 -5.125 L 1.71875 -2.984375 L 2.90625 -2.984375 C 3.207031 -2.984375 3.410156 -3.03125 3.515625 -3.125 C 3.660156 -3.25 3.738281 -3.460938 3.75 -3.765625 L 3.90625 -3.765625 L 3.90625 -1.890625 L 3.75 -1.890625 C 3.71875 -2.148438 3.679688 -2.316406 3.640625 -2.390625 C 3.585938 -2.484375 3.507813 -2.554688 3.40625 -2.609375 C 3.300781 -2.660156 3.132813 -2.6875 2.90625 -2.6875 L 1.71875 -2.6875 L 1.71875 -0.90625 C 1.71875 -0.664063 1.726563 -0.519531 1.75 -0.46875 C 1.769531 -0.414063 1.804688 -0.375 1.859375 -0.34375 C 1.910156 -0.3125 2.007813 -0.296875 2.15625 -0.296875 L 3.078125 -0.296875 C 3.378906 -0.296875 3.597656 -0.316406 3.734375 -0.359375 C 3.878906 -0.398438 4.015625 -0.484375 4.140625 -0.609375 C 4.304688 -0.773438 4.476563 -1.023438 4.65625 -1.359375 L 4.8125 -1.359375 L 4.34375 0 L 0.171875 0 L 0.171875 -0.140625 L 0.359375 -0.140625 C 0.484375 -0.140625 0.601563 -0.171875 0.71875 -0.234375 C 0.800781 -0.273438 0.859375 -0.335938 0.890625 -0.421875 C 0.921875 -0.515625 0.9375 -0.691406 0.9375 -0.953125 L 0.9375 -4.484375 C 0.9375 -4.828125 0.90625 -5.035156 0.84375 -5.109375 C 0.75 -5.210938 0.585938 -5.265625 0.359375 -5.265625 L 0.171875 -5.265625 L 0.171875 -5.421875 L 4.34375 -5.421875 L 4.40625 -4.234375 L 4.25 -4.234375 C 4.195313 -4.515625 4.132813 -4.707031 4.0625 -4.8125 C 4 -4.925781 3.898438 -5.007813 3.765625 -5.0625 C 3.660156 -5.101563 3.472656 -5.125 3.203125 -5.125 Z M 1.71875 -5.125 "
           id="path66" />
      </g>
      <g
         id="glyph-0-23">
        <path
           d="M 4.734375 -5.421875 L 4.796875 -4.15625 L 4.640625 -4.15625 C 4.609375 -4.375 4.570313 -4.53125 4.53125 -4.625 C 4.445313 -4.78125 4.332031 -4.894531 4.1875 -4.96875 C 4.050781 -5.039063 3.875 -5.078125 3.65625 -5.078125 L 2.890625 -5.078125 L 2.890625 -0.9375 C 2.890625 -0.601563 2.925781 -0.394531 3 -0.3125 C 3.101563 -0.195313 3.257813 -0.140625 3.46875 -0.140625 L 3.65625 -0.140625 L 3.65625 0 L 1.359375 0 L 1.359375 -0.140625 L 1.546875 -0.140625 C 1.773438 -0.140625 1.9375 -0.210938 2.03125 -0.359375 C 2.09375 -0.441406 2.125 -0.632813 2.125 -0.9375 L 2.125 -5.078125 L 1.46875 -5.078125 C 1.21875 -5.078125 1.039063 -5.0625 0.9375 -5.03125 C 0.789063 -4.976563 0.664063 -4.878906 0.5625 -4.734375 C 0.46875 -4.585938 0.414063 -4.394531 0.40625 -4.15625 L 0.25 -4.15625 L 0.3125 -5.421875 Z M 4.734375 -5.421875 "
           id="path69" />
      </g>
      <g
         id="glyph-0-24">
        <path
           d="M 3.78125 -2.765625 C 4.15625 -2.679688 4.4375 -2.550781 4.625 -2.375 C 4.882813 -2.132813 5.015625 -1.835938 5.015625 -1.484375 C 5.015625 -1.210938 4.925781 -0.953125 4.75 -0.703125 C 4.582031 -0.460938 4.347656 -0.285156 4.046875 -0.171875 C 3.753906 -0.0546875 3.300781 0 2.6875 0 L 0.140625 0 L 0.140625 -0.140625 L 0.34375 -0.140625 C 0.5625 -0.140625 0.722656 -0.210938 0.828125 -0.359375 C 0.890625 -0.453125 0.921875 -0.648438 0.921875 -0.953125 L 0.921875 -4.46875 C 0.921875 -4.800781 0.878906 -5.007813 0.796875 -5.09375 C 0.691406 -5.207031 0.539063 -5.265625 0.34375 -5.265625 L 0.140625 -5.265625 L 0.140625 -5.421875 L 2.484375 -5.421875 C 2.921875 -5.421875 3.269531 -5.390625 3.53125 -5.328125 C 3.925781 -5.234375 4.226563 -5.0625 4.4375 -4.8125 C 4.65625 -4.570313 4.765625 -4.289063 4.765625 -3.96875 C 4.765625 -3.695313 4.679688 -3.453125 4.515625 -3.234375 C 4.347656 -3.023438 4.101563 -2.867188 3.78125 -2.765625 Z M 1.6875 -2.984375 C 1.78125 -2.960938 1.890625 -2.945313 2.015625 -2.9375 C 2.148438 -2.925781 2.289063 -2.921875 2.4375 -2.921875 C 2.832031 -2.921875 3.125 -2.960938 3.3125 -3.046875 C 3.507813 -3.128906 3.660156 -3.257813 3.765625 -3.4375 C 3.867188 -3.613281 3.921875 -3.800781 3.921875 -4 C 3.921875 -4.320313 3.789063 -4.59375 3.53125 -4.8125 C 3.28125 -5.039063 2.90625 -5.15625 2.40625 -5.15625 C 2.132813 -5.15625 1.894531 -5.125 1.6875 -5.0625 Z M 1.6875 -0.390625 C 2 -0.316406 2.304688 -0.28125 2.609375 -0.28125 C 3.085938 -0.28125 3.453125 -0.390625 3.703125 -0.609375 C 3.953125 -0.828125 4.078125 -1.097656 4.078125 -1.421875 C 4.078125 -1.628906 4.019531 -1.828125 3.90625 -2.015625 C 3.789063 -2.210938 3.601563 -2.367188 3.34375 -2.484375 C 3.09375 -2.597656 2.773438 -2.65625 2.390625 -2.65625 C 2.222656 -2.65625 2.082031 -2.648438 1.96875 -2.640625 C 1.851563 -2.640625 1.757813 -2.628906 1.6875 -2.609375 Z M 1.6875 -0.390625 "
           id="path72" />
      </g>
      <g
         id="glyph-0-25">
        <path
           d="M 0.4375 0.109375 L 0.4375 -0.03125 C 0.78125 -0.0390625 1.097656 -0.125 1.390625 -0.28125 C 1.691406 -0.4375 1.984375 -0.707031 2.265625 -1.09375 C 2.546875 -1.476563 2.738281 -1.90625 2.84375 -2.375 C 2.425781 -2.101563 2.050781 -1.96875 1.71875 -1.96875 C 1.332031 -1.96875 1.003906 -2.113281 0.734375 -2.40625 C 0.460938 -2.707031 0.328125 -3.101563 0.328125 -3.59375 C 0.328125 -4.0625 0.460938 -4.484375 0.734375 -4.859375 C 1.054688 -5.304688 1.484375 -5.53125 2.015625 -5.53125 C 2.460938 -5.53125 2.84375 -5.347656 3.15625 -4.984375 C 3.539063 -4.523438 3.734375 -3.960938 3.734375 -3.296875 C 3.734375 -2.691406 3.585938 -2.128906 3.296875 -1.609375 C 3.003906 -1.085938 2.59375 -0.65625 2.0625 -0.3125 C 1.632813 -0.03125 1.164063 0.109375 0.65625 0.109375 Z M 2.90625 -2.671875 C 2.957031 -3.015625 2.984375 -3.289063 2.984375 -3.5 C 2.984375 -3.757813 2.9375 -4.039063 2.84375 -4.34375 C 2.757813 -4.644531 2.632813 -4.875 2.46875 -5.03125 C 2.3125 -5.1875 2.128906 -5.265625 1.921875 -5.265625 C 1.691406 -5.265625 1.484375 -5.160156 1.296875 -4.953125 C 1.117188 -4.742188 1.03125 -4.425781 1.03125 -4 C 1.03125 -3.4375 1.148438 -3 1.390625 -2.6875 C 1.566406 -2.457031 1.78125 -2.34375 2.03125 -2.34375 C 2.15625 -2.34375 2.300781 -2.367188 2.46875 -2.421875 C 2.632813 -2.484375 2.78125 -2.566406 2.90625 -2.671875 Z M 2.90625 -2.671875 "
           id="path75" />
      </g>
      <g
         id="glyph-1-0">
        <path
           d="M 1.140625 0 L 1.140625 -5.125 L 5.234375 -5.125 L 5.234375 0 Z M 1.265625 -0.125 L 5.09375 -0.125 L 5.09375 -4.984375 L 1.265625 -4.984375 Z M 1.265625 -0.125 "
           id="path78" />
      </g>
      <g
         id="glyph-1-1">
        <path
           d="M 1.03125 -1.234375 C 1.207031 -1.234375 1.359375 -1.164063 1.484375 -1.03125 C 1.617188 -0.90625 1.6875 -0.75 1.6875 -0.5625 C 1.6875 -0.375 1.617188 -0.21875 1.484375 -0.09375 C 1.359375 0.03125 1.207031 0.09375 1.03125 0.09375 C 0.84375 0.09375 0.679688 0.03125 0.546875 -0.09375 C 0.421875 -0.21875 0.359375 -0.375 0.359375 -0.5625 C 0.359375 -0.75 0.421875 -0.90625 0.546875 -1.03125 C 0.679688 -1.164063 0.84375 -1.234375 1.03125 -1.234375 Z M 1.03125 -1.234375 "
           id="path81" />
      </g>
    </g>
  </defs>
  <path
     fill-rule="nonzero"
     fill="rgb(0%, 0%, 0%)"
     fill-opacity="1"
     d="M 81.800781 273.925781 L 81.800781 269.421875 L 83.304688 269.421875 L 83.304688 273.925781 M 81.800781 264.917969 L 81.800781 260.417969 L 83.304688 260.417969 L 83.304688 264.917969 M 81.800781 255.914063 L 81.800781 251.410156 L 83.304688 251.410156 L 83.304688 255.914063 M 81.800781 246.90625 L 81.800781 242.40625 L 83.304688 242.40625 L 83.304688 246.90625 M 81.800781 237.902344 L 81.800781 233.398438 L 83.304688 233.398438 L 83.304688 237.902344 M 81.800781 228.894531 L 81.800781 224.394531 L 83.304688 224.394531 L 83.304688 228.894531 M 81.800781 219.890625 L 81.800781 215.386719 L 83.304688 215.386719 L 83.304688 219.890625 M 81.800781 210.886719 L 81.800781 206.382813 L 83.304688 206.382813 L 83.304688 210.886719 M 81.800781 201.878906 L 81.800781 197.375 L 83.304688 197.375 L 83.304688 201.878906 M 81.800781 192.875 L 81.800781 188.371094 L 83.304688 188.371094 L 83.304688 192.875 M 81.800781 183.867188 L 81.800781 179.363281 L 83.304688 179.363281 L 83.304688 183.867188 M 81.800781 174.863281 L 81.800781 170.359375 L 83.304688 170.359375 L 83.304688 174.863281 M 81.800781 165.855469 L 81.800781 161.351563 L 83.304688 161.351563 L 83.304688 165.855469 M 81.800781 156.851563 L 81.800781 152.347656 L 83.304688 152.347656 L 83.304688 156.851563 M 81.800781 147.84375 L 81.800781 143.339844 L 83.304688 143.339844 L 83.304688 147.84375 M 81.800781 138.839844 L 81.800781 134.335938 L 83.304688 134.335938 L 83.304688 138.839844 M 81.800781 129.832031 L 81.800781 125.332031 L 83.304688 125.332031 L 83.304688 129.832031 M 81.800781 120.828125 L 81.800781 116.324219 L 83.304688 116.324219 L 83.304688 120.828125 M 81.800781 111.820313 L 81.800781 107.320313 L 83.304688 107.320313 L 83.304688 111.820313 M 81.800781 102.816406 L 81.800781 98.3125 L 83.304688 98.3125 L 83.304688 102.816406 M 81.800781 93.808594 L 81.800781 89.308594 L 83.304688 89.308594 L 83.304688 93.808594 M 81.800781 84.804688 L 81.800781 80.300781 L 83.304688 80.300781 L 83.304688 84.804688 M 81.800781 75.796875 L 81.800781 71.296875 L 83.304688 71.296875 L 83.304688 75.796875 M 81.800781 66.792969 L 81.800781 62.289063 L 83.304688 62.289063 L 83.304688 66.792969 M 81.800781 57.785156 L 81.800781 53.285156 L 83.304688 53.285156 L 83.304688 57.785156 "
     id="path88" />
  <path
     fill="none"
     stroke-width="2"
     stroke-linecap="butt"
     stroke-linejoin="miter"
     stroke="rgb(0%, 0%, 0%)"
     stroke-opacity="1"
     stroke-miterlimit="10"
     d="M 110.741662 190.690521 L 470.001437 189.998255 "
     transform="matrix(0.75048, 0, 0, 0.75048, 0, 0)"
     id="path90" />
  <path
     fill="none"
     stroke-width="2"
     stroke-linecap="butt"
     stroke-linejoin="miter"
     stroke="rgb(100%, 9.408569%, 9.408569%)"
     stroke-opacity="1"
     stroke-miterlimit="10"
     d="M 110.002551 189.998255 L 110.471002 301.760098 "
     transform="matrix(0.75048, 0, 0, 0.75048, 0, 0)"
     id="path92" />
  <path
     fill-rule="nonzero"
     fill="rgb(100%, 9.408569%, 9.408569%)"
     fill-opacity="1"
     stroke-width="2"
     stroke-linecap="butt"
     stroke-linejoin="miter"
     stroke="rgb(100%, 9.408569%, 9.408569%)"
     stroke-opacity="1"
     stroke-miterlimit="10"
     d="M 110.491822 307.761467 L 106.457944 299.782197 L 110.471002 301.760098 L 114.458035 299.750967 Z M 110.491822 307.761467 "
     transform="matrix(0.75048, 0, 0, 0.75048, 0, 0)"
     id="path94" />
  <path
     fill="none"
     stroke-width="2"
     stroke-linecap="butt"
     stroke-linejoin="miter"
     stroke="rgb(10.198975%, 100%, 12.159729%)"
     stroke-opacity="1"
     stroke-miterlimit="10"
     d="M 469.428887 189.998255 L 469.871312 128.240885 "
     transform="matrix(0.75048, 0, 0, 0.75048, 0, 0)"
     id="path96" />
  <path
     fill-rule="nonzero"
     fill="rgb(10.198975%, 100%, 12.159729%)"
     fill-opacity="1"
     stroke-width="2"
     stroke-linecap="butt"
     stroke-linejoin="miter"
     stroke="rgb(10.198975%, 100%, 12.159729%)"
     stroke-opacity="1"
     stroke-miterlimit="10"
     d="M 469.907747 122.239515 L 473.858345 130.260426 L 469.871312 128.240885 L 465.858254 130.208376 Z M 469.907747 122.239515 "
     transform="matrix(0.75048, 0, 0, 0.75048, 0, 0)"
     id="path98" />
  <g
     fill="#000000"
     fill-opacity="1"
     id="g102">
    <use
       xlink:href="#glyph-0-1"
       x="26.501316"
       y="231.89824"
       id="use100" />
  </g>
  <g
     fill="#000000"
     fill-opacity="1"
     id="g106">
    <use
       xlink:href="#glyph-0-2"
       x="30.591429"
       y="231.89824"
       id="use104" />
  </g>
  <g
     fill="#000000"
     fill-opacity="1"
     id="g110">
    <use
       xlink:href="#glyph-0-2"
       x="34.681541"
       y="231.89824"
       id="use108" />
  </g>
  <g
     fill="#000000"
     fill-opacity="1"
     id="g114">
    <use
       xlink:href="#glyph-0-3"
       x="38.771652"
       y="231.89824"
       id="use112" />
  </g>
  <g
     fill="#000000"
     fill-opacity="1"
     id="g118">
    <use
       xlink:href="#glyph-0-2"
       x="40.816704"
       y="231.89824"
       id="use116" />
  </g>
  <g
     fill="#000000"
     fill-opacity="1"
     id="g122">
    <use
       xlink:href="#glyph-0-2"
       x="44.906815"
       y="231.89824"
       id="use120" />
  </g>
  <g
     fill="#000000"
     fill-opacity="1"
     id="g126">
    <use
       xlink:href="#glyph-0-2"
       x="48.996929"
       y="231.89824"
       id="use124" />
  </g>
  <g
     fill="#000000"
     fill-opacity="1"
     id="g130">
    <use
       xlink:href="#glyph-0-4"
       x="53.08704"
       y="231.89824"
       id="use128" />
  </g>
  <g
     fill="#000000"
     fill-opacity="1"
     id="g134">
    <use
       xlink:href="#glyph-0-5"
       x="55.132092"
       y="231.89824"
       id="use132" />
  </g>
  <g
     fill="#000000"
     fill-opacity="1"
     id="g138">
    <use
       xlink:href="#glyph-0-6"
       x="60.58823"
       y="231.89824"
       id="use136" />
  </g>
  <g
     fill="#000000"
     fill-opacity="1"
     id="g142">
    <use
       xlink:href="#glyph-0-7"
       x="66.495728"
       y="231.89824"
       id="use140" />
  </g>
  <g
     fill="#000000"
     fill-opacity="1"
     id="g146">
    <use
       xlink:href="#glyph-0-1"
       x="110.51987"
       y="156.85027"
       id="use144" />
  </g>
  <g
     fill="#000000"
     fill-opacity="1"
     id="g150">
    <use
       xlink:href="#glyph-0-8"
       x="360.45309"
       y="141.84067"
       id="use148" />
  </g>
  <g
     fill="#000000"
     fill-opacity="1"
     id="g154">
    <use
       xlink:href="#glyph-0-9"
       x="364.54318"
       y="141.84067"
       id="use152" />
  </g>
  <g
     fill="#000000"
     fill-opacity="1"
     id="g158">
    <use
       xlink:href="#glyph-0-10"
       x="370.90604"
       y="141.84067"
       id="use156" />
  </g>
  <g
     fill="#000000"
     fill-opacity="1"
     id="g162">
    <use
       xlink:href="#glyph-0-11"
       x="198.77161"
       y="164.35507"
       id="use160" />
  </g>
  <g
     fill="#000000"
     fill-opacity="1"
     id="g166">
    <use
       xlink:href="#glyph-0-4"
       x="201.04433"
       y="164.35507"
       id="use164" />
  </g>
  <g
     fill="#000000"
     fill-opacity="1"
     id="g172">
    <use
       xlink:href="#glyph-0-12"
       x="203.08939"
       y="164.35507"
       id="use168" />
    <use
       xlink:href="#glyph-0-4"
       x="207.70274"
       y="164.35507"
       id="use170" />
  </g>
  <g
     fill="#000000"
     fill-opacity="1"
     id="g176">
    <use
       xlink:href="#glyph-0-13"
       x="209.74779"
       y="164.35507"
       id="use174" />
  </g>
  <g
     fill="#000000"
     fill-opacity="1"
     id="g180">
    <use
       xlink:href="#glyph-0-14"
       x="213.83791"
       y="164.35507"
       id="use178" />
  </g>
  <g
     fill="#000000"
     fill-opacity="1"
     id="g184">
    <use
       xlink:href="#glyph-0-4"
       x="220.65208"
       y="164.35507"
       id="use182" />
  </g>
  <g
     fill="#000000"
     fill-opacity="1"
     id="g188">
    <use
       xlink:href="#glyph-0-8"
       x="222.69714"
       y="164.35507"
       id="use186" />
  </g>
  <g
     fill="#000000"
     fill-opacity="1"
     id="g192">
    <use
       xlink:href="#glyph-0-9"
       x="226.78725"
       y="164.35507"
       id="use190" />
  </g>
  <g
     fill="#000000"
     fill-opacity="1"
     id="g196">
    <use
       xlink:href="#glyph-0-10"
       x="233.15009"
       y="164.35507"
       id="use194" />
  </g>
  <g
     fill="#000000"
     fill-opacity="1"
     id="g200">
    <use
       xlink:href="#glyph-0-1"
       x="333.62344"
       y="156.85027"
       id="use198" />
  </g>
  <g
     fill="#000000"
     fill-opacity="1"
     id="g204">
    <use
       xlink:href="#glyph-0-2"
       x="337.71353"
       y="156.85027"
       id="use202" />
  </g>
  <g
     fill="#000000"
     fill-opacity="1"
     id="g208">
    <use
       xlink:href="#glyph-0-15"
       x="198.85368"
       y="186.86946"
       id="use206" />
  </g>
  <g
     fill="#000000"
     fill-opacity="1"
     id="g212">
    <use
       xlink:href="#glyph-0-4"
       x="202.94379"
       y="186.86946"
       id="use210" />
  </g>
  <g
     fill="#000000"
     fill-opacity="1"
     id="g218">
    <use
       xlink:href="#glyph-0-12"
       x="204.98885"
       y="186.86946"
       id="use214" />
    <use
       xlink:href="#glyph-0-4"
       x="209.6022"
       y="186.86946"
       id="use216" />
  </g>
  <g
     fill="#000000"
     fill-opacity="1"
     id="g222">
    <use
       xlink:href="#glyph-0-1"
       x="211.64726"
       y="186.86946"
       id="use220" />
  </g>
  <g
     fill="#000000"
     fill-opacity="1"
     id="g226">
    <use
       xlink:href="#glyph-0-2"
       x="215.73737"
       y="186.86946"
       id="use224" />
  </g>
  <g
     fill="#000000"
     fill-opacity="1"
     id="g230">
    <use
       xlink:href="#glyph-0-4"
       x="219.82748"
       y="186.86946"
       id="use228" />
  </g>
  <g
     fill="#000000"
     fill-opacity="1"
     id="g234">
    <use
       xlink:href="#glyph-0-8"
       x="221.87253"
       y="186.86946"
       id="use232" />
  </g>
  <g
     fill="#000000"
     fill-opacity="1"
     id="g238">
    <use
       xlink:href="#glyph-0-9"
       x="225.96265"
       y="186.86946"
       id="use236" />
  </g>
  <g
     fill="#000000"
     fill-opacity="1"
     id="g242">
    <use
       xlink:href="#glyph-0-10"
       x="232.32549"
       y="186.86946"
       id="use240" />
  </g>
  <g
     fill="#000000"
     fill-opacity="1"
     id="g246">
    <use
       xlink:href="#glyph-0-8"
       x="79.140434"
       y="44.278305"
       id="use244" />
  </g>
  <g
     fill="#000000"
     fill-opacity="1"
     id="g250">
    <use
       xlink:href="#glyph-0-16"
       x="83.230545"
       y="44.278305"
       id="use248" />
  </g>
  <path
     fill-rule="nonzero"
     fill="rgb(3.919983%, 12.939453%, 70.199585%)"
     fill-opacity="1"
     d="M 353.476563 142.589844 C 353.476563 144.160156 353.40625 145.695313 353.273438 147.203125 L 351.777344 147.070313 C 351.910156 145.605469 351.976563 144.113281 351.976563 142.589844 Z M 352.644531 151.714844 C 352.359375 153.230469 351.996094 154.710938 351.5625 156.160156 L 350.125 155.726563 C 350.546875 154.328125 350.894531 152.898438 351.171875 151.4375 Z M 350.007813 160.46875 C 349.410156 161.871094 348.738281 163.238281 347.988281 164.574219 L 346.679688 163.839844 C 347.402344 162.550781 348.050781 161.234375 348.625 159.882813 Z M 345.535156 168.445313 C 344.664063 169.667969 343.722656 170.855469 342.710938 172.015625 L 341.582031 171.027344 C 342.5625 169.90625 343.46875 168.757813 344.308594 167.574219 Z M 339.53125 175.328125 C 338.453125 176.351563 337.316406 177.347656 336.117188 178.316406 L 335.175781 177.148438 C 336.34375 176.207031 337.449219 175.238281 338.496094 174.242188 Z M 332.46875 181.039063 C 331.242188 181.886719 329.960938 182.710938 328.628906 183.511719 L 327.855469 182.222656 C 329.160156 181.441406 330.414063 180.632813 331.613281 179.804688 Z M 324.691406 185.71875 C 323.371094 186.414063 322 187.085938 320.585938 187.742188 L 319.957031 186.378906 C 321.347656 185.734375 322.695313 185.074219 323.992188 184.390625 Z M 316.464844 189.535156 C 315.085938 190.101563 313.667969 190.648438 312.214844 191.179688 L 311.699219 189.769531 C 313.136719 189.246094 314.535156 188.703125 315.894531 188.148438 Z M 307.945313 192.648438 C 306.539063 193.105469 305.101563 193.550781 303.632813 193.976563 L 303.214844 192.535156 C 304.667969 192.113281 306.089844 191.675781 307.480469 191.222656 Z M 299.21875 195.191406 C 297.804688 195.558594 296.367188 195.914063 294.898438 196.257813 L 294.558594 194.796875 C 296.011719 194.457031 297.441406 194.105469 298.839844 193.738281 Z M 290.414063 197.25 C 288.976563 197.550781 287.515625 197.839844 286.03125 198.117188 L 285.753906 196.640625 C 287.230469 196.363281 288.679688 196.078125 290.109375 195.78125 Z M 281.597656 198.898438 C 280.097656 199.152344 278.574219 199.390625 277.027344 199.621094 L 276.808594 198.136719 C 278.34375 197.910156 279.859375 197.667969 281.351563 197.421875 Z M 272.664063 200.234375 C 271.191406 200.425781 269.695313 200.613281 268.183594 200.789063 L 268.007813 199.300781 C 269.515625 199.125 271 198.9375 272.46875 198.746094 Z M 263.597656 201.289063 C 262.152344 201.4375 260.6875 201.578125 259.207031 201.710938 L 259.074219 200.214844 C 260.546875 200.082031 262.003906 199.945313 263.445313 199.796875 Z M 254.714844 202.082031 C 253.195313 202.199219 251.664063 202.308594 250.113281 202.40625 L 250.015625 200.910156 C 251.558594 200.808594 253.085938 200.703125 254.597656 200.585938 Z M 245.695313 202.671875 C 244.21875 202.75 242.726563 202.824219 241.214844 202.890625 L 241.148438 201.390625 C 242.652344 201.324219 244.140625 201.253906 245.613281 201.171875 Z M 236.648438 203.070313 C 235.160156 203.121094 233.65625 203.167969 232.136719 203.207031 L 232.097656 201.703125 C 233.609375 201.667969 235.109375 201.621094 236.597656 201.570313 Z M 227.691406 203.300781 L 223.171875 203.355469 L 223.152344 201.855469 L 227.671875 201.796875 Z M 218.566406 203.378906 L 217.976563 203.378906 L 213.945313 203.367188 L 213.953125 201.867188 L 217.976563 201.878906 L 218.566406 201.878906 Z M 209.398438 203.324219 L 204.941406 203.25 L 204.964844 201.75 L 209.425781 201.824219 Z M 200.480469 203.140625 L 195.894531 202.992188 L 195.941406 201.492188 L 200.527344 201.640625 Z M 191.386719 202.804688 C 189.902344 202.738281 188.429688 202.664063 186.980469 202.585938 L 187.0625 201.085938 C 188.507813 201.164063 189.976563 201.238281 191.457031 201.308594 Z M 182.398438 202.3125 C 180.871094 202.210938 179.363281 202.105469 177.875 201.992188 L 177.988281 200.496094 C 179.46875 200.609375 180.972656 200.714844 182.492188 200.8125 Z M 173.457031 201.632813 C 171.925781 201.5 170.410156 201.359375 168.917969 201.207031 L 169.066406 199.714844 C 170.554688 199.863281 172.058594 200.003906 173.585938 200.136719 Z M 164.398438 200.726563 C 162.914063 200.558594 161.445313 200.382813 160 200.199219 L 160.1875 198.710938 C 161.628906 198.894531 163.089844 199.070313 164.566406 199.234375 Z M 155.464844 199.585938 C 153.949219 199.367188 152.457031 199.140625 150.988281 198.902344 L 151.226563 197.421875 C 152.6875 197.65625 154.171875 197.882813 155.679688 198.097656 Z M 146.640625 198.164063 C 145.097656 197.886719 143.582031 197.601563 142.09375 197.300781 L 142.390625 195.828125 C 143.867188 196.125 145.371094 196.410156 146.90625 196.6875 Z M 137.714844 196.371094 C 136.214844 196.035156 134.742188 195.683594 133.304688 195.324219 L 133.671875 193.867188 C 135.097656 194.226563 136.554688 194.570313 138.042969 194.90625 Z M 128.914063 194.160156 C 127.449219 193.746094 126.023438 193.324219 124.628906 192.886719 L 125.082031 191.453125 C 126.460938 191.886719 127.871094 192.308594 129.316406 192.714844 Z M 120.273438 191.429688 C 118.84375 190.925781 117.453125 190.402344 116.105469 189.863281 L 116.664063 188.46875 C 117.992188 189 119.363281 189.515625 120.773438 190.015625 Z M 111.863281 188.054688 C 110.46875 187.417969 109.125 186.765625 107.832031 186.09375 L 108.523438 184.761719 C 109.796875 185.421875 111.117188 186.066406 112.484375 186.6875 Z M 103.824219 183.847656 C 102.496094 183.046875 101.226563 182.21875 100.019531 181.367188 L 100.886719 180.140625 C 102.0625 180.972656 103.300781 181.777344 104.601563 182.5625 Z M 96.425781 178.601563 C 95.222656 177.589844 94.09375 176.546875 93.046875 175.46875 L 94.121094 174.421875 C 95.136719 175.460938 96.226563 176.472656 97.394531 177.453125 Z M 90.042969 172.039063 C 89.089844 170.816406 88.226563 169.558594 87.453125 168.265625 L 88.738281 167.496094 C 89.480469 168.734375 90.3125 169.941406 91.226563 171.117188 Z M 85.351563 164.167969 C 84.746094 162.765625 84.234375 161.324219 83.816406 159.847656 L 85.261719 159.441406 C 85.660156 160.855469 86.148438 162.230469 86.730469 163.574219 Z M 82.859375 155.347656 C 82.640625 153.859375 82.507813 152.335938 82.464844 150.78125 L 83.964844 150.738281 C 84.007813 152.234375 84.132813 153.699219 84.34375 155.128906 Z M 82.859375 155.347656 "
     id="path252" />
  <path
     fill-rule="nonzero"
     fill="rgb(3.919983%, 12.939453%, 70.199585%)"
     fill-opacity="1"
     stroke-width="2"
     stroke-linecap="butt"
     stroke-linejoin="miter"
     stroke="rgb(3.919983%, 12.939453%, 70.199585%)"
     stroke-opacity="1"
     stroke-miterlimit="10"
     d="M 110.861377 193.350278 L 114.86923 201.339959 L 110.861377 199.351647 L 106.869139 201.350369 Z M 110.861377 193.350278 "
     transform="matrix(0.75048, 0, 0, 0.75048, 0, 0)"
     id="path254" />
  <path
     fill="none"
     stroke-width="2"
     stroke-linecap="butt"
     stroke-linejoin="miter"
     stroke="rgb(10.198975%, 100%, 12.159729%)"
     stroke-opacity="1"
     stroke-miterlimit="10"
     d="M 149.49812 189.998255 L 149.940546 128.240885 "
     transform="matrix(0.75048, 0, 0, 0.75048, 0, 0)"
     id="path256" />
  <path
     fill-rule="nonzero"
     fill="rgb(10.198975%, 100%, 12.159729%)"
     fill-opacity="1"
     stroke-width="2"
     stroke-linecap="butt"
     stroke-linejoin="miter"
     stroke="rgb(10.198975%, 100%, 12.159729%)"
     stroke-opacity="1"
     stroke-miterlimit="10"
     d="M 149.982186 122.239515 L 153.927579 130.260426 L 149.940546 128.240885 L 145.927488 130.208376 Z M 149.982186 122.239515 "
     transform="matrix(0.75048, 0, 0, 0.75048, 0, 0)"
     id="path258" />
  <g
     fill="#000000"
     fill-opacity="1"
     id="g262">
    <use
       xlink:href="#glyph-0-1"
       x="212.42096"
       y="81.802292"
       id="use260" />
  </g>
  <g
     fill="#000000"
     fill-opacity="1"
     id="g266">
    <use
       xlink:href="#glyph-0-17"
       x="216.51106"
       y="81.802292"
       id="use264" />
  </g>
  <g
     fill="#000000"
     fill-opacity="1"
     id="g270">
    <use
       xlink:href="#glyph-0-3"
       x="220.60118"
       y="81.802292"
       id="use268" />
  </g>
  <g
     fill="#000000"
     fill-opacity="1"
     id="g274">
    <use
       xlink:href="#glyph-0-18"
       x="222.64622"
       y="81.802292"
       id="use272" />
  </g>
  <g
     fill="#000000"
     fill-opacity="1"
     id="g278">
    <use
       xlink:href="#glyph-0-19"
       x="226.73634"
       y="81.802292"
       id="use276" />
  </g>
  <g
     fill="#000000"
     fill-opacity="1"
     id="g282">
    <use
       xlink:href="#glyph-0-2"
       x="230.82645"
       y="81.802292"
       id="use280" />
  </g>
  <g
     fill="#000000"
     fill-opacity="1"
     id="g286">
    <use
       xlink:href="#glyph-0-4"
       x="234.91656"
       y="81.802292"
       id="use284" />
  </g>
  <g
     fill="#000000"
     fill-opacity="1"
     id="g290">
    <use
       xlink:href="#glyph-0-5"
       x="236.96161"
       y="81.802292"
       id="use288" />
  </g>
  <g
     fill="#000000"
     fill-opacity="1"
     id="g294">
    <use
       xlink:href="#glyph-0-6"
       x="242.41776"
       y="81.802292"
       id="use292" />
  </g>
  <g
     fill="#000000"
     fill-opacity="1"
     id="g298">
    <use
       xlink:href="#glyph-0-7"
       x="248.32526"
       y="81.802292"
       id="use296" />
  </g>
  <path
     fill-rule="nonzero"
     fill="rgb(0%, 0%, 0%)"
     fill-opacity="1"
     d="M 101.316406 88.878906 L 105.820313 88.886719 L 105.816406 90.386719 L 101.3125 90.378906 M 110.320313 88.894531 L 114.824219 88.902344 L 114.820313 90.402344 L 110.320313 90.394531 M 119.328125 88.910156 L 123.832031 88.914063 L 123.828125 90.417969 L 119.324219 90.410156 M 128.332031 88.921875 L 132.835938 88.929688 L 132.832031 90.429688 L 128.332031 90.421875 M 137.339844 88.9375 L 141.84375 88.945313 L 141.839844 90.445313 L 137.335938 90.4375 M 146.34375 88.953125 L 150.847656 88.957031 L 150.84375 90.460938 L 146.34375 90.453125 M 155.351563 88.964844 L 159.851563 88.972656 L 159.851563 90.472656 L 155.347656 90.46875 M 164.355469 88.980469 L 168.859375 88.988281 L 168.855469 90.488281 L 164.355469 90.480469 M 173.363281 88.996094 L 177.863281 89.003906 L 177.863281 90.503906 L 173.359375 90.496094 M 182.367188 89.007813 L 186.871094 89.015625 L 186.867188 90.519531 L 182.367188 90.511719 M 191.375 89.023438 L 195.875 89.03125 L 195.875 90.53125 L 191.371094 90.523438 M 200.378906 89.039063 L 204.882813 89.046875 L 204.878906 90.546875 L 200.375 90.539063 M 209.386719 89.054688 L 213.886719 89.058594 L 213.886719 90.5625 L 209.382813 90.554688 M 218.390625 89.066406 L 222.894531 89.074219 L 222.890625 90.574219 L 218.386719 90.566406 M 227.394531 89.082031 L 231.898438 89.089844 L 231.898438 90.589844 L 227.394531 90.582031 M 236.402344 89.097656 L 240.90625 89.101563 L 240.902344 90.605469 L 236.398438 90.597656 M 245.40625 89.109375 L 249.910156 89.117188 L 249.910156 90.617188 L 245.40625 90.613281 M 254.414063 89.125 L 258.917969 89.132813 L 258.914063 90.632813 L 254.410156 90.625 M 263.417969 89.140625 L 267.921875 89.148438 L 267.917969 90.648438 L 263.417969 90.640625 M 272.425781 89.152344 L 276.929688 89.160156 L 276.925781 90.664063 L 272.421875 90.65625 M 281.429688 89.167969 L 285.933594 89.175781 L 285.929688 90.675781 L 281.429688 90.667969 M 290.4375 89.183594 L 294.941406 89.191406 L 294.9375 90.691406 L 290.433594 90.683594 M 299.441406 89.199219 L 303.945313 89.203125 L 303.941406 90.707031 L 299.441406 90.699219 M 308.449219 89.210938 L 312.949219 89.21875 L 312.949219 90.71875 L 308.445313 90.710938 M 317.453125 89.226563 L 321.957031 89.234375 L 321.953125 90.734375 L 317.453125 90.726563 M 326.460938 89.242188 L 330.960938 89.25 L 330.960938 90.75 L 326.457031 90.742188 M 335.464844 89.253906 L 339.96875 89.261719 L 339.964844 90.761719 L 335.464844 90.757813 M 344.472656 89.269531 L 348.972656 89.277344 L 348.972656 90.777344 L 344.46875 90.769531 M 353.476563 89.285156 L 357.980469 89.292969 L 357.976563 90.792969 L 353.472656 90.785156 M 362.484375 89.296875 L 366.984375 89.304688 L 366.984375 90.808594 L 362.480469 90.800781 "
     id="path300" />
  <g
     fill="#000000"
     fill-opacity="1"
     id="g304">
    <use
       xlink:href="#glyph-0-7"
       x="79.797104"
       y="14.259115"
       id="use302" />
  </g>
  <g
     fill="#000000"
     fill-opacity="1"
     id="g308">
    <use
       xlink:href="#glyph-0-20"
       x="84.346558"
       y="14.259115"
       id="use306" />
  </g>
  <g
     fill="#000000"
     fill-opacity="1"
     id="g312">
    <use
       xlink:href="#glyph-0-6"
       x="89.802696"
       y="14.259115"
       id="use310" />
  </g>
  <g
     fill="#000000"
     fill-opacity="1"
     id="g316">
    <use
       xlink:href="#glyph-0-21"
       x="95.710197"
       y="14.259115"
       id="use314" />
  </g>
  <g
     fill="#000000"
     fill-opacity="1"
     id="g320">
    <use
       xlink:href="#glyph-0-22"
       x="101.61769"
       y="14.259115"
       id="use318" />
  </g>
  <g
     fill="#000000"
     fill-opacity="1"
     id="g324">
    <use
       xlink:href="#glyph-0-5"
       x="106.61449"
       y="14.259115"
       id="use322" />
  </g>
  <g
     fill="#000000"
     fill-opacity="1"
     id="g328">
    <use
       xlink:href="#glyph-0-23"
       x="112.07063"
       y="14.259115"
       id="use326" />
  </g>
  <g
     fill="#000000"
     fill-opacity="1"
     id="g332">
    <use
       xlink:href="#glyph-0-6"
       x="116.91964"
       y="14.259115"
       id="use330" />
  </g>
  <g
     fill="#000000"
     fill-opacity="1"
     id="g336">
    <use
       xlink:href="#glyph-0-4"
       x="122.82714"
       y="14.259115"
       id="use334" />
  </g>
  <g
     fill="#000000"
     fill-opacity="1"
     id="g340">
    <use
       xlink:href="#glyph-0-24"
       x="124.87218"
       y="14.259115"
       id="use338" />
  </g>
  <path
     fill="none"
     stroke-width="2"
     stroke-linecap="butt"
     stroke-linejoin="miter"
     stroke="rgb(10.198975%, 100%, 12.159729%)"
     stroke-opacity="1"
     stroke-miterlimit="10"
     d="M 189.998255 189.998255 L 190.440681 128.240885 "
     transform="matrix(0.75048, 0, 0, 0.75048, 0, 0)"
     id="path342" />
  <path
     fill-rule="nonzero"
     fill="rgb(10.198975%, 100%, 12.159729%)"
     fill-opacity="1"
     stroke-width="2"
     stroke-linecap="butt"
     stroke-linejoin="miter"
     stroke="rgb(10.198975%, 100%, 12.159729%)"
     stroke-opacity="1"
     stroke-miterlimit="10"
     d="M 190.482321 122.239515 L 194.427714 130.260426 L 190.440681 128.240885 L 186.427623 130.208376 Z M 190.482321 122.239515 "
     transform="matrix(0.75048, 0, 0, 0.75048, 0, 0)"
     id="path344" />
  <g
     fill="#000000"
     fill-opacity="1"
     id="g348">
    <use
       xlink:href="#glyph-0-18"
       x="140.53906"
       y="156.85027"
       id="use346" />
  </g>
  <path
     fill="none"
     stroke-width="2"
     stroke-linecap="butt"
     stroke-linejoin="miter"
     stroke="rgb(10.198975%, 100%, 12.159729%)"
     stroke-opacity="1"
     stroke-miterlimit="10"
     d="M 430.000983 189.998255 L 430.438203 128.240885 "
     transform="matrix(0.75048, 0, 0, 0.75048, 0, 0)"
     id="path350" />
  <path
     fill-rule="nonzero"
     fill="rgb(10.198975%, 100%, 12.159729%)"
     fill-opacity="1"
     stroke-width="2"
     stroke-linecap="butt"
     stroke-linejoin="miter"
     stroke="rgb(10.198975%, 100%, 12.159729%)"
     stroke-opacity="1"
     stroke-miterlimit="10"
     d="M 430.479843 122.239515 L 434.430441 130.260426 L 430.438203 128.240885 L 426.43035 130.208376 Z M 430.479843 122.239515 "
     transform="matrix(0.75048, 0, 0, 0.75048, 0, 0)"
     id="path352" />
  <g
     fill="#000000"
     fill-opacity="1"
     id="g356">
    <use
       xlink:href="#glyph-0-2"
       x="72.99588"
       y="156.85027"
       id="use354" />
  </g>
  <g
     fill="#000000"
     fill-opacity="1"
     id="g360">
    <use
       xlink:href="#glyph-0-25"
       x="320.65421"
       y="156.85027"
       id="use358" />
  </g>
  <g
     fill="#000000"
     fill-opacity="1"
     id="g364">
    <use
       xlink:href="#glyph-1-1"
       x="229.95169"
       y="119.32628"
       id="use362" />
  </g>
  <g
     fill="#000000"
     fill-opacity="1"
     id="g368">
    <use
       xlink:href="#glyph-1-1"
       x="231.99673"
       y="119.32628"
       id="use366" />
  </g>
  <g
     fill="#000000"
     fill-opacity="1"
     id="g372">
    <use
       xlink:href="#glyph-1-1"
       x="234.04179"
       y="119.32628"
       id="use370" />
  </g>
</svg>
