<?xml version="1.0" encoding="UTF-8" standalone="no"?>
<svg 
   width="240.95999pt"
   height="94.079994pt"
   viewBox="0 0 240.95999 94.079994"
   version="1.1"
   id="svg199"
   xmlns:xlink="http://www.w3.org/1999/xlink"
   xmlns="http://www.w3.org/2000/svg"
   xmlns:svg="http://www.w3.org/2000/svg" content="%3Cmxfile%20host%3D%22app.diagrams.net%22%20modified%3D%222023-11-16T15%3A37%3A18.773Z%22%20agent%3D%22Mozilla%2F5.0%20(Windows%20NT%2010.0%3B%20Win64%3B%20x64)%20AppleWebKit%2F537.36%20(KHTML%2C%20like%20Gecko)%20Chrome%2F119.0.0.0%20Safari%2F537.36%20Edg%2F119.0.0.0%22%20etag%3D%22Z3amnl63JdxbMcMbbpjF%22%20version%3D%2222.1.2%22%20type%3D%22onedrive%22%3E%20%20%20%3Cdiagram%20id%3D%22konmc-dpacFIwUjSuToO%22%20name%3D%22P%C3%A1gina-15%22%3E%20%20%20%20%20%3CmxGraphModel%20dx%3D%22484%22%20dy%3D%22272%22%20grid%3D%221%22%20gridSize%3D%2210%22%20guides%3D%221%22%20tooltips%3D%221%22%20connect%3D%221%22%20arrows%3D%221%22%20fold%3D%221%22%20page%3D%220%22%20pageScale%3D%221%22%20pageWidth%3D%221100%22%20pageHeight%3D%22850%22%20math%3D%220%22%20shadow%3D%220%22%3E%20%20%20%20%20%20%20%3Croot%3E%20%20%20%20%20%20%20%20%20%3CmxCell%20id%3D%220%22%20%2F%3E%20%20%20%20%20%20%20%20%20%3CmxCell%20id%3D%221%22%20parent%3D%220%22%20%2F%3E%20%20%20%20%20%20%20%20%20%3CmxCell%20id%3D%22d4bxV2G1eKaD9GTCQ0bM-1%22%20value%3D%22%22%20style%3D%22endArrow%3Dnone%3Bhtml%3D1%3Brounded%3D0%3BstrokeWidth%3D2%3BfontSize%3D10.9%3BfontFamily%3DNimbus%20Roman%20No9%20L%3BfontSource%3Dhttps%253A%252F%252Fwww.1001fonts.com%252Fdownload%252Ffont%252Fnimbus-roman-no9-l.regular.otf%3B%22%20parent%3D%221%22%20edge%3D%221%22%3E%20%20%20%20%20%20%20%20%20%20%20%3CmxGeometry%20width%3D%2250%22%20height%3D%2250%22%20relative%3D%221%22%20as%3D%22geometry%22%3E%20%20%20%20%20%20%20%20%20%20%20%20%20%3CmxPoint%20x%3D%22400%22%20y%3D%22360%22%20as%3D%22sourcePoint%22%20%2F%3E%20%20%20%20%20%20%20%20%20%20%20%20%20%3CmxPoint%20x%3D%22680%22%20y%3D%22360%22%20as%3D%22targetPoint%22%20%2F%3E%20%20%20%20%20%20%20%20%20%20%20%3C%2FmxGeometry%3E%20%20%20%20%20%20%20%20%20%3C%2FmxCell%3E%20%20%20%20%20%20%20%20%20%3CmxCell%20id%3D%22d4bxV2G1eKaD9GTCQ0bM-2%22%20value%3D%22%22%20style%3D%22endArrow%3Dnone%3Bhtml%3D1%3Brounded%3D0%3BstrokeWidth%3D2%3BfontSize%3D10.9%3BfontFamily%3DNimbus%20Roman%20No9%20L%3BfontSource%3Dhttps%253A%252F%252Fwww.1001fonts.com%252Fdownload%252Ffont%252Fnimbus-roman-no9-l.regular.otf%3B%22%20parent%3D%221%22%20edge%3D%221%22%3E%20%20%20%20%20%20%20%20%20%20%20%3CmxGeometry%20width%3D%2250%22%20height%3D%2250%22%20relative%3D%221%22%20as%3D%22geometry%22%3E%20%20%20%20%20%20%20%20%20%20%20%20%20%3CmxPoint%20x%3D%22520%22%20y%3D%22260%22%20as%3D%22sourcePoint%22%20%2F%3E%20%20%20%20%20%20%20%20%20%20%20%20%20%3CmxPoint%20x%3D%22520%22%20y%3D%22360%22%20as%3D%22targetPoint%22%20%2F%3E%20%20%20%20%20%20%20%20%20%20%20%3C%2FmxGeometry%3E%20%20%20%20%20%20%20%20%20%3C%2FmxCell%3E%20%20%20%20%20%20%20%20%20%3CmxCell%20id%3D%22d4bxV2G1eKaD9GTCQ0bM-4%22%20value%3D%22%22%20style%3D%22curved%3D1%3BendArrow%3Dnone%3Bhtml%3D1%3Brounded%3D0%3BendFill%3D0%3BstrokeWidth%3D1.5%3BfontSize%3D10.9%3BfontFamily%3DNimbus%20Roman%20No9%20L%3BfontSource%3Dhttps%253A%252F%252Fwww.1001fonts.com%252Fdownload%252Ffont%252Fnimbus-roman-no9-l.regular.otf%3B%22%20parent%3D%221%22%20edge%3D%221%22%3E%20%20%20%20%20%20%20%20%20%20%20%3CmxGeometry%20width%3D%2250%22%20height%3D%2250%22%20relative%3D%221%22%20as%3D%22geometry%22%3E%20%20%20%20%20%20%20%20%20%20%20%20%20%3CmxPoint%20x%3D%22460%22%20y%3D%22380%22%20as%3D%22sourcePoint%22%20%2F%3E%20%20%20%20%20%20%20%20%20%20%20%20%20%3CmxPoint%20x%3D%22640%22%20y%3D%22280%22%20as%3D%22targetPoint%22%20%2F%3E%20%20%20%20%20%20%20%20%20%20%20%20%20%3CArray%20as%3D%22points%22%3E%20%20%20%20%20%20%20%20%20%20%20%20%20%20%20%3CmxPoint%20x%3D%22460%22%20y%3D%22380%22%20%2F%3E%20%20%20%20%20%20%20%20%20%20%20%20%20%20%20%3CmxPoint%20x%3D%22475%22%20y%3D%22340%22%20%2F%3E%20%20%20%20%20%20%20%20%20%20%20%20%20%20%20%3CmxPoint%20x%3D%22495%22%20y%3D%22310%22%20%2F%3E%20%20%20%20%20%20%20%20%20%20%20%20%20%20%20%3CmxPoint%20x%3D%22525%22%20y%3D%22300%22%20%2F%3E%20%20%20%20%20%20%20%20%20%20%20%20%20%20%20%3CmxPoint%20x%3D%22555%22%20y%3D%22320%22%20%2F%3E%20%20%20%20%20%20%20%20%20%20%20%20%20%20%20%3CmxPoint%20x%3D%22580%22%20y%3D%22340%22%20%2F%3E%20%20%20%20%20%20%20%20%20%20%20%20%20%20%20%3CmxPoint%20x%3D%22600%22%20y%3D%22340%22%20%2F%3E%20%20%20%20%20%20%20%20%20%20%20%20%20%20%20%3CmxPoint%20x%3D%22620%22%20y%3D%22320%22%20%2F%3E%20%20%20%20%20%20%20%20%20%20%20%20%20%3C%2FArray%3E%20%20%20%20%20%20%20%20%20%20%20%3C%2FmxGeometry%3E%20%20%20%20%20%20%20%20%20%3C%2FmxCell%3E%20%20%20%20%20%20%20%20%20%3CmxCell%20id%3D%22d4bxV2G1eKaD9GTCQ0bM-6%22%20value%3D%22%22%20style%3D%22endArrow%3Dnone%3Bhtml%3D1%3Brounded%3D0%3Bcurved%3D1%3BstrokeWidth%3D2%3BfontSize%3D10.9%3BfontFamily%3DNimbus%20Roman%20No9%20L%3BfontSource%3Dhttps%253A%252F%252Fwww.1001fonts.com%252Fdownload%252Ffont%252Fnimbus-roman-no9-l.regular.otf%3B%22%20parent%3D%221%22%20edge%3D%221%22%3E%20%20%20%20%20%20%20%20%20%20%20%3CmxGeometry%20width%3D%2250%22%20height%3D%2250%22%20relative%3D%221%22%20as%3D%22geometry%22%3E%20%20%20%20%20%20%20%20%20%20%20%20%20%3CmxPoint%20x%3D%22590%22%20y%3D%22360%22%20as%3D%22sourcePoint%22%20%2F%3E%20%20%20%20%20%20%20%20%20%20%20%20%20%3CmxPoint%20x%3D%22590%22%20y%3D%22340%22%20as%3D%22targetPoint%22%20%2F%3E%20%20%20%20%20%20%20%20%20%20%20%3C%2FmxGeometry%3E%20%20%20%20%20%20%20%20%20%3C%2FmxCell%3E%20%20%20%20%20%20%20%20%20%3CmxCell%20id%3D%22d4bxV2G1eKaD9GTCQ0bM-9%22%20value%3D%22%22%20style%3D%22endArrow%3Dclassic%3Bhtml%3D1%3Brounded%3D0%3Bcurved%3D1%3BstrokeWidth%3D2%3BfontSize%3D10.9%3BfontFamily%3DNimbus%20Roman%20No9%20L%3BfontSource%3Dhttps%253A%252F%252Fwww.1001fonts.com%252Fdownload%252Ffont%252Fnimbus-roman-no9-l.regular.otf%3B%22%20parent%3D%221%22%20edge%3D%221%22%3E%20%20%20%20%20%20%20%20%20%20%20%3CmxGeometry%20width%3D%2250%22%20height%3D%2250%22%20relative%3D%221%22%20as%3D%22geometry%22%3E%20%20%20%20%20%20%20%20%20%20%20%20%20%3CmxPoint%20x%3D%22440%22%20y%3D%22330%22%20as%3D%22sourcePoint%22%20%2F%3E%20%20%20%20%20%20%20%20%20%20%20%20%20%3CmxPoint%20x%3D%22460%22%20y%3D%22350%22%20as%3D%22targetPoint%22%20%2F%3E%20%20%20%20%20%20%20%20%20%20%20%3C%2FmxGeometry%3E%20%20%20%20%20%20%20%20%20%3C%2FmxCell%3E%20%20%20%20%20%20%20%20%20%3CmxCell%20id%3D%22d4bxV2G1eKaD9GTCQ0bM-11%22%20value%3D%22Ra%C3%ADz%20real%20negativa%22%20style%3D%22text%3Bhtml%3D1%3BstrokeColor%3Dnone%3BfillColor%3Dnone%3Balign%3Dcenter%3BverticalAlign%3Dmiddle%3BwhiteSpace%3Dwrap%3Brounded%3D0%3BfontSize%3D10.9%3BfontFamily%3DNimbus%20Roman%20No9%20L%3BfontSource%3Dhttps%253A%252F%252Fwww.1001fonts.com%252Fdownload%252Ffont%252Fnimbus-roman-no9-l.regular.otf%3B%22%20parent%3D%221%22%20vertex%3D%221%22%3E%20%20%20%20%20%20%20%20%20%20%20%3CmxGeometry%20x%3D%22390%22%20y%3D%22300%22%20width%3D%2260%22%20height%3D%2230%22%20as%3D%22geometry%22%20%2F%3E%20%20%20%20%20%20%20%20%20%3C%2FmxCell%3E%20%20%20%20%20%20%20%20%20%3CmxCell%20id%3D%22d4bxV2G1eKaD9GTCQ0bM-12%22%20value%3D%22%22%20style%3D%22endArrow%3Dclassic%3Bhtml%3D1%3Brounded%3D0%3Bcurved%3D1%3BstrokeWidth%3D2%3BfontSize%3D10.9%3BfontFamily%3DNimbus%20Roman%20No9%20L%3BfontSource%3Dhttps%253A%252F%252Fwww.1001fonts.com%252Fdownload%252Ffont%252Fnimbus-roman-no9-l.regular.otf%3B%22%20parent%3D%221%22%20edge%3D%221%22%3E%20%20%20%20%20%20%20%20%20%20%20%3CmxGeometry%20width%3D%2250%22%20height%3D%2250%22%20relative%3D%221%22%20as%3D%22geometry%22%3E%20%20%20%20%20%20%20%20%20%20%20%20%20%3CmxPoint%20x%3D%22650%22%20y%3D%22330%22%20as%3D%22sourcePoint%22%20%2F%3E%20%20%20%20%20%20%20%20%20%20%20%20%20%3CmxPoint%20x%3D%22600%22%20y%3D%22350%22%20as%3D%22targetPoint%22%20%2F%3E%20%20%20%20%20%20%20%20%20%20%20%3C%2FmxGeometry%3E%20%20%20%20%20%20%20%20%20%3C%2FmxCell%3E%20%20%20%20%20%20%20%20%20%3CmxCell%20id%3D%22d4bxV2G1eKaD9GTCQ0bM-13%22%20value%3D%22Ra%C3%ADz%20imaginaria%22%20style%3D%22text%3Bhtml%3D1%3BstrokeColor%3Dnone%3BfillColor%3Dnone%3Balign%3Dcenter%3BverticalAlign%3Dmiddle%3BwhiteSpace%3Dwrap%3Brounded%3D0%3BfontSize%3D10.9%3BfontFamily%3DNimbus%20Roman%20No9%20L%3BfontSource%3Dhttps%253A%252F%252Fwww.1001fonts.com%252Fdownload%252Ffont%252Fnimbus-roman-no9-l.regular.otf%3B%22%20parent%3D%221%22%20vertex%3D%221%22%3E%20%20%20%20%20%20%20%20%20%20%20%3CmxGeometry%20x%3D%22650%22%20y%3D%22300%22%20width%3D%2260%22%20height%3D%2230%22%20as%3D%22geometry%22%20%2F%3E%20%20%20%20%20%20%20%20%20%3C%2FmxCell%3E%20%20%20%20%20%20%20%3C%2Froot%3E%20%20%20%20%20%3C%2FmxGraphModel%3E%20%20%20%3C%2Fdiagram%3E%20%3C%2Fmxfile%3E%20">
  <defs
     id="defs53">
    <g
       id="g45">
      <g
         id="glyph-0-0">
        <path
           d="M 1.140625 0 L 1.140625 -5.125 L 5.234375 -5.125 L 5.234375 0 Z M 1.265625 -0.125 L 5.09375 -0.125 L 5.09375 -4.984375 L 1.265625 -4.984375 Z M 1.265625 -0.125 "
           id="path2" />
      </g>
      <g
         id="glyph-0-1">
        <path
           d="M 5.53125 0 L 4.078125 0 L 2.25 -2.53125 C 2.113281 -2.53125 2.003906 -2.53125 1.921875 -2.53125 C 1.878906 -2.53125 1.835938 -2.53125 1.796875 -2.53125 C 1.765625 -2.53125 1.726563 -2.53125 1.6875 -2.53125 L 1.6875 -0.953125 C 1.6875 -0.617188 1.722656 -0.410156 1.796875 -0.328125 C 1.898438 -0.203125 2.050781 -0.140625 2.25 -0.140625 L 2.46875 -0.140625 L 2.46875 0 L 0.140625 0 L 0.140625 -0.140625 L 0.34375 -0.140625 C 0.570313 -0.140625 0.734375 -0.21875 0.828125 -0.375 C 0.890625 -0.457031 0.921875 -0.648438 0.921875 -0.953125 L 0.921875 -4.46875 C 0.921875 -4.800781 0.882813 -5.007813 0.8125 -5.09375 C 0.707031 -5.207031 0.550781 -5.265625 0.34375 -5.265625 L 0.140625 -5.265625 L 0.140625 -5.421875 L 2.109375 -5.421875 C 2.691406 -5.421875 3.117188 -5.378906 3.390625 -5.296875 C 3.660156 -5.210938 3.890625 -5.054688 4.078125 -4.828125 C 4.273438 -4.609375 4.375 -4.34375 4.375 -4.03125 C 4.375 -3.695313 4.265625 -3.40625 4.046875 -3.15625 C 3.828125 -2.914063 3.488281 -2.742188 3.03125 -2.640625 L 4.15625 -1.078125 C 4.40625 -0.722656 4.625 -0.488281 4.8125 -0.375 C 5 -0.257813 5.238281 -0.179688 5.53125 -0.140625 Z M 1.6875 -2.78125 C 1.738281 -2.78125 1.78125 -2.78125 1.8125 -2.78125 C 1.851563 -2.78125 1.882813 -2.78125 1.90625 -2.78125 C 2.425781 -2.78125 2.816406 -2.890625 3.078125 -3.109375 C 3.335938 -3.335938 3.46875 -3.625 3.46875 -3.96875 C 3.46875 -4.3125 3.359375 -4.585938 3.140625 -4.796875 C 2.929688 -5.015625 2.65625 -5.125 2.3125 -5.125 C 2.15625 -5.125 1.945313 -5.097656 1.6875 -5.046875 Z M 1.6875 -2.78125 "
           id="path5" />
      </g>
      <g
         id="glyph-0-2">
        <path
           d="M 2.328125 -0.53125 C 1.953125 -0.238281 1.71875 -0.0703125 1.625 -0.03125 C 1.476563 0.0390625 1.320313 0.078125 1.15625 0.078125 C 0.90625 0.078125 0.695313 -0.00390625 0.53125 -0.171875 C 0.375 -0.347656 0.296875 -0.582031 0.296875 -0.875 C 0.296875 -1.050781 0.332031 -1.203125 0.40625 -1.328125 C 0.519531 -1.515625 0.710938 -1.6875 0.984375 -1.84375 C 1.253906 -2 1.703125 -2.191406 2.328125 -2.421875 L 2.328125 -2.578125 C 2.328125 -2.941406 2.269531 -3.191406 2.15625 -3.328125 C 2.039063 -3.460938 1.875 -3.53125 1.65625 -3.53125 C 1.488281 -3.53125 1.351563 -3.484375 1.25 -3.390625 C 1.144531 -3.296875 1.09375 -3.191406 1.09375 -3.078125 L 1.109375 -2.84375 C 1.109375 -2.71875 1.078125 -2.625 1.015625 -2.5625 C 0.953125 -2.5 0.867188 -2.46875 0.765625 -2.46875 C 0.671875 -2.46875 0.59375 -2.5 0.53125 -2.5625 C 0.46875 -2.632813 0.4375 -2.726563 0.4375 -2.84375 C 0.4375 -3.070313 0.550781 -3.28125 0.78125 -3.46875 C 1.019531 -3.664063 1.347656 -3.765625 1.765625 -3.765625 C 2.097656 -3.765625 2.367188 -3.710938 2.578125 -3.609375 C 2.734375 -3.523438 2.847656 -3.394531 2.921875 -3.21875 C 2.960938 -3.101563 2.984375 -2.867188 2.984375 -2.515625 L 2.984375 -1.265625 C 2.984375 -0.921875 2.988281 -0.707031 3 -0.625 C 3.019531 -0.550781 3.046875 -0.5 3.078125 -0.46875 C 3.109375 -0.445313 3.144531 -0.4375 3.1875 -0.4375 C 3.226563 -0.4375 3.265625 -0.441406 3.296875 -0.453125 C 3.347656 -0.492188 3.457031 -0.59375 3.625 -0.75 L 3.625 -0.53125 C 3.320313 -0.125 3.035156 0.078125 2.765625 0.078125 C 2.628906 0.078125 2.519531 0.03125 2.4375 -0.0625 C 2.363281 -0.15625 2.328125 -0.3125 2.328125 -0.53125 Z M 2.328125 -0.78125 L 2.328125 -2.1875 C 1.929688 -2.019531 1.671875 -1.90625 1.546875 -1.84375 C 1.335938 -1.726563 1.1875 -1.601563 1.09375 -1.46875 C 1.007813 -1.34375 0.96875 -1.207031 0.96875 -1.0625 C 0.96875 -0.863281 1.023438 -0.703125 1.140625 -0.578125 C 1.253906 -0.453125 1.382813 -0.390625 1.53125 -0.390625 C 1.726563 -0.390625 1.992188 -0.519531 2.328125 -0.78125 Z M 2.328125 -0.78125 "
           id="path8" />
      </g>
      <g
         id="glyph-0-3">
        <path
           d="M 1.515625 -3.765625 L 1.515625 -0.828125 C 1.515625 -0.597656 1.53125 -0.441406 1.5625 -0.359375 C 1.601563 -0.285156 1.65625 -0.226563 1.71875 -0.1875 C 1.78125 -0.15625 1.898438 -0.140625 2.078125 -0.140625 L 2.078125 0 L 0.296875 0 L 0.296875 -0.140625 C 0.472656 -0.140625 0.59375 -0.15625 0.65625 -0.1875 C 0.71875 -0.226563 0.765625 -0.285156 0.796875 -0.359375 C 0.835938 -0.441406 0.859375 -0.597656 0.859375 -0.828125 L 0.859375 -2.234375 C 0.859375 -2.628906 0.84375 -2.890625 0.8125 -3.015625 C 0.800781 -3.097656 0.773438 -3.15625 0.734375 -3.1875 C 0.691406 -3.21875 0.632813 -3.234375 0.5625 -3.234375 C 0.488281 -3.234375 0.398438 -3.210938 0.296875 -3.171875 L 0.234375 -3.328125 L 1.34375 -3.765625 Z M 2 -5.5625 L 0.8125 -4.171875 L 0.671875 -4.171875 L 1.09375 -5.5625 Z M 2 -5.5625 "
           id="path11" />
      </g>
      <g
         id="glyph-0-4">
        <path
           d="M 3.4375 -1.125 L 3.390625 0 L 0.15625 0 L 0.15625 -0.140625 L 2.59375 -3.375 L 1.390625 -3.375 C 1.128906 -3.375 0.957031 -3.359375 0.875 -3.328125 C 0.800781 -3.296875 0.738281 -3.234375 0.6875 -3.140625 C 0.613281 -3.003906 0.570313 -2.835938 0.5625 -2.640625 L 0.40625 -2.640625 L 0.4375 -3.65625 L 3.5 -3.65625 L 3.5 -3.515625 L 1.046875 -0.265625 L 2.375 -0.265625 C 2.65625 -0.265625 2.847656 -0.285156 2.953125 -0.328125 C 3.054688 -0.378906 3.132813 -0.460938 3.1875 -0.578125 C 3.238281 -0.671875 3.273438 -0.851563 3.296875 -1.125 Z M 3.4375 -1.125 "
           id="path14" />
      </g>
      <g
         id="glyph-0-5" />
      <g
         id="glyph-0-6">
        <path
           d="M 1.328125 -3.765625 L 1.328125 -2.953125 C 1.628906 -3.492188 1.941406 -3.765625 2.265625 -3.765625 C 2.410156 -3.765625 2.53125 -3.71875 2.625 -3.625 C 2.726563 -3.539063 2.78125 -3.441406 2.78125 -3.328125 C 2.78125 -3.222656 2.742188 -3.132813 2.671875 -3.0625 C 2.609375 -2.988281 2.523438 -2.953125 2.421875 -2.953125 C 2.328125 -2.953125 2.222656 -3 2.109375 -3.09375 C 1.992188 -3.1875 1.910156 -3.234375 1.859375 -3.234375 C 1.804688 -3.234375 1.753906 -3.207031 1.703125 -3.15625 C 1.578125 -3.039063 1.453125 -2.859375 1.328125 -2.609375 L 1.328125 -0.859375 C 1.328125 -0.648438 1.351563 -0.492188 1.40625 -0.390625 C 1.4375 -0.316406 1.492188 -0.253906 1.578125 -0.203125 C 1.671875 -0.160156 1.800781 -0.140625 1.96875 -0.140625 L 1.96875 0 L 0.09375 0 L 0.09375 -0.140625 C 0.28125 -0.140625 0.414063 -0.171875 0.5 -0.234375 C 0.570313 -0.273438 0.617188 -0.34375 0.640625 -0.4375 C 0.660156 -0.476563 0.671875 -0.609375 0.671875 -0.828125 L 0.671875 -2.25 C 0.671875 -2.664063 0.660156 -2.914063 0.640625 -3 C 0.617188 -3.082031 0.582031 -3.140625 0.53125 -3.171875 C 0.488281 -3.210938 0.4375 -3.234375 0.375 -3.234375 C 0.289063 -3.234375 0.195313 -3.210938 0.09375 -3.171875 L 0.046875 -3.328125 L 1.15625 -3.765625 Z M 1.328125 -3.765625 "
           id="path18" />
      </g>
      <g
         id="glyph-0-7">
        <path
           d="M 0.875 -2.28125 C 0.875 -1.738281 1.003906 -1.3125 1.265625 -1 C 1.535156 -0.695313 1.847656 -0.546875 2.203125 -0.546875 C 2.441406 -0.546875 2.648438 -0.609375 2.828125 -0.734375 C 3.003906 -0.867188 3.15625 -1.097656 3.28125 -1.421875 L 3.40625 -1.328125 C 3.34375 -0.960938 3.175781 -0.628906 2.90625 -0.328125 C 2.644531 -0.0351563 2.3125 0.109375 1.90625 0.109375 C 1.46875 0.109375 1.085938 -0.0625 0.765625 -0.40625 C 0.453125 -0.75 0.296875 -1.207031 0.296875 -1.78125 C 0.296875 -2.40625 0.457031 -2.894531 0.78125 -3.25 C 1.101563 -3.601563 1.507813 -3.78125 2 -3.78125 C 2.40625 -3.78125 2.738281 -3.644531 3 -3.375 C 3.269531 -3.101563 3.40625 -2.738281 3.40625 -2.28125 Z M 0.875 -2.515625 L 2.5625 -2.515625 C 2.550781 -2.742188 2.523438 -2.910156 2.484375 -3.015625 C 2.410156 -3.160156 2.304688 -3.273438 2.171875 -3.359375 C 2.046875 -3.441406 1.910156 -3.484375 1.765625 -3.484375 C 1.546875 -3.484375 1.347656 -3.394531 1.171875 -3.21875 C 1.003906 -3.050781 0.90625 -2.816406 0.875 -2.515625 Z M 0.875 -2.515625 "
           id="path21" />
      </g>
      <g
         id="glyph-0-8">
        <path
           d="M 1.515625 -5.6875 L 1.515625 -0.828125 C 1.515625 -0.597656 1.53125 -0.445313 1.5625 -0.375 C 1.59375 -0.300781 1.644531 -0.242188 1.71875 -0.203125 C 1.789063 -0.160156 1.921875 -0.140625 2.109375 -0.140625 L 2.109375 0 L 0.3125 0 L 0.3125 -0.140625 C 0.476563 -0.140625 0.59375 -0.15625 0.65625 -0.1875 C 0.71875 -0.226563 0.765625 -0.285156 0.796875 -0.359375 C 0.828125 -0.441406 0.84375 -0.597656 0.84375 -0.828125 L 0.84375 -4.15625 C 0.84375 -4.5625 0.832031 -4.8125 0.8125 -4.90625 C 0.800781 -5.007813 0.773438 -5.078125 0.734375 -5.109375 C 0.691406 -5.140625 0.640625 -5.15625 0.578125 -5.15625 C 0.503906 -5.15625 0.414063 -5.132813 0.3125 -5.09375 L 0.25 -5.234375 L 1.328125 -5.6875 Z M 1.515625 -5.6875 "
           id="path24" />
      </g>
      <g
         id="glyph-0-9">
        <path
           d="M 1.328125 -3 C 1.753906 -3.507813 2.160156 -3.765625 2.546875 -3.765625 C 2.742188 -3.765625 2.914063 -3.710938 3.0625 -3.609375 C 3.207031 -3.515625 3.320313 -3.351563 3.40625 -3.125 C 3.46875 -2.96875 3.5 -2.722656 3.5 -2.390625 L 3.5 -0.828125 C 3.5 -0.597656 3.515625 -0.441406 3.546875 -0.359375 C 3.578125 -0.285156 3.625 -0.226563 3.6875 -0.1875 C 3.757813 -0.15625 3.882813 -0.140625 4.0625 -0.140625 L 4.0625 0 L 2.25 0 L 2.25 -0.140625 L 2.328125 -0.140625 C 2.492188 -0.140625 2.609375 -0.164063 2.671875 -0.21875 C 2.742188 -0.269531 2.796875 -0.347656 2.828125 -0.453125 C 2.835938 -0.492188 2.84375 -0.617188 2.84375 -0.828125 L 2.84375 -2.328125 C 2.84375 -2.660156 2.796875 -2.898438 2.703125 -3.046875 C 2.617188 -3.203125 2.472656 -3.28125 2.265625 -3.28125 C 1.953125 -3.28125 1.640625 -3.109375 1.328125 -2.765625 L 1.328125 -0.828125 C 1.328125 -0.578125 1.34375 -0.425781 1.375 -0.375 C 1.40625 -0.289063 1.453125 -0.226563 1.515625 -0.1875 C 1.585938 -0.15625 1.722656 -0.140625 1.921875 -0.140625 L 1.921875 0 L 0.109375 0 L 0.109375 -0.140625 L 0.1875 -0.140625 C 0.375 -0.140625 0.5 -0.1875 0.5625 -0.28125 C 0.625 -0.375 0.65625 -0.554688 0.65625 -0.828125 L 0.65625 -2.1875 C 0.65625 -2.625 0.644531 -2.890625 0.625 -2.984375 C 0.613281 -3.085938 0.585938 -3.15625 0.546875 -3.1875 C 0.503906 -3.21875 0.445313 -3.234375 0.375 -3.234375 C 0.300781 -3.234375 0.210938 -3.210938 0.109375 -3.171875 L 0.046875 -3.328125 L 1.15625 -3.765625 L 1.328125 -3.765625 Z M 1.328125 -3 "
           id="path27" />
      </g>
      <g
         id="glyph-0-10">
        <path
           d="M 1.234375 -1.328125 C 1.015625 -1.441406 0.84375 -1.597656 0.71875 -1.796875 C 0.601563 -1.992188 0.546875 -2.207031 0.546875 -2.4375 C 0.546875 -2.800781 0.679688 -3.113281 0.953125 -3.375 C 1.222656 -3.632813 1.570313 -3.765625 2 -3.765625 C 2.34375 -3.765625 2.644531 -3.679688 2.90625 -3.515625 L 3.6875 -3.515625 C 3.800781 -3.515625 3.863281 -3.507813 3.875 -3.5 C 3.894531 -3.5 3.910156 -3.488281 3.921875 -3.46875 C 3.941406 -3.445313 3.953125 -3.40625 3.953125 -3.34375 C 3.953125 -3.269531 3.941406 -3.222656 3.921875 -3.203125 C 3.910156 -3.179688 3.894531 -3.164063 3.875 -3.15625 C 3.863281 -3.15625 3.800781 -3.15625 3.6875 -3.15625 L 3.203125 -3.15625 C 3.359375 -2.957031 3.4375 -2.710938 3.4375 -2.421875 C 3.4375 -2.078125 3.300781 -1.78125 3.03125 -1.53125 C 2.769531 -1.289063 2.421875 -1.171875 1.984375 -1.171875 C 1.804688 -1.171875 1.625 -1.203125 1.4375 -1.265625 C 1.3125 -1.160156 1.226563 -1.066406 1.1875 -0.984375 C 1.144531 -0.910156 1.125 -0.847656 1.125 -0.796875 C 1.125 -0.753906 1.144531 -0.710938 1.1875 -0.671875 C 1.238281 -0.628906 1.328125 -0.597656 1.453125 -0.578125 C 1.523438 -0.566406 1.710938 -0.554688 2.015625 -0.546875 C 2.566406 -0.535156 2.921875 -0.515625 3.078125 -0.484375 C 3.328125 -0.453125 3.523438 -0.359375 3.671875 -0.203125 C 3.816406 -0.0546875 3.890625 0.117188 3.890625 0.328125 C 3.890625 0.628906 3.75 0.914063 3.46875 1.1875 C 3.050781 1.570313 2.507813 1.765625 1.84375 1.765625 C 1.332031 1.765625 0.898438 1.648438 0.546875 1.421875 C 0.347656 1.285156 0.25 1.144531 0.25 1 C 0.25 0.9375 0.257813 0.875 0.28125 0.8125 C 0.332031 0.707031 0.425781 0.570313 0.5625 0.40625 C 0.582031 0.375 0.71875 0.226563 0.96875 -0.03125 C 0.832031 -0.113281 0.734375 -0.1875 0.671875 -0.25 C 0.617188 -0.320313 0.59375 -0.394531 0.59375 -0.46875 C 0.59375 -0.5625 0.628906 -0.671875 0.703125 -0.796875 C 0.785156 -0.921875 0.960938 -1.097656 1.234375 -1.328125 Z M 1.9375 -3.578125 C 1.738281 -3.578125 1.570313 -3.5 1.4375 -3.34375 C 1.300781 -3.1875 1.234375 -2.945313 1.234375 -2.625 C 1.234375 -2.195313 1.320313 -1.867188 1.5 -1.640625 C 1.644531 -1.460938 1.820313 -1.375 2.03125 -1.375 C 2.238281 -1.375 2.40625 -1.445313 2.53125 -1.59375 C 2.664063 -1.75 2.734375 -1.988281 2.734375 -2.3125 C 2.734375 -2.738281 2.640625 -3.070313 2.453125 -3.3125 C 2.316406 -3.488281 2.144531 -3.578125 1.9375 -3.578125 Z M 1.203125 0 C 1.066406 0.132813 0.96875 0.257813 0.90625 0.375 C 0.84375 0.5 0.8125 0.609375 0.8125 0.703125 C 0.8125 0.828125 0.890625 0.941406 1.046875 1.046875 C 1.316406 1.203125 1.703125 1.28125 2.203125 1.28125 C 2.679688 1.28125 3.035156 1.195313 3.265625 1.03125 C 3.492188 0.863281 3.609375 0.679688 3.609375 0.484375 C 3.609375 0.347656 3.539063 0.253906 3.40625 0.203125 C 3.257813 0.140625 2.984375 0.101563 2.578125 0.09375 C 1.972656 0.0703125 1.515625 0.0390625 1.203125 0 Z M 1.203125 0 "
           id="path30" />
      </g>
      <g
         id="glyph-0-11">
        <path
           d="M 1.3125 -4.859375 L 1.3125 -3.65625 L 2.171875 -3.65625 L 2.171875 -3.375 L 1.3125 -3.375 L 1.3125 -1 C 1.3125 -0.769531 1.34375 -0.613281 1.40625 -0.53125 C 1.476563 -0.445313 1.570313 -0.40625 1.6875 -0.40625 C 1.769531 -0.40625 1.851563 -0.429688 1.9375 -0.484375 C 2.019531 -0.535156 2.082031 -0.617188 2.125 -0.734375 L 2.28125 -0.734375 C 2.1875 -0.460938 2.054688 -0.257813 1.890625 -0.125 C 1.722656 0 1.546875 0.0625 1.359375 0.0625 C 1.234375 0.0625 1.113281 0.03125 1 -0.03125 C 0.882813 -0.101563 0.796875 -0.203125 0.734375 -0.328125 C 0.679688 -0.460938 0.65625 -0.660156 0.65625 -0.921875 L 0.65625 -3.375 L 0.078125 -3.375 L 0.078125 -3.515625 C 0.222656 -3.578125 0.375 -3.675781 0.53125 -3.8125 C 0.6875 -3.945313 0.820313 -4.113281 0.9375 -4.3125 C 1 -4.414063 1.085938 -4.597656 1.203125 -4.859375 Z M 1.3125 -4.859375 "
           id="path33" />
      </g>
      <g
         id="glyph-0-12">
        <path
           d="M 1.1875 -5.6875 C 1.300781 -5.6875 1.394531 -5.644531 1.46875 -5.5625 C 1.550781 -5.488281 1.59375 -5.394531 1.59375 -5.28125 C 1.59375 -5.164063 1.550781 -5.066406 1.46875 -4.984375 C 1.394531 -4.910156 1.300781 -4.875 1.1875 -4.875 C 1.070313 -4.875 0.972656 -4.910156 0.890625 -4.984375 C 0.816406 -5.066406 0.78125 -5.164063 0.78125 -5.28125 C 0.78125 -5.394531 0.816406 -5.488281 0.890625 -5.5625 C 0.972656 -5.644531 1.070313 -5.6875 1.1875 -5.6875 Z M 1.515625 -3.765625 L 1.515625 -0.828125 C 1.515625 -0.597656 1.53125 -0.441406 1.5625 -0.359375 C 1.601563 -0.285156 1.65625 -0.226563 1.71875 -0.1875 C 1.78125 -0.15625 1.898438 -0.140625 2.078125 -0.140625 L 2.078125 0 L 0.296875 0 L 0.296875 -0.140625 C 0.472656 -0.140625 0.59375 -0.15625 0.65625 -0.1875 C 0.71875 -0.226563 0.765625 -0.285156 0.796875 -0.359375 C 0.835938 -0.441406 0.859375 -0.597656 0.859375 -0.828125 L 0.859375 -2.234375 C 0.859375 -2.628906 0.84375 -2.890625 0.8125 -3.015625 C 0.800781 -3.097656 0.773438 -3.15625 0.734375 -3.1875 C 0.691406 -3.21875 0.632813 -3.234375 0.5625 -3.234375 C 0.488281 -3.234375 0.398438 -3.210938 0.296875 -3.171875 L 0.234375 -3.328125 L 1.34375 -3.765625 Z M 1.515625 -3.765625 "
           id="path36" />
      </g>
      <g
         id="glyph-0-13">
        <path
           d="M 0.0625 -3.65625 L 1.796875 -3.65625 L 1.796875 -3.515625 L 1.671875 -3.515625 C 1.566406 -3.515625 1.488281 -3.488281 1.4375 -3.4375 C 1.382813 -3.382813 1.359375 -3.316406 1.359375 -3.234375 C 1.359375 -3.140625 1.382813 -3.03125 1.4375 -2.90625 L 2.296875 -0.875 L 3.15625 -2.984375 C 3.21875 -3.128906 3.25 -3.238281 3.25 -3.3125 C 3.25 -3.351563 3.234375 -3.382813 3.203125 -3.40625 C 3.179688 -3.445313 3.144531 -3.472656 3.09375 -3.484375 C 3.050781 -3.503906 2.960938 -3.515625 2.828125 -3.515625 L 2.828125 -3.65625 L 4.015625 -3.65625 L 4.015625 -3.515625 C 3.878906 -3.503906 3.785156 -3.476563 3.734375 -3.4375 C 3.640625 -3.351563 3.554688 -3.21875 3.484375 -3.03125 L 2.171875 0.109375 L 2.015625 0.109375 L 0.703125 -2.984375 C 0.648438 -3.117188 0.59375 -3.21875 0.53125 -3.28125 C 0.476563 -3.34375 0.410156 -3.398438 0.328125 -3.453125 C 0.285156 -3.472656 0.195313 -3.492188 0.0625 -3.515625 Z M 0.0625 -3.65625 "
           id="path39" />
      </g>
      <g
         id="glyph-0-14">
        <path
           d="M 1.34375 -2.984375 C 1.613281 -3.253906 1.769531 -3.410156 1.8125 -3.453125 C 1.9375 -3.554688 2.066406 -3.632813 2.203125 -3.6875 C 2.335938 -3.738281 2.472656 -3.765625 2.609375 -3.765625 C 2.835938 -3.765625 3.035156 -3.695313 3.203125 -3.5625 C 3.367188 -3.4375 3.476563 -3.242188 3.53125 -2.984375 C 3.8125 -3.304688 4.046875 -3.515625 4.234375 -3.609375 C 4.421875 -3.710938 4.613281 -3.765625 4.8125 -3.765625 C 5.007813 -3.765625 5.179688 -3.710938 5.328125 -3.609375 C 5.484375 -3.515625 5.601563 -3.351563 5.6875 -3.125 C 5.75 -2.96875 5.78125 -2.726563 5.78125 -2.40625 L 5.78125 -0.828125 C 5.78125 -0.597656 5.796875 -0.441406 5.828125 -0.359375 C 5.859375 -0.296875 5.910156 -0.242188 5.984375 -0.203125 C 6.054688 -0.160156 6.171875 -0.140625 6.328125 -0.140625 L 6.328125 0 L 4.53125 0 L 4.53125 -0.140625 L 4.59375 -0.140625 C 4.757813 -0.140625 4.882813 -0.171875 4.96875 -0.234375 C 5.03125 -0.273438 5.070313 -0.34375 5.09375 -0.4375 C 5.113281 -0.476563 5.125 -0.609375 5.125 -0.828125 L 5.125 -2.40625 C 5.125 -2.695313 5.085938 -2.90625 5.015625 -3.03125 C 4.910156 -3.207031 4.742188 -3.296875 4.515625 -3.296875 C 4.367188 -3.296875 4.222656 -3.257813 4.078125 -3.1875 C 3.941406 -3.113281 3.769531 -2.984375 3.5625 -2.796875 L 3.5625 -0.828125 C 3.5625 -0.578125 3.578125 -0.421875 3.609375 -0.359375 C 3.640625 -0.296875 3.691406 -0.242188 3.765625 -0.203125 C 3.835938 -0.160156 3.96875 -0.140625 4.15625 -0.140625 L 4.15625 0 L 2.3125 0 L 2.3125 -0.140625 C 2.507813 -0.140625 2.644531 -0.160156 2.71875 -0.203125 C 2.800781 -0.253906 2.859375 -0.332031 2.890625 -0.4375 C 2.898438 -0.476563 2.90625 -0.609375 2.90625 -0.828125 L 2.90625 -2.40625 C 2.90625 -2.695313 2.863281 -2.910156 2.78125 -3.046875 C 2.65625 -3.210938 2.488281 -3.296875 2.28125 -3.296875 C 2.132813 -3.296875 1.992188 -3.257813 1.859375 -3.1875 C 1.628906 -3.070313 1.457031 -2.941406 1.34375 -2.796875 L 1.34375 -0.828125 C 1.34375 -0.585938 1.359375 -0.429688 1.390625 -0.359375 C 1.421875 -0.285156 1.46875 -0.226563 1.53125 -0.1875 C 1.601563 -0.15625 1.738281 -0.140625 1.9375 -0.140625 L 1.9375 0 L 0.125 0 L 0.125 -0.140625 C 0.289063 -0.140625 0.40625 -0.15625 0.46875 -0.1875 C 0.539063 -0.226563 0.59375 -0.285156 0.625 -0.359375 C 0.664063 -0.441406 0.6875 -0.597656 0.6875 -0.828125 L 0.6875 -2.234375 C 0.6875 -2.628906 0.671875 -2.882813 0.640625 -3 C 0.628906 -3.09375 0.601563 -3.15625 0.5625 -3.1875 C 0.519531 -3.21875 0.460938 -3.234375 0.390625 -3.234375 C 0.316406 -3.234375 0.226563 -3.210938 0.125 -3.171875 L 0.0625 -3.328125 L 1.171875 -3.765625 L 1.34375 -3.765625 Z M 1.34375 -2.984375 "
           id="path42" />
      </g>
    </g>
    <clipPath
       id="clip-0">
      <path
         clip-rule="nonzero"
         d="M 36 0 L 204 0 L 204 92.347656 L 36 92.347656 Z M 36 0 "
         id="path47" />
    </clipPath>
    <clipPath
       id="clip-1">
      <path
         clip-rule="nonzero"
         d="M 128 39 L 172 39 L 172 92.347656 L 128 92.347656 Z M 128 39 "
         id="path50" />
    </clipPath>
  </defs>
  <path
     fill="none"
     stroke-width="2"
     stroke-linecap="butt"
     stroke-linejoin="miter"
     stroke="rgb(0%, 0%, 0%)"
     stroke-opacity="1"
     stroke-miterlimit="10"
     d="M 10.000033 100.999296 L 290.000968 100.999296 "
     transform="matrix(0.750779, 0, 0, 0.750779, 0, 0)"
     id="path55" />
  <path
     fill="none"
     stroke-width="2"
     stroke-linecap="butt"
     stroke-linejoin="miter"
     stroke="rgb(0%, 0%, 0%)"
     stroke-opacity="1"
     stroke-miterlimit="10"
     d="M 130.000434 0.998963 L 130.000434 100.999296 "
     transform="matrix(0.750779, 0, 0, 0.750779, 0, 0)"
     id="path57" />
  <g
     clip-path="url(#clip-0)"
     id="g61">
    <path
       fill="none"
       stroke-width="1.5"
       stroke-linecap="butt"
       stroke-linejoin="miter"
       stroke="#000000"
       stroke-opacity="1"
       stroke-miterlimit="10"
       d="M 70.000234,120.99936 C 80.000267,94.334342 88.335362,75.999213 95.000317,65.99918 101.66527,55.999146 110.00037,49.334192 120.0004,45.999113 c 10.00003,-3.329876 20.00007,-1.664938 30.0001,5.000017 10.00003,6.664954 19.1676,13.335112 27.49749,20.000066 8.3351,6.664955 15.83772,10.000034 22.50268,10.000034 6.66495,0 13.33511,-3.335079 20.00006,-10.000034 6.66496,-6.664954 16.66499,-23.329942 30.0001,-50.000167"
       transform="scale(0.750779)"
       id="path59" />
  </g>
  <g
     clip-path="url(#clip-1)"
     id="g65">
    <path
       fill="none"
       stroke-width="2"
       stroke-linecap="butt"
       stroke-linejoin="miter"
       stroke="#000000"
       stroke-opacity="1"
       stroke-miterlimit="10"
       d="m 200.00067,100.9993 c 0,0 0,-6.664958 0,-20.00007"
       transform="scale(0.750779)"
       id="path63" />
  </g>
  <path
     fill="none"
     stroke-width="2"
     stroke-linecap="butt"
     stroke-linejoin="miter"
     stroke="rgb(0%, 0%, 0%)"
     stroke-opacity="1"
     stroke-miterlimit="10"
     d="M 50.000167 70.999196 C 50.000167 70.999196 54.724428 75.728661 64.178154 85.182386 "
     transform="matrix(0.750779, 0, 0, 0.750779, 0, 0)"
     id="path67" />
  <path
     fill-rule="nonzero"
     fill="rgb(0%, 0%, 0%)"
     fill-opacity="1"
     stroke-width="2"
     stroke-linecap="butt"
     stroke-linejoin="miter"
     stroke="rgb(0%, 0%, 0%)"
     stroke-opacity="1"
     stroke-miterlimit="10"
     d="M 68.418543 89.417572 L 59.932562 86.592381 L 64.178154 85.182386 L 65.588148 80.931592 Z M 68.418543 89.417572 "
     transform="matrix(0.750779, 0, 0, 0.750779, 0, 0)"
     id="path69" />
  <g
     fill="#000000"
     fill-opacity="1"
     id="g73">
    <use
       xlink:href="#glyph-0-1"
       x="7.859715"
       y="39.791271"
       id="use71" />
  </g>
  <g
     fill="#000000"
     fill-opacity="1"
     id="g77">
    <use
       xlink:href="#glyph-0-2"
       x="13.318029"
       y="39.791271"
       id="use75" />
  </g>
  <g
     fill="#000000"
     fill-opacity="1"
     id="g81">
    <use
       xlink:href="#glyph-0-3"
       x="16.950249"
       y="39.791271"
       id="use79" />
  </g>
  <g
     fill="#000000"
     fill-opacity="1"
     id="g85">
    <use
       xlink:href="#glyph-0-4"
       x="19.223881"
       y="39.791271"
       id="use83" />
  </g>
  <g
     fill="#000000"
     fill-opacity="1"
     id="g89">
    <use
       xlink:href="#glyph-0-5"
       x="22.8561"
       y="39.791271"
       id="use87" />
  </g>
  <g
     fill="#000000"
     fill-opacity="1"
     id="g93">
    <use
       xlink:href="#glyph-0-6"
       x="24.901966"
       y="39.791271"
       id="use91" />
  </g>
  <g
     fill="#000000"
     fill-opacity="1"
     id="g97">
    <use
       xlink:href="#glyph-0-7"
       x="27.627125"
       y="39.791271"
       id="use95" />
  </g>
  <g
     fill="#000000"
     fill-opacity="1"
     id="g101">
    <use
       xlink:href="#glyph-0-2"
       x="31.259344"
       y="39.791271"
       id="use99" />
  </g>
  <g
     fill="#000000"
     fill-opacity="1"
     id="g105">
    <use
       xlink:href="#glyph-0-8"
       x="34.891563"
       y="39.791271"
       id="use103" />
  </g>
  <g
     fill="#000000"
     fill-opacity="1"
     id="g109">
    <use
       xlink:href="#glyph-0-9"
       x="8.6574173"
       y="50.302177"
       id="use107" />
  </g>
  <g
     fill="#000000"
     fill-opacity="1"
     id="g113">
    <use
       xlink:href="#glyph-0-7"
       x="12.749159"
       y="50.302177"
       id="use111" />
  </g>
  <g
     fill="#000000"
     fill-opacity="1"
     id="g117">
    <use
       xlink:href="#glyph-0-10"
       x="16.381378"
       y="50.302177"
       id="use115" />
  </g>
  <g
     fill="#000000"
     fill-opacity="1"
     id="g121">
    <use
       xlink:href="#glyph-0-2"
       x="20.473122"
       y="50.302177"
       id="use119" />
  </g>
  <g
     fill="#000000"
     fill-opacity="1"
     id="g125">
    <use
       xlink:href="#glyph-0-11"
       x="24.105341"
       y="50.302177"
       id="use123" />
  </g>
  <g
     fill="#000000"
     fill-opacity="1"
     id="g129">
    <use
       xlink:href="#glyph-0-12"
       x="26.378975"
       y="50.302177"
       id="use127" />
  </g>
  <g
     fill="#000000"
     fill-opacity="1"
     id="g133">
    <use
       xlink:href="#glyph-0-13"
       x="28.652605"
       y="50.302177"
       id="use131" />
  </g>
  <g
     fill="#000000"
     fill-opacity="1"
     id="g137">
    <use
       xlink:href="#glyph-0-2"
       x="32.744347"
       y="50.302177"
       id="use135" />
  </g>
  <path
     fill="none"
     stroke-width="2"
     stroke-linecap="butt"
     stroke-linejoin="miter"
     stroke="rgb(0%, 0%, 0%)"
     stroke-opacity="1"
     stroke-miterlimit="10"
     d="M 260.000868 70.999196 C 260.000868 70.999196 245.885316 76.644376 217.649009 87.93994 "
     transform="matrix(0.750779, 0, 0, 0.750779, 0, 0)"
     id="path139" />
  <path
     fill-rule="nonzero"
     fill="rgb(0%, 0%, 0%)"
     fill-opacity="1"
     stroke-width="2"
     stroke-linecap="butt"
     stroke-linejoin="miter"
     stroke="rgb(0%, 0%, 0%)"
     stroke-opacity="1"
     stroke-miterlimit="10"
     d="M 212.081873 90.171997 L 218.018417 83.481028 L 217.649009 87.93994 L 220.989291 90.910813 Z M 212.081873 90.171997 "
     transform="matrix(0.750779, 0, 0, 0.750779, 0, 0)"
     id="path141" />
  <g
     fill="#000000"
     fill-opacity="1"
     id="g145">
    <use
       xlink:href="#glyph-0-1"
       x="210.21805"
       y="39.791271"
       id="use143" />
  </g>
  <g
     fill="#000000"
     fill-opacity="1"
     id="g149">
    <use
       xlink:href="#glyph-0-2"
       x="215.67636"
       y="39.791271"
       id="use147" />
  </g>
  <g
     fill="#000000"
     fill-opacity="1"
     id="g153">
    <use
       xlink:href="#glyph-0-3"
       x="219.30858"
       y="39.791271"
       id="use151" />
  </g>
  <g
     fill="#000000"
     fill-opacity="1"
     id="g157">
    <use
       xlink:href="#glyph-0-4"
       x="221.58221"
       y="39.791271"
       id="use155" />
  </g>
  <g
     fill="#000000"
     fill-opacity="1"
     id="g161">
    <use
       xlink:href="#glyph-0-12"
       x="200.22331"
       y="50.302177"
       id="use159" />
  </g>
  <g
     fill="#000000"
     fill-opacity="1"
     id="g165">
    <use
       xlink:href="#glyph-0-14"
       x="202.49693"
       y="50.302177"
       id="use163" />
  </g>
  <g
     fill="#000000"
     fill-opacity="1"
     id="g169">
    <use
       xlink:href="#glyph-0-2"
       x="208.86232"
       y="50.302177"
       id="use167" />
  </g>
  <g
     fill="#000000"
     fill-opacity="1"
     id="g173">
    <use
       xlink:href="#glyph-0-10"
       x="212.49454"
       y="50.302177"
       id="use171" />
  </g>
  <g
     fill="#000000"
     fill-opacity="1"
     id="g177">
    <use
       xlink:href="#glyph-0-12"
       x="216.58627"
       y="50.302177"
       id="use175" />
  </g>
  <g
     fill="#000000"
     fill-opacity="1"
     id="g181">
    <use
       xlink:href="#glyph-0-9"
       x="218.85991"
       y="50.302177"
       id="use179" />
  </g>
  <g
     fill="#000000"
     fill-opacity="1"
     id="g185">
    <use
       xlink:href="#glyph-0-2"
       x="222.95164"
       y="50.302177"
       id="use183" />
  </g>
  <g
     fill="#000000"
     fill-opacity="1"
     id="g189">
    <use
       xlink:href="#glyph-0-6"
       x="226.58388"
       y="50.302177"
       id="use187" />
  </g>
  <g
     fill="#000000"
     fill-opacity="1"
     id="g193">
    <use
       xlink:href="#glyph-0-12"
       x="229.30904"
       y="50.302177"
       id="use191" />
  </g>
  <g
     fill="#000000"
     fill-opacity="1"
     id="g197">
    <use
       xlink:href="#glyph-0-2"
       x="231.58266"
       y="50.302177"
       id="use195" />
  </g>
</svg>
