\relax 
\providecommand\zref@newlabel[2]{}
\providecommand\hyper@newdestlabel[2]{}
\providecommand{\transparent@use}[1]{}
\@writefile{toc}{\contentsline {part}{\@mypartnumtocformat {IV}{Capítulo cuatro}}{90}{part.4}\protected@file@percent }
\ttl@writefile{ptc}{\ttl@stoptoc{default@3}}
\ttl@writefile{ptc}{\ttl@starttoc{default@4}}
\@writefile{toc}{\contentsline {chapter}{\numberline {4}Serie uniforme vencida y anticipada}{91}{chapter.4}\protected@file@percent }
\@writefile{lof}{\addvspace {10\p@ }}
\@writefile{lot}{\addvspace {10\p@ }}
\gdef \LT@xxxv {\LT@entry 
    {1}{140.83868pt}\LT@entry 
    {1}{140.43869pt}\LT@entry 
    {1}{140.43869pt}}
\@writefile{toc}{\contentsline {section}{\numberline {4.1}{Fórmulas del capítulo}}{92}{section.4.1}\protected@file@percent }
\@writefile{toc}{\contentsline {subsection}{\numberline {4.1.1}Ingresos:}{93}{subsection.4.1.1}\protected@file@percent }
\@writefile{toc}{\contentsline {subsection}{\numberline {4.1.2}Período:}{93}{subsection.4.1.2}\protected@file@percent }
\@writefile{toc}{\contentsline {subsection}{\numberline {4.1.3}Serie uniforme:}{94}{subsection.4.1.3}\protected@file@percent }
\@writefile{toc}{\contentsline {section}{\numberline {4.2}Plazo de una serie uniforme}{95}{section.4.2}\protected@file@percent }
\@writefile{toc}{\contentsline {section}{\numberline {4.3}Valor futuro (VF, R, i, n)}{96}{section.4.3}\protected@file@percent }
\@writefile{toc}{\contentsline {section}{\numberline {4.4}Valor presente (VP, R, i, n)}{96}{section.4.4}\protected@file@percent }
\gdef \LT@xxxvi {\LT@entry 
    {1}{140.56396pt}\LT@entry 
    {1}{0.0pt}\LT@entry 
    {1}{279.93912pt}}
\gdef \LT@xxxvii {\LT@entry 
    {1}{140.56396pt}\LT@entry 
    {1}{0.0pt}\LT@entry 
    {1}{272.13579pt}}
\gdef \LT@xxxviii {\LT@entry 
    {1}{0.0pt}\LT@entry 
    {1}{149.34616pt}\LT@entry 
    {1}{333.98792pt}}
\@writefile{toc}{\contentsline {section}{\numberline {4.5}Series periódicas anticipadas (VP, VF, R, i, n)}{101}{section.4.5}\protected@file@percent }
\gdef \LT@xxxix {\LT@entry 
    {1}{85.90166pt}\LT@entry 
    {1}{61.87665pt}\LT@entry 
    {1}{267.1807pt}}
\@writefile{toc}{\contentsline {section}{\numberline {4.6}Valor presente de las series uniformes anticipada}{103}{section.4.6}\protected@file@percent }
\gdef \LT@xl {\LT@entry 
    {1}{83.16417pt}\LT@entry 
    {1}{0.0pt}\LT@entry 
    {1}{313.74542pt}}
\@writefile{toc}{\contentsline {section}{\numberline {4.7}Otro enfoque de las series periódicas anticipadas}{105}{section.4.7}\protected@file@percent }
\@writefile{toc}{\contentsline {section}{\numberline {4.8}Tabla de amortización}{107}{section.4.8}\protected@file@percent }
\gdef \LT@xli {\LT@entry 
    {1}{53.85603pt}\LT@entry 
    {1}{113.61261pt}\LT@entry 
    {1}{215.06677pt}}
\gdef \LT@xlii {\LT@entry 
    {1}{134.76555pt}\LT@entry 
    {1}{54.13478pt}\LT@entry 
    {1}{191.92157pt}}
\@writefile{toc}{\contentsline {section}{\numberline {4.9}Tabla de capitalización}{109}{section.4.9}\protected@file@percent }
\@setckpt{4_Capitulo/ch4}{
\setcounter{page}{111}
\setcounter{equation}{0}
\setcounter{enumi}{9}
\setcounter{enumii}{8}
\setcounter{enumiii}{0}
\setcounter{enumiv}{0}
\setcounter{footnote}{0}
\setcounter{mpfootnote}{0}
\setcounter{part}{4}
\setcounter{chapter}{4}
\setcounter{section}{9}
\setcounter{subsection}{0}
\setcounter{subsubsection}{0}
\setcounter{paragraph}{0}
\setcounter{subparagraph}{0}
\setcounter{figure}{0}
\setcounter{table}{1}
\setcounter{LT@tables}{42}
\setcounter{LT@chunks}{1}
\setcounter{tabx@nest}{0}
\setcounter{listtotal}{0}
\setcounter{listcount}{0}
\setcounter{liststart}{0}
\setcounter{liststop}{0}
\setcounter{citecount}{0}
\setcounter{citetotal}{0}
\setcounter{multicitecount}{0}
\setcounter{multicitetotal}{0}
\setcounter{instcount}{0}
\setcounter{maxnames}{3}
\setcounter{minnames}{1}
\setcounter{maxitems}{3}
\setcounter{minitems}{1}
\setcounter{citecounter}{0}
\setcounter{maxcitecounter}{0}
\setcounter{savedcitecounter}{0}
\setcounter{uniquelist}{0}
\setcounter{uniquename}{0}
\setcounter{refsection}{0}
\setcounter{refsegment}{0}
\setcounter{maxextratitle}{0}
\setcounter{maxextratitleyear}{0}
\setcounter{maxextraname}{0}
\setcounter{maxextradate}{0}
\setcounter{maxextraalpha}{0}
\setcounter{abbrvpenalty}{50}
\setcounter{highnamepenalty}{50}
\setcounter{lownamepenalty}{25}
\setcounter{maxparens}{3}
\setcounter{parenlevel}{0}
\setcounter{blx@maxsection}{0}
\setcounter{blx@maxsegment@0}{0}
\setcounter{blx@sectionciteorder@0}{0}
\setcounter{mincomprange}{10}
\setcounter{maxcomprange}{100000}
\setcounter{mincompwidth}{1}
\setcounter{afterword}{0}
\setcounter{savedafterword}{0}
\setcounter{annotator}{0}
\setcounter{savedannotator}{0}
\setcounter{author}{0}
\setcounter{savedauthor}{0}
\setcounter{bookauthor}{0}
\setcounter{savedbookauthor}{0}
\setcounter{commentator}{0}
\setcounter{savedcommentator}{0}
\setcounter{editor}{0}
\setcounter{savededitor}{0}
\setcounter{editora}{0}
\setcounter{savededitora}{0}
\setcounter{editorb}{0}
\setcounter{savededitorb}{0}
\setcounter{editorc}{0}
\setcounter{savededitorc}{0}
\setcounter{foreword}{0}
\setcounter{savedforeword}{0}
\setcounter{holder}{0}
\setcounter{savedholder}{0}
\setcounter{introduction}{0}
\setcounter{savedintroduction}{0}
\setcounter{namea}{0}
\setcounter{savednamea}{0}
\setcounter{nameb}{0}
\setcounter{savednameb}{0}
\setcounter{namec}{0}
\setcounter{savednamec}{0}
\setcounter{translator}{0}
\setcounter{savedtranslator}{0}
\setcounter{shortauthor}{0}
\setcounter{savedshortauthor}{0}
\setcounter{shorteditor}{0}
\setcounter{savedshorteditor}{0}
\setcounter{labelname}{0}
\setcounter{savedlabelname}{0}
\setcounter{institution}{0}
\setcounter{savedinstitution}{0}
\setcounter{lista}{0}
\setcounter{savedlista}{0}
\setcounter{listb}{0}
\setcounter{savedlistb}{0}
\setcounter{listc}{0}
\setcounter{savedlistc}{0}
\setcounter{listd}{0}
\setcounter{savedlistd}{0}
\setcounter{liste}{0}
\setcounter{savedliste}{0}
\setcounter{listf}{0}
\setcounter{savedlistf}{0}
\setcounter{location}{0}
\setcounter{savedlocation}{0}
\setcounter{organization}{0}
\setcounter{savedorganization}{0}
\setcounter{origlocation}{0}
\setcounter{savedoriglocation}{0}
\setcounter{origpublisher}{0}
\setcounter{savedorigpublisher}{0}
\setcounter{publisher}{0}
\setcounter{savedpublisher}{0}
\setcounter{language}{0}
\setcounter{savedlanguage}{0}
\setcounter{origlanguage}{0}
\setcounter{savedoriglanguage}{0}
\setcounter{pageref}{0}
\setcounter{savedpageref}{0}
\setcounter{textcitecount}{0}
\setcounter{textcitetotal}{0}
\setcounter{textcitemaxnames}{0}
\setcounter{biburlbigbreakpenalty}{100}
\setcounter{biburlbreakpenalty}{200}
\setcounter{biburlnumpenalty}{0}
\setcounter{biburlucpenalty}{0}
\setcounter{biburllcpenalty}{0}
\setcounter{smartand}{1}
\setcounter{bbx:relatedcount}{0}
\setcounter{bbx:relatedtotal}{0}
\setcounter{parentequation}{0}
\setcounter{notation}{0}
\setcounter{dummy}{0}
\setcounter{problem}{0}
\setcounter{exerciseT}{0}
\setcounter{exampleT}{0}
\setcounter{vocabulary}{0}
\setcounter{definitionT}{0}
\setcounter{mdf@globalstyle@cnt}{0}
\setcounter{mdfcountframes}{0}
\setcounter{mdf@env@i}{0}
\setcounter{mdf@env@ii}{0}
\setcounter{mdf@zref@counter}{0}
\setcounter{Item}{26}
\setcounter{Hfootnote}{0}
\setcounter{bookmark@seq@number}{0}
\setcounter{caption@flags}{0}
\setcounter{continuedfloat}{0}
\setcounter{float@type}{4}
\setcounter{svg@param@lastpage}{0}
\setcounter{svg@param@currpage}{-1}
\setcounter{section@level}{0}
\setcounter{ttl@toc@default}{4}
}
