<?xml version="1.0" encoding="UTF-8" standalone="no"?>
<svg
   xmlns:dc="http://purl.org/dc/elements/1.1/"
   xmlns:cc="http://creativecommons.org/ns#"
   xmlns:rdf="http://www.w3.org/1999/02/22-rdf-syntax-ns#"
   xmlns:svg="http://www.w3.org/2000/svg"
   xmlns="http://www.w3.org/2000/svg"
   viewBox="0 0 553.73334 397.73334"
   height="397.73334"
   width="553.73334"
   xml:space="preserve"
   id="svg2"
   version="1.1"><metadata
     id="metadata8"><rdf:RDF><cc:Work
         rdf:about=""><dc:format>image/svg+xml</dc:format><dc:type
           rdf:resource="http://purl.org/dc/dcmitype/StillImage" /></cc:Work></rdf:RDF></metadata><defs
     id="defs6" /><g
     transform="matrix(0.59999999,0,0,0.59999999,0,6.61e-6)"
     id="g10"><g
       id="g12"><path
         id="path14"
         style="fill:#ffffff;fill-opacity:1;fill-rule:nonzero;stroke:none"
         d="M 0,0 H 923 V 663 H 0 Z" /></g><g
       transform="translate(-179,292)"
       id="g16"><g
         id="g18" /><g
         id="g20"><g
           id="g22"><g
             id="g24"><g
               id="g26"><g
                 id="g28"><g
                   id="g30"><path
                     id="path32"
                     style="fill:none;stroke:#333333;stroke-width:2;stroke-linecap:butt;stroke-linejoin:miter;stroke-miterlimit:4;stroke-dasharray:none;stroke-opacity:1"
                     d="M 357.9,9.2 H 882" /></g></g></g><g
               id="g34"><path
                 id="path36"
                 style="fill:#333333;fill-opacity:1;fill-rule:nonzero;stroke:none"
                 d="m 358,10.2 h -4.1 v -1 h 4.1 z" /></g><g
               id="g38"><g
                 id="g40"><g
                   id="g42"><path
                     id="path44"
                     style="fill:none;stroke:#333333;stroke-width:0.05;stroke-linecap:butt;stroke-linejoin:miter;stroke-miterlimit:4;stroke-dasharray:none;stroke-opacity:1"
                     d="m 358,10.2 h -4.1 v -1 h 4.1 z" /></g></g></g><g
               id="g46"><path
                 id="path48"
                 style="fill:#333333;fill-opacity:1;fill-rule:nonzero;stroke:none"
                 d="M 897.3,9.2 883,13.8 V 4.6 Z" /></g><g
               id="g50"><g
                 id="g52"><g
                   id="g54"><path
                     id="path56"
                     style="fill:none;stroke:#333333;stroke-width:2;stroke-linecap:butt;stroke-linejoin:miter;stroke-miterlimit:4;stroke-dasharray:none;stroke-opacity:1"
                     d="M 897.3,9.2 883,13.8 V 4.6 Z" /></g></g></g></g></g></g><g
         id="g58"><g
           id="g60"><g
             id="g62"><g
               id="g64"><g
                 id="g66"><g
                   id="g68"><path
                     id="path70"
                     style="fill:none;stroke:#1aff1f;stroke-width:2;stroke-linecap:butt;stroke-linejoin:miter;stroke-miterlimit:4;stroke-dasharray:none;stroke-opacity:1"
                     d="M 360.5,8.2 V -172.3" /></g></g></g><g
               id="g72"><path
                 id="path74"
                 style="fill:#1aff1f;fill-opacity:1;fill-rule:nonzero;stroke:none"
                 d="m 361.5,9.2 h -2 v -1 h 2 z" /></g><g
               id="g76"><g
                 id="g78"><g
                   id="g80"><path
                     id="path82"
                     style="fill:none;stroke:#1aff1f;stroke-width:0.05;stroke-linecap:butt;stroke-linejoin:miter;stroke-miterlimit:4;stroke-dasharray:none;stroke-opacity:1"
                     d="m 361.5,9.2 h -2 v -1 h 2 z" /></g></g></g><g
               id="g84"><path
                 id="path86"
                 style="fill:#1aff1f;fill-opacity:1;fill-rule:nonzero;stroke:none"
                 d="m 360.5,-187.6 4.7,14.3 h -9.3 z" /></g><g
               id="g88"><g
                 id="g90"><g
                   id="g92"><path
                     id="path94"
                     style="fill:none;stroke:#1aff1f;stroke-width:2;stroke-linecap:butt;stroke-linejoin:miter;stroke-miterlimit:4;stroke-dasharray:none;stroke-opacity:1"
                     d="m 360.5,-187.6 4.7,14.3 h -9.3 z" /></g></g></g></g></g></g><g
         id="g96"><g
           id="g98"><g
             id="g100"><g
               transform="translate(240.5,-230.8)"
               id="g102" /><g
               transform="translate(240.5,-230.8)"
               id="g104"><g
                 id="g106"><path
                   id="path108"
                   style="fill:#ffffff;fill-opacity:0;fill-rule:nonzero;stroke:none"
                   d="M 0,6 C 0,0 6,0 6,0 h 228 c 6,0 6,6 6,6 v 8 c 0,6 -6,6 -6,6 H 6 C 0,20 0,14 0,14 Z" /></g><g
                 id="g110"><g
                   id="g112"><g
                     id="g114"><path
                       id="path116"
                       style="fill:none;stroke:#000000;stroke-width:3;stroke-linecap:butt;stroke-linejoin:miter;stroke-miterlimit:4;stroke-dasharray:none;stroke-opacity:0"
                       d="M 0,6 C 0,0 6,0 6,0 h 228 c 6,0 6,6 6,6 v 8 c 0,6 -6,6 -6,6 H 6 C 0,20 0,14 0,14 Z" /></g></g></g></g><g
               id="g118"><g
                 transform="translate(245.5,-225.8)"
                 id="g120"><g
                   id="g122"><g
                     transform="matrix(0.02222,0,0,0.02222,59.95,8.541774)"
                     id="g124"><g
                       transform="translate(0,298.3)"
                       id="g126"><g
                         id="g128"><g
                           id="g130"><path
                             id="path132"
                             style="fill:#333333;fill-opacity:1;fill-rule:nonzero;stroke:none"
                             d="m 697,-662 v 9.5 9.5 c -48,3 -60,13 -92,93 L 383,11 H 368 L 122,-538 C 79,-627 65,-641 16,-643 v -9.5 -9.5 h 266 v 9.5 9.5 c -37,2 -75,3 -75,33 0,15 8,37 41,111 l 151,338 147,-367 c 23,-67 45,-111 -54,-115 v -9.5 -9.5 z" /></g></g></g><g
                       transform="translate(722,298.3)"
                       id="g134"><g
                         id="g136"><g
                           id="g138"><path
                             id="path140"
                             style="fill:#333333;fill-opacity:1;fill-rule:nonzero;stroke:none"
                             d="m 542,-481 c 0,152 -155,214 -340,190 v 91 91 c 1,74 15,88 94,90 V -9.5 0 H 16 V -9.5 -19 c 76,-7 84,-16 84,-101 V -336.5 -553 c -1,-73 -10,-82 -84,-90 v -9.5 -9.5 c 228,3 526,-39 526,181 z M 202,-591 v 130 130 c 133,17 231,-27 231,-144 0,-103 -62,-150 -197,-150 -27,0 -34,7 -34,34 z" /></g></g></g><g
                       transform="translate(1278,298.3)"
                       id="g142"><g
                         id="g144"><g
                           id="g146" /></g></g></g></g><g
                   id="g148"><g
                     transform="matrix(0.02222,0,0,0.02222,93.91,8.541774)"
                     id="g150"><g
                       transform="translate(0,298.3)"
                       id="g152"><g
                         id="g154"><g
                           id="g156"><path
                             id="path158"
                             style="fill:#333333;fill-opacity:1;fill-rule:nonzero;stroke:none"
                             d="m 528,-433 v 26.5 26.5 H 37 v -26.5 -26.5 z m 0,200 v 26.5 26.5 H 37 v -26.5 -26.5 z" /></g></g></g><g
                       transform="translate(564,298.3)"
                       id="g160"><g
                         id="g162"><g
                           id="g164" /></g></g></g></g><g
                   id="g166"><g
                     transform="matrix(0.02222,0,0,0.02222,112,8.541774)"
                     id="g168"><g
                       transform="translate(0,298.3)"
                       id="g170"><g
                         id="g172"><g
                           id="g174"><path
                             id="path176"
                             style="fill:#333333;fill-opacity:1;fill-rule:nonzero;stroke:none"
                             d="m 395,-521 c 0,138 -159,203 -170,357 h -17 c -3,-126 95,-240 95,-362 0,-67 -48,-120 -109,-120 -48,0 -94,30 -94,62 0,19 46,54 38,74 0,25 -16,41 -41,41 -32,0 -48,-21 -48,-62 0,-83 70,-145 162,-145 93,0 184,53 184,155 z M 218,-97 c 30,0 55,24 55,54 0,30 -23,51 -55,51 -31,0 -53,-21 -53,-50 0,-31 23,-55 53,-55 z" /></g></g></g><g
                       transform="translate(444,298.3)"
                       id="g178"><g
                         id="g180"><g
                           id="g182" /></g></g></g></g><g
                   id="g184"><g
                     transform="matrix(0.02222,0,0,0.02222,127.4,8.541774)"
                     id="g186"><g
                       transform="translate(0,298.3)"
                       id="g188"><g
                         id="g190"><g
                           id="g192"><path
                             id="path194"
                             style="fill:#333333;fill-opacity:1;fill-rule:nonzero;stroke:none"
                             d="m 363,-676 c 59,-1 126,33 185,33 20,0 36,-12 42,-33 h 21 l 9,225 h -23 c -26,-114 -98,-185 -215,-185 -145,0 -238,116 -238,298 0,184 78,308 248,308 83,0 149,-30 223,-101 l 18,18 C 573,-32 473,14 360,14 161,14 28,-122 28,-326 28,-526 175,-672 363,-676 Z" /></g></g></g><g
                       transform="translate(653,298.3)"
                       id="g196"><g
                         id="g198"><g
                           id="g200"><path
                             id="path202"
                             style="fill:#333333;fill-opacity:1;fill-rule:nonzero;stroke:none"
                             d="M 355,14 C 172,14 34,-134 34,-331 c 0,-202 136,-345 327,-345 187,-1 327,146 327,349 0,202 -136,341 -333,341 z m 219,-342 c 0,-179 -59,-312 -213,-312 -151,0 -213,138 -213,311 0,172 58,307 211,307 158,0 215,-151 215,-306 z" /></g></g></g><g
                       transform="translate(1362,298.3)"
                       id="g204"><g
                         id="g206"><g
                           id="g208"><path
                             id="path210"
                             style="fill:#333333;fill-opacity:1;fill-rule:nonzero;stroke:none"
                             d="m 542,-481 c 0,152 -155,214 -340,190 v 91 91 c 1,74 15,88 94,90 V -9.5 0 H 16 V -9.5 -19 c 76,-7 84,-16 84,-101 V -336.5 -553 c -1,-73 -10,-82 -84,-90 v -9.5 -9.5 c 228,3 526,-39 526,181 z M 202,-591 v 130 130 c 133,17 231,-27 231,-144 0,-103 -62,-150 -197,-150 -27,0 -34,7 -34,34 z" /></g></g></g></g></g></g></g></g></g></g><g
         id="g212"><g
           id="g214"><g
             id="g216"><g
               id="g218"><g
                 id="g220"><g
                   id="g222"><path
                     id="path224"
                     style="fill:none;stroke:#333333;stroke-width:2;stroke-linecap:butt;stroke-linejoin:miter;stroke-miterlimit:4;stroke-dasharray:none;stroke-opacity:1"
                     d="m 360,121 v 10.6 m 0,10.6 0.1,21.2 m 0.1,10.6 v 21.2 m 0.1,10.6 0.1,21.2 m 0,10.6 0.1,10.6" /></g></g></g><g
               id="g226"><g
                 id="g228"><g
                   id="g230"><path
                     id="path232"
                     style="fill:none;stroke:#333333;stroke-width:2;stroke-linecap:butt;stroke-linejoin:miter;stroke-miterlimit:4;stroke-dasharray:none;stroke-opacity:1"
                     d="m 360,121 v -1" /></g></g></g><g
               id="g234"><path
                 id="path236"
                 style="fill:#333333;fill-opacity:1;fill-rule:nonzero;stroke:none"
                 d="m 361.5,249.2 h -2 v -1 h 2 z" /></g><g
               id="g238"><g
                 id="g240"><g
                   id="g242"><path
                     id="path244"
                     style="fill:none;stroke:#333333;stroke-width:0.05;stroke-linecap:butt;stroke-linejoin:miter;stroke-miterlimit:4;stroke-dasharray:none;stroke-opacity:1"
                     d="m 361.5,249.2 h -2 v -1 h 2 z" /></g></g></g></g></g></g><g
         id="g246"><g
           id="g248"><g
             id="g250"><g
               transform="translate(240.5,249.2)"
               id="g252" /><g
               transform="translate(240.5,249.2)"
               id="g254"><g
                 id="g256"><path
                   id="path258"
                   style="fill:#ffffff;fill-opacity:0;fill-rule:nonzero;stroke:none"
                   d="M 0,6 C 0,0 6,0 6,0 h 228 c 6,0 6,6 6,6 v 48 c 0,6 -6,6 -6,6 H 6 C 0,60 0,54 0,54 Z" /></g><g
                 id="g260"><g
                   id="g262"><g
                     id="g264"><path
                       id="path266"
                       style="fill:none;stroke:#000000;stroke-width:3;stroke-linecap:butt;stroke-linejoin:miter;stroke-miterlimit:4;stroke-dasharray:none;stroke-opacity:0"
                       d="M 0,6 C 0,0 6,0 6,0 h 228 c 6,0 6,6 6,6 v 48 c 0,6 -6,6 -6,6 H 6 C 0,60 0,54 0,54 Z" /></g></g></g></g><g
               id="g268"><g
                 transform="translate(245.5,254.2)"
                 id="g270"><g
                   id="g272"><g
                     transform="matrix(0.02222,0,0,0.02222,105.7,21.041774)"
                     id="g274"><g
                       transform="translate(0,298.3)"
                       id="g276"><g
                         id="g278"><g
                           id="g280"><path
                             id="path282"
                             style="fill:#333333;fill-opacity:1;fill-rule:nonzero;stroke:none"
                             d="m 5,217 v -8.5 -8.5 c 59,-6 70,-16 70,-69 v -234 -234 c 4,-60 -20,-59 -66,-56 v -8 -8 c 55,-17 90,-30 144,-51 l 6,2 v 38.5 38.5 c 44,-55 88,-79 144,-79 97,0 167,89 167,213 C 470,-102 379,10 260,10 218,10 195,0 159,-33 V 45.5 124 c 1,64 13,74 88,75 v 9 9 z m 154,-551 v 123 123 c 0,30 57,66 104,66 72,0 121,-75 121,-185 0,-117 -49,-193 -123,-193 -46,0 -102,36 -102,66 z" /></g></g></g><g
                       transform="translate(500,298.3)"
                       id="g284"><g
                         id="g286"><g
                           id="g288"><path
                             id="path290"
                             style="fill:#333333;fill-opacity:1;fill-rule:nonzero;stroke:none"
                             d="m 116,-450 c -2,-143 47,-233 176,-233 60,0 104,26 104,62 0,23 -18,41 -42,41 -17,0 -30,-9 -45,-36 -37,-69 -110,-44 -110,50 v 58 58 h 123 v 16 16 H 200 v 157 157 c 0,75 11,86 93,89 V -7.5 0 H 33 V -7.5 -15 c 71,-3 83,-14 83,-89 V -261 -418 H 34 v -16 -16 z" /></g></g></g></g></g></g></g></g></g></g><g
         id="g292"><g
           id="g294"><g
             id="g296"><g
               transform="translate(330.5,9.2)"
               id="g298" /><g
               transform="translate(330.5,9.2)"
               id="g300"><g
                 id="g302"><path
                   id="path304"
                   style="fill:#ffffff;fill-opacity:0;fill-rule:nonzero;stroke:none"
                   d="M 0,6 C 0,0 6,0 6,0 h 48 c 6,0 6,6 6,6 v 8 c 0,6 -6,6 -6,6 H 6 C 0,20 0,14 0,14 Z" /></g><g
                 id="g306"><g
                   id="g308"><g
                     id="g310"><path
                       id="path312"
                       style="fill:none;stroke:#000000;stroke-width:3;stroke-linecap:butt;stroke-linejoin:miter;stroke-miterlimit:4;stroke-dasharray:none;stroke-opacity:0"
                       d="M 0,6 C 0,0 6,0 6,0 h 48 c 6,0 6,6 6,6 v 8 c 0,6 -6,6 -6,6 H 6 C 0,20 0,14 0,14 Z" /></g></g></g></g><g
               id="g314"><g
                 transform="translate(335.5,14.2)"
                 id="g316"><g
                   id="g318"><g
                     transform="matrix(0.02222,0,0,0.02222,19.44,8.541774)"
                     id="g320"><g
                       transform="translate(0,298.3)"
                       id="g322"><g
                         id="g324"><g
                           id="g326"><path
                             id="path328"
                             style="fill:#333333;fill-opacity:1;fill-rule:nonzero;stroke:none"
                             d="m 24,-336 c 0,-175 60,-340 230,-340 131,0 222,141 222,346 C 476,-150 417,14 250,14 82,14 24,-156 24,-336 Z m 227,-314 c -86,0 -131,110 -131,323 0,208 44,315 130,315 86,0 130,-107 130,-316 0,-209 -45,-322 -129,-322 z" /></g></g></g></g></g></g></g></g></g></g><g
         id="g330"><g
           id="g332"><g
             id="g334"><g
               transform="translate(390.5,9.2)"
               id="g336" /><g
               transform="translate(390.5,9.2)"
               id="g338"><g
                 id="g340"><path
                   id="path342"
                   style="fill:#ffffff;fill-opacity:0;fill-rule:nonzero;stroke:none"
                   d="M 0,6 C 0,0 6,0 6,0 h 48 c 6,0 6,6 6,6 v 8 c 0,6 -6,6 -6,6 H 6 C 0,20 0,14 0,14 Z" /></g><g
                 id="g344"><g
                   id="g346"><g
                     id="g348"><path
                       id="path350"
                       style="fill:none;stroke:#000000;stroke-width:3;stroke-linecap:butt;stroke-linejoin:miter;stroke-miterlimit:4;stroke-dasharray:none;stroke-opacity:0"
                       d="M 0,6 C 0,0 6,0 6,0 h 48 c 6,0 6,6 6,6 v 8 c 0,6 -6,6 -6,6 H 6 C 0,20 0,14 0,14 Z" /></g></g></g></g><g
               id="g352"><g
                 transform="translate(395.5,14.2)"
                 id="g354"><g
                   id="g356"><g
                     transform="matrix(0.02222,0,0,0.02222,19.44,8.541774)"
                     id="g358"><g
                       transform="translate(0,298.3)"
                       id="g360"><g
                         id="g362"><g
                           id="g364"><path
                             id="path366"
                             style="fill:#333333;fill-opacity:1;fill-rule:nonzero;stroke:none"
                             d="M 118,0 V -7.5 -15 c 76,-1 95,-15 95,-78 V -319.5 -546 c 0,-32 -9,-47 -30,-47 -9,0 -33,7 -72,22 v -7 -7 l 180,-91 8,2 v 300 300 c 1,48 18,59 95,59 V -7.5 0 Z" /></g></g></g></g></g></g></g></g></g></g><g
         id="g368"><g
           id="g370"><g
             id="g372"><g
               transform="translate(450.5,9.2)"
               id="g374" /><g
               transform="translate(450.5,9.2)"
               id="g376"><g
                 id="g378"><path
                   id="path380"
                   style="fill:#ffffff;fill-opacity:0;fill-rule:nonzero;stroke:none"
                   d="M 0,6 C 0,0 6,0 6,0 h 48 c 6,0 6,6 6,6 v 8 c 0,6 -6,6 -6,6 H 6 C 0,20 0,14 0,14 Z" /></g><g
                 id="g382"><g
                   id="g384"><g
                     id="g386"><path
                       id="path388"
                       style="fill:none;stroke:#000000;stroke-width:3;stroke-linecap:butt;stroke-linejoin:miter;stroke-miterlimit:4;stroke-dasharray:none;stroke-opacity:0"
                       d="M 0,6 C 0,0 6,0 6,0 h 48 c 6,0 6,6 6,6 v 8 c 0,6 -6,6 -6,6 H 6 C 0,20 0,14 0,14 Z" /></g></g></g></g><g
               id="g390"><g
                 transform="translate(455.5,14.2)"
                 id="g392"><g
                   id="g394"><g
                     transform="matrix(0.02222,0,0,0.02222,19.44,8.541774)"
                     id="g396"><g
                       transform="translate(0,298.3)"
                       id="g398"><g
                         id="g400"><g
                           id="g402"><path
                             id="path404"
                             style="fill:#333333;fill-opacity:1;fill-rule:nonzero;stroke:none"
                             d="m 31,-477 c 23,-122 89,-199 208,-199 104,0 185,77 185,176 0,154 -206,318 -296,424 h 239 c 47,-1 58,-8 95,-66 l 13,5 L 420,0 H 30 v -6 -6 c 98,-114 308,-280 308,-449 0,-84 -56,-141 -141,-141 -70,0 -105,32 -145,130 z" /></g></g></g></g></g></g></g></g></g></g><g
         id="g406"><g
           id="g408"><g
             id="g410"><g
               transform="translate(510.5,9.2)"
               id="g412" /><g
               transform="translate(510.5,9.2)"
               id="g414"><g
                 id="g416"><path
                   id="path418"
                   style="fill:#ffffff;fill-opacity:0;fill-rule:nonzero;stroke:none"
                   d="M 0,6 C 0,0 6,0 6,0 h 48 c 6,0 6,6 6,6 v 8 c 0,6 -6,6 -6,6 H 6 C 0,20 0,14 0,14 Z" /></g><g
                 id="g420"><g
                   id="g422"><g
                     id="g424"><path
                       id="path426"
                       style="fill:none;stroke:#000000;stroke-width:3;stroke-linecap:butt;stroke-linejoin:miter;stroke-miterlimit:4;stroke-dasharray:none;stroke-opacity:0"
                       d="M 0,6 C 0,0 6,0 6,0 h 48 c 6,0 6,6 6,6 v 8 c 0,6 -6,6 -6,6 H 6 C 0,20 0,14 0,14 Z" /></g></g></g></g><g
               id="g428"><g
                 transform="translate(515.5,14.2)"
                 id="g430"><g
                   id="g432"><g
                     transform="matrix(0.02222,0,0,0.02222,19.44,8.541774)"
                     id="g434"><g
                       transform="translate(0,298.3)"
                       id="g436"><g
                         id="g438"><g
                           id="g440"><path
                             id="path442"
                             style="fill:#333333;fill-opacity:1;fill-rule:nonzero;stroke:none"
                             d="m 359,-171 c 0,-104 -68,-170 -206,-159 l -1,-13 c 68,-24 95,-40 126,-69 70,-65 44,-204 -70,-204 -63,0 -108,32 -148,106 l -15,-4 c 30,-102 88,-162 196,-162 93,0 156,55 156,137 0,54 -25,91 -93,138 83,32 124,81 127,182 C 436,-71 304,14 156,14 86,14 43,-8 43,-43 c 0,-21 15,-35 38,-35 36,0 111,68 148,56 74,0 130,-64 130,-149 z" /></g></g></g></g></g></g></g></g></g></g><g
         id="g444"><g
           id="g446"><g
             id="g448"><g
               id="g450"><path
                 id="path452"
                 style="fill:#333333;fill-opacity:1;fill-rule:nonzero;stroke:none"
                 d="m 572.5,19.2 c 0,0.55 -0.5,1 -1,1 -0.6,0 -1,-0.45 -1,-1 0,-0.56 0.4,-1 1,-1 0.5,0 1,0.44 1,1 z m 8.1,0 c 0,0.55 -0.4,1 -1,1 -0.6,0 -1,-0.45 -1,-1 0,-0.56 0.4,-1 1,-1 0.6,0 1,0.44 1,1 z m 8.2,0 c 0,0.55 -0.5,1 -1,1 -0.6,0 -1,-0.45 -1,-1 0,-0.56 0.4,-1 1,-1 0.5,0 1,0.44 1,1 z m 8.1,0 c 0,0.55 -0.4,1 -1,1 -0.5,0 -1,-0.45 -1,-1 0,-0.56 0.5,-1 1,-1 0.6,0 1,0.44 1,1 z m 8.2,0 c 0,0.55 -0.5,1 -1,1 -0.6,0 -1,-0.45 -1,-1 0,-0.56 0.4,-1 1,-1 0.5,0 1,0.44 1,1 z m 8.1,0 c 0,0.55 -0.4,1 -1,1 -0.5,0 -1,-0.45 -1,-1 0,-0.56 0.5,-1 1,-1 0.6,0 1,0.44 1,1 z m 8.2,0 c 0,0.55 -0.5,1 -1,1 -0.6,0 -1,-0.45 -1,-1 0,-0.56 0.4,-1 1,-1 0.5,0 1,0.44 1,1 z m 8.1,0 c 0,0.55 -0.4,1 -1,1 -0.5,0 -1,-0.45 -1,-1 0,-0.56 0.5,-1 1,-1 0.6,0 1,0.44 1,1 z m 8.2,0 c 0,0.55 -0.5,1 -1,1 -0.6,0 -1,-0.45 -1,-1 0,-0.56 0.4,-1 1,-1 0.5,0 1,0.44 1,1 z m 8.1,0 c 0,0.55 -0.4,1 -1,1 -0.5,0 -1,-0.45 -1,-1 0,-0.56 0.5,-1 1,-1 0.6,0 1,0.44 1,1 z m 8.2,0 c 0,0.55 -0.5,1 -1,1 -0.6,0 -1,-0.45 -1,-1 0,-0.56 0.4,-1 1,-1 0.5,0 1,0.44 1,1 z m 8.1,0 c 0,0.55 -0.4,1 -1,1 -0.5,0 -1,-0.45 -1,-1 0,-0.56 0.5,-1 1,-1 0.6,0 1,0.44 1,1 z m 8.2,0 c 0,0.55 -0.5,1 -1,1 -0.6,0 -1,-0.45 -1,-1 0,-0.56 0.4,-1 1,-1 0.5,0 1,0.44 1,1 z m 8.1,0 c 0,0.55 -0.4,1 -1,1 -0.5,0 -1,-0.45 -1,-1 0,-0.56 0.5,-1 1,-1 0.6,0 1,0.44 1,1 z m 8.2,0 c 0,0.55 -0.5,1 -1,1 -0.6,0 -1,-0.45 -1,-1 0,-0.56 0.4,-1 1,-1 0.5,0 1,0.44 1,1 z m 8.1,0 c 0,0.55 -0.4,1 -1,1 -0.5,0 -1,-0.45 -1,-1 0,-0.56 0.5,-1 1,-1 0.6,0 1,0.44 1,1 z m 8.2,0 c 0,0.55 -0.5,1 -1,1 -0.6,0 -1,-0.45 -1,-1 0,-0.56 0.4,-1 1,-1 0.5,0 1,0.44 1,1 z m 8.1,0 c 0,0.55 -0.4,1 -1,1 -0.5,0 -1,-0.45 -1,-1 0,-0.56 0.5,-1 1,-1 0.6,0 1,0.44 1,1 z m 8.2,0 c 0,0.55 -0.5,1 -1,1 -0.6,0 -1,-0.45 -1,-1 0,-0.56 0.4,-1 1,-1 0.5,0 1,0.44 1,1 z m 8.1,0 c 0,0.55 -0.4,1 -1,1 -0.5,0 -1,-0.45 -1,-1 0,-0.56 0.5,-1 1,-1 0.6,0 1,0.44 1,1 z m 8.2,0 c 0,0.55 -0.5,1 -1,1 -0.6,0 -1,-0.45 -1,-1 0,-0.56 0.4,-1 1,-1 0.5,0 1,0.44 1,1 z m 8.1,0 c 0,0.55 -0.4,1 -1,1 -0.5,0 -1,-0.45 -1,-1 0,-0.56 0.5,-1 1,-1 0.6,0 1,0.44 1,1 z m 8.2,0 c 0,0.55 -0.4,1 -1,1 -0.6,0 -1,-0.45 -1,-1 0,-0.56 0.4,-1 1,-1 0.6,0 1,0.44 1,1 z m 8.2,0 c 0,0.55 -0.5,1 -1,1 -0.6,0 -1,-0.45 -1,-1 0,-0.56 0.4,-1 1,-1 0.5,0 1,0.44 1,1 z" /></g><g
               id="g454"><path
                 id="path456"
                 style="fill:#333333;fill-opacity:1;fill-rule:nonzero;stroke:none"
                 d="m 571.6,20.2 h -1.1 v -2 h 1.1 z" /></g><g
               id="g458"><g
                 id="g460"><g
                   id="g462"><path
                     id="path464"
                     style="fill:none;stroke:#333333;stroke-width:0.05;stroke-linecap:butt;stroke-linejoin:miter;stroke-miterlimit:4;stroke-dasharray:none;stroke-opacity:1"
                     d="m 571.6,20.2 h -1.1 v -2 h 1.1 z" /></g></g></g><g
               id="g466"><path
                 id="path468"
                 style="fill:#333333;fill-opacity:1;fill-rule:nonzero;stroke:none"
                 d="m 760,20.2 h -1 v -2 h 1 z" /></g><g
               id="g470"><g
                 id="g472"><g
                   id="g474"><path
                     id="path476"
                     style="fill:none;stroke:#333333;stroke-width:0.05;stroke-linecap:butt;stroke-linejoin:miter;stroke-miterlimit:4;stroke-dasharray:none;stroke-opacity:1"
                     d="m 760,20.2 h -1 v -2 h 1 z" /></g></g></g></g></g></g><g
         id="g478"><g
           id="g480"><g
             id="g482"><g
               transform="translate(760,9.2)"
               id="g484" /><g
               transform="translate(760,9.2)"
               id="g486"><g
                 id="g488"><path
                   id="path490"
                   style="fill:#ffffff;fill-opacity:0;fill-rule:nonzero;stroke:none"
                   d="M 0,6 C 0,0 6,0 6,0 h 68 c 6,0 6,6 6,6 v 8 c 0,6 -6,6 -6,6 H 6 C 0,20 0,14 0,14 Z" /></g><g
                 id="g492"><g
                   id="g494"><g
                     id="g496"><path
                       id="path498"
                       style="fill:none;stroke:#000000;stroke-width:3;stroke-linecap:butt;stroke-linejoin:miter;stroke-miterlimit:4;stroke-dasharray:none;stroke-opacity:0"
                       d="M 0,6 C 0,0 6,0 6,0 h 68 c 6,0 6,6 6,6 v 8 c 0,6 -6,6 -6,6 H 6 C 0,20 0,14 0,14 Z" /></g></g></g></g><g
               id="g500"><g
                 transform="translate(765,14.2)"
                 id="g502"><g
                   id="g504"><g
                     transform="matrix(0.02222,0,0,0.02222,23.88,8.541774)"
                     id="g506"><g
                       transform="translate(0,298.3)"
                       id="g508"><g
                         id="g510"><g
                           id="g512"><path
                             id="path514"
                             style="fill:#333333;fill-opacity:1;fill-rule:nonzero;stroke:none"
                             d="M 118,0 V -7.5 -15 c 76,-1 95,-15 95,-78 V -319.5 -546 c 0,-32 -9,-47 -30,-47 -9,0 -33,7 -72,22 v -7 -7 l 180,-91 8,2 v 300 300 c 1,48 18,59 95,59 V -7.5 0 Z" /></g></g></g><g
                       transform="translate(500,298.3)"
                       id="g516"><g
                         id="g518"><g
                           id="g520"><path
                             id="path522"
                             style="fill:#333333;fill-opacity:1;fill-rule:nonzero;stroke:none"
                             d="M 118,0 V -7.5 -15 c 76,-1 95,-15 95,-78 V -319.5 -546 c 0,-32 -9,-47 -30,-47 -9,0 -33,7 -72,22 v -7 -7 l 180,-91 8,2 v 300 300 c 1,48 18,59 95,59 V -7.5 0 Z" /></g></g></g></g></g></g></g></g></g></g><g
         id="g524"><g
           id="g526"><g
             id="g528"><g
               id="g530"><g
                 id="g532"><g
                   id="g534"><path
                     id="path536"
                     style="fill:none;stroke:#ff1818;stroke-width:2;stroke-linecap:butt;stroke-linejoin:miter;stroke-miterlimit:4;stroke-dasharray:none;stroke-opacity:1"
                     d="M 420.5,50.2 V 90.7" /></g></g></g><g
               id="g538"><g
                 id="g540"><g
                   id="g542"><path
                     id="path544"
                     style="fill:none;stroke:#ff1818;stroke-width:2;stroke-linecap:butt;stroke-linejoin:miter;stroke-miterlimit:4;stroke-dasharray:none;stroke-opacity:1"
                     d="m 420.5,50.2 v -1" /></g></g></g><g
               id="g546"><path
                 id="path548"
                 style="fill:#ff1818;fill-opacity:1;fill-rule:nonzero;stroke:none"
                 d="m 420.5,106 -4.6,-14.3 h 9.3 z" /></g><g
               id="g550"><g
                 id="g552"><g
                   id="g554"><path
                     id="path556"
                     style="fill:none;stroke:#ff1818;stroke-width:2;stroke-linecap:butt;stroke-linejoin:miter;stroke-miterlimit:4;stroke-dasharray:none;stroke-opacity:1"
                     d="m 420.5,106 -4.6,-14.3 h 9.3 z" /></g></g></g></g></g></g><g
         id="g558"><g
           id="g560"><g
             id="g562"><g
               id="g564"><g
                 id="g566"><g
                   id="g568"><path
                     id="path570"
                     style="fill:none;stroke:#ff1818;stroke-width:2;stroke-linecap:butt;stroke-linejoin:miter;stroke-miterlimit:4;stroke-dasharray:none;stroke-opacity:1"
                     d="M 480.5,50.2 V 90.7" /></g></g></g><g
               id="g572"><g
                 id="g574"><g
                   id="g576"><path
                     id="path578"
                     style="fill:none;stroke:#ff1818;stroke-width:2;stroke-linecap:butt;stroke-linejoin:miter;stroke-miterlimit:4;stroke-dasharray:none;stroke-opacity:1"
                     d="m 480.5,50.2 v -1" /></g></g></g><g
               id="g580"><path
                 id="path582"
                 style="fill:#ff1818;fill-opacity:1;fill-rule:nonzero;stroke:none"
                 d="m 480.5,106 -4.6,-14.3 h 9.3 z" /></g><g
               id="g584"><g
                 id="g586"><g
                   id="g588"><path
                     id="path590"
                     style="fill:none;stroke:#ff1818;stroke-width:2;stroke-linecap:butt;stroke-linejoin:miter;stroke-miterlimit:4;stroke-dasharray:none;stroke-opacity:1"
                     d="m 480.5,106 -4.6,-14.3 h 9.3 z" /></g></g></g></g></g></g><g
         id="g592"><g
           id="g594"><g
             id="g596"><g
               id="g598"><g
                 id="g600"><g
                   id="g602"><path
                     id="path604"
                     style="fill:none;stroke:#ff1818;stroke-width:2;stroke-linecap:butt;stroke-linejoin:miter;stroke-miterlimit:4;stroke-dasharray:none;stroke-opacity:1"
                     d="M 540.5,50.2 V 90.7" /></g></g></g><g
               id="g606"><g
                 id="g608"><g
                   id="g610"><path
                     id="path612"
                     style="fill:none;stroke:#ff1818;stroke-width:2;stroke-linecap:butt;stroke-linejoin:miter;stroke-miterlimit:4;stroke-dasharray:none;stroke-opacity:1"
                     d="m 540.5,50.2 v -1" /></g></g></g><g
               id="g614"><path
                 id="path616"
                 style="fill:#ff1818;fill-opacity:1;fill-rule:nonzero;stroke:none"
                 d="m 540.5,106 -4.6,-14.3 h 9.3 z" /></g><g
               id="g618"><g
                 id="g620"><g
                   id="g622"><path
                     id="path624"
                     style="fill:none;stroke:#ff1818;stroke-width:2;stroke-linecap:butt;stroke-linejoin:miter;stroke-miterlimit:4;stroke-dasharray:none;stroke-opacity:1"
                     d="m 540.5,106 -4.6,-14.3 h 9.3 z" /></g></g></g></g></g></g><g
         id="g626"><g
           id="g628"><g
             id="g630"><g
               id="g632"><g
                 id="g634"><g
                   id="g636"><path
                     id="path638"
                     style="fill:none;stroke:#ff1818;stroke-width:2;stroke-linecap:butt;stroke-linejoin:miter;stroke-miterlimit:4;stroke-dasharray:none;stroke-opacity:1"
                     d="M 800.5,30.2 V 90.7" /></g></g></g><g
               id="g640"><path
                 id="path642"
                 style="fill:#ff1818;fill-opacity:1;fill-rule:nonzero;stroke:none"
                 d="m 801.5,30.2 h -2 v -1 h 2 z" /></g><g
               id="g644"><g
                 id="g646"><g
                   id="g648"><path
                     id="path650"
                     style="fill:none;stroke:#ff1818;stroke-width:0.05;stroke-linecap:butt;stroke-linejoin:miter;stroke-miterlimit:4;stroke-dasharray:none;stroke-opacity:1"
                     d="m 801.5,30.2 h -2 v -1 h 2 z" /></g></g></g><g
               id="g652"><path
                 id="path654"
                 style="fill:#ff1818;fill-opacity:1;fill-rule:nonzero;stroke:none"
                 d="m 800.5,106 -4.6,-14.3 h 9.3 z" /></g><g
               id="g656"><g
                 id="g658"><g
                   id="g660"><path
                     id="path662"
                     style="fill:none;stroke:#ff1818;stroke-width:2;stroke-linecap:butt;stroke-linejoin:miter;stroke-miterlimit:4;stroke-dasharray:none;stroke-opacity:1"
                     d="m 800.5,106 -4.6,-14.3 h 9.3 z" /></g></g></g></g></g></g><g
         id="g664"><g
           id="g666"><g
             id="g668"><g
               id="g670"><g
                 id="g672"><g
                   id="g674"><path
                     id="path676"
                     style="fill:none;stroke:#333333;stroke-width:2;stroke-linecap:butt;stroke-linejoin:miter;stroke-miterlimit:4;stroke-dasharray:none;stroke-opacity:1"
                     d="m 361,109.2 h 2.9 m 4,0 h 6 m 4,0 h 6 m 4,0 h 5.9 m 4,0 h 6 m 4,0 h 6 m 4,0 h 5.9 m 4,0 h 6 m 4,0 h 6 m 4,0 h 5.9 m 4,0 h 6 m 4,0 h 6 m 4,0 h 5.9 m 4,0 h 6 m 4,0 h 6 m 3.9,0 h 6 m 4,0 h 6 m 4,0 h 6 m 3.9,0 h 6 m 4,0 h 6 m 4,0 h 6 m 3.9,0 h 6 m 4,0 h 6 m 4,0 h 6 m 3.9,0 h 6 m 4,0 h 6 m 4,0 h 6 m 3.9,0 h 6 m 4,0 h 6 m 4,0 h 6 m 3.9,0 h 6 m 4,0 h 6 m 4,0 h 5.9 m 4,0 h 6 m 4,0 h 6 m 4,0 h 5.9 m 4,0 h 6 m 4,0 h 6 m 4,0 h 5.9 m 4,0 h 6 m 4,0 h 6 m 4,0 h 5.9 m 4,0 h 6 m 4,0 h 6 m 4,0 h 3" /></g></g></g><g
               id="g678"><g
                 id="g680"><g
                   id="g682"><path
                     id="path684"
                     style="fill:none;stroke:#333333;stroke-width:2;stroke-linecap:butt;stroke-linejoin:miter;stroke-miterlimit:4;stroke-dasharray:none;stroke-opacity:1"
                     d="m 361,109.2 h -1" /></g></g></g><g
               id="g686"><g
                 id="g688"><g
                   id="g690"><path
                     id="path692"
                     style="fill:none;stroke:#333333;stroke-width:2;stroke-linecap:butt;stroke-linejoin:miter;stroke-miterlimit:4;stroke-dasharray:none;stroke-opacity:1"
                     d="m 799.5,109.2 h 1" /></g></g></g></g></g></g><g
         id="g694"><g
           id="g696"><g
             id="g698"><g
               transform="translate(800.5,-10.8)"
               id="g700" /><g
               transform="translate(800.5,-10.8)"
               id="g702"><g
                 id="g704"><path
                   id="path706"
                   style="fill:#ffffff;fill-opacity:0;fill-rule:nonzero;stroke:none"
                   d="M 0,6 C 0,0 6,0 6,0 h 228 c 6,0 6,6 6,6 v 8 c 0,6 -6,6 -6,6 H 6 C 0,20 0,14 0,14 Z" /></g><g
                 id="g708"><g
                   id="g710"><g
                     id="g712"><path
                       id="path714"
                       style="fill:none;stroke:#000000;stroke-width:3;stroke-linecap:butt;stroke-linejoin:miter;stroke-miterlimit:4;stroke-dasharray:none;stroke-opacity:0"
                       d="M 0,6 C 0,0 6,0 6,0 h 228 c 6,0 6,6 6,6 v 8 c 0,6 -6,6 -6,6 H 6 C 0,20 0,14 0,14 Z" /></g></g></g></g><g
               id="g716"><g
                 transform="translate(805.5,-5.8)"
                 id="g718"><g
                   id="g720"><g
                     transform="matrix(0.02222,0,0,0.02222,95.62,8.541774)"
                     id="g722"><g
                       transform="translate(0,298.3)"
                       id="g724"><g
                         id="g726"><g
                           id="g728"><path
                             id="path730"
                             style="fill:#333333;fill-opacity:1;fill-rule:nonzero;stroke:none"
                             d="m 5,217 v -8.5 -8.5 c 59,-6 70,-16 70,-69 v -234 -234 c 4,-60 -20,-59 -66,-56 v -8 -8 c 55,-17 90,-30 144,-51 l 6,2 v 38.5 38.5 c 44,-55 88,-79 144,-79 97,0 167,89 167,213 C 470,-102 379,10 260,10 218,10 195,0 159,-33 V 45.5 124 c 1,64 13,74 88,75 v 9 9 z m 154,-551 v 123 123 c 0,30 57,66 104,66 72,0 121,-75 121,-185 0,-117 -49,-193 -123,-193 -46,0 -102,36 -102,66 z" /></g></g></g><g
                       transform="translate(500,298.3)"
                       id="g732"><g
                         id="g734"><g
                           id="g736"><path
                             id="path738"
                             style="fill:#333333;fill-opacity:1;fill-rule:nonzero;stroke:none"
                             d="m 288,-408 c -43,0 -99,25 -118,59 v 141 141 c 1,40 17,51 68,52 V -7.5 0 H 16 V -7.5 -15 c 55,0 70,-14 70,-70 V -211.5 -338 c 2,-66 -20,-70 -67,-60 v -8.5 -8.5 c 55,-15 89,-26 140,-45 l 7,2 v 37.5 37.5 c 84,-64 110,-77 155,-77 54,0 88,27 106,84 54,-58 104,-84 163,-84 77,0 116,60 116,178 v 103 103 c -2,50 23,60 69,61 V -7.5 0 H 556 V -7.5 -15 c 58,-6 66,-13 66,-72 V -192.5 -298 c 0,-83 -18,-110 -75,-110 -47,0 -79,18 -109,61 v 126 126 c 2,64 16,80 72,80 V -7.5 0 H 286 V -7.5 -15 c 56,-3 68,-14 68,-71 V -194.5 -303 c 0,-70 -22,-105 -66,-105 z" /></g></g></g><g
                       transform="translate(1244,298.3)"
                       id="g740"><g
                         id="g742"><g
                           id="g744"><path
                             id="path746"
                             style="fill:#333333;fill-opacity:1;fill-rule:nonzero;stroke:none"
                             d="m 477,-450 v 7.5 7.5 c -30,3 -38,9 -65,78 L 284,-36 C 264,6 265,23 247,8 201,-101 157,-211 110,-320 65,-424 57,-433 19,-435 v -7.5 -7.5 h 196 v 7.5 7.5 c -57,3 -52,27 -37,65 l 102,256 99,-259 c 13,-35 7,-59 -41,-62 v -7.5 -7.5 z" /></g></g></g></g></g></g></g></g></g></g><g
         id="g748"><g
           id="g750"><g
             id="g752"><g
               id="g754"><g
                 id="g756"><g
                   id="g758"><path
                     id="path760"
                     style="fill:none;stroke:#0a21b3;stroke-width:2;stroke-linecap:butt;stroke-linejoin:round;stroke-miterlimit:10;stroke-dasharray:none;stroke-opacity:1"
                     d="m 799.5,120.9 -5.2,8.3 m -5.3,8.1 -2.9,4.4 -7.1,9.7 -1.5,1.7 m -6.1,7.6 -7,8.2 -6,6.3 m -7,6.8 -1.9,2 -7.6,6.7 -5.2,4.1 m -7.7,6 -2.7,2.1 -7.9,5.5 -5.5,3.4 m -8.5,4.9 -2.2,1.3 -8.2,4.3 -7,3.2 m -8.9,3.8 -1.1,0.5 -8.6,3.1 -8.8,2.7 m -9.4,2.6 -8.7,2.1 -9.2,1.7 -1.2,0.1 m -9.7,1.3 -8,0.9 -9.7,0.5 H 602 m -9.8,0.1 -8.1,-0.2 -10,-0.7 -1.3,-0.2 m -9.7,-1.1 -9.1,-1.3 -10.1,-2 m -9.5,-2.3 -0.6,-0.1 -10.1,-2.9 -8,-2.7 m -9.1,-3.3 -2.7,-1 -9.7,-4.1 -5.5,-2.7 m -8.7,-4.4 -4.6,-2.4 -9,-5.2 -3.3,-2.2 m -8.1,-5.4 -5.6,-3.9 -8,-6.1 -2,-1.7 m -7.5,-6.3 -5.5,-5 -6.8,-6.8 -1.6,-1.8 m -6.6,-7.2 -4.4,-5.1 -5.6,-7.2 -2.1,-3 m -5.6,-8 -2.5,-3.8 -4.5,-7.5 -3,-5.4 m -4.3,-8.8 -0.5,-1 -3.4,-7.7 -3,-7.7 -0.6,-1.53 m -3,-9.26 -1.4,-4.91 -2,-7.9 -1.3,-6.11 m -1.7,-9.61 V 57 l -1,-8.1 -0.1,-1.2" /></g></g></g><g
               id="g762"><g
                 id="g764"><g
                   id="g766"><path
                     id="path768"
                     style="fill:none;stroke:#0a21b3;stroke-width:2;stroke-linecap:butt;stroke-linejoin:miter;stroke-miterlimit:4;stroke-dasharray:none;stroke-opacity:1"
                     d="M 799.5,120.9 800,120" /></g></g></g><g
               id="g770"><path
                 id="path772"
                 style="fill:#0a21b3;fill-opacity:1;fill-rule:nonzero;stroke:none"
                 d="m 360.7,32.4 5.3,14.1 -9.3,0.4 z" /></g><g
               id="g774"><g
                 id="g776"><g
                   id="g778"><path
                     id="path780"
                     style="fill:none;stroke:#0a21b3;stroke-width:2;stroke-linecap:butt;stroke-linejoin:miter;stroke-miterlimit:4;stroke-dasharray:none;stroke-opacity:1"
                     d="m 360.7,32.4 5.3,14.1 -9.3,0.4 z" /></g></g></g></g></g></g><g
         id="g782"><g
           id="g784"><g
             id="g786"><g
               transform="translate(570.5,120)"
               id="g788" /><g
               transform="translate(570.5,120)"
               id="g790"><g
                 id="g792"><path
                   id="path794"
                   style="fill:#ffffff;fill-opacity:0;fill-rule:nonzero;stroke:none"
                   d="M 0,6 C 0,0 6,0 6,0 h 228 c 6,0 6,6 6,6 v 8 c 0,6 -6,6 -6,6 H 6 C 0,20 0,14 0,14 Z" /></g><g
                 id="g796"><g
                   id="g798"><g
                     id="g800"><path
                       id="path802"
                       style="fill:none;stroke:#000000;stroke-width:3;stroke-linecap:butt;stroke-linejoin:miter;stroke-miterlimit:4;stroke-dasharray:none;stroke-opacity:0"
                       d="M 0,6 C 0,0 6,0 6,0 h 228 c 6,0 6,6 6,6 v 8 c 0,6 -6,6 -6,6 H 6 C 0,20 0,14 0,14 Z" /></g></g></g></g><g
               id="g804"><g
                 transform="translate(575.5,125)"
                 id="g806"><g
                   id="g808"><g
                     transform="matrix(0.02222,0,0,0.02222,41.12,8.541774)"
                     id="g810"><g
                       transform="translate(0,298.3)"
                       id="g812"><g
                         id="g814"><g
                           id="g816"><path
                             id="path818"
                             style="fill:#333333;fill-opacity:1;fill-rule:nonzero;stroke:none"
                             d="m 17,-662 c 224,7 531,-47 530,176 0,92 -54,142 -181,167 l 206,253 c 29,34 49,44 87,47 V -9.5 0 H 498 l -238,-308 -56,2 v 98.5 98.5 c 1,73 13,85 90,90 V -9.5 0 H 17 V -9.5 -19 c 75,-6 85,-16 85,-101 V -336.5 -553 c -1,-73 -11,-82 -85,-90 v -9.5 z m 187,73 v 123 123 c 96,-2 131,-9 177,-34 36,-20 57,-61 57,-111 0,-94 -58,-137 -183,-137 -40,0 -51,8 -51,36 z" /></g></g></g><g
                       transform="translate(667,298.3)"
                       id="g820"><g
                         id="g822"><g
                           id="g824" /></g></g></g></g><g
                   id="g826"><g
                     transform="matrix(0.02222,0,0,0.02222,61.5,8.541774)"
                     id="g828"><g
                       transform="translate(0,298.3)"
                       id="g830"><g
                         id="g832"><g
                           id="g834"><path
                             id="path836"
                             style="fill:#333333;fill-opacity:1;fill-rule:nonzero;stroke:none"
                             d="m 528,-433 v 26.5 26.5 H 37 v -26.5 -26.5 z m 0,200 v 26.5 26.5 H 37 v -26.5 -26.5 z" /></g></g></g><g
                       transform="translate(564,298.3)"
                       id="g838"><g
                         id="g840"><g
                           id="g842" /></g></g></g></g><g
                   id="g844"><g
                     transform="matrix(0.02222,0,0,0.02222,79.58,8.541774)"
                     id="g846"><g
                       transform="translate(0,298.3)"
                       id="g848"><g
                         id="g850"><g
                           id="g852"><path
                             id="path854"
                             style="fill:#333333;fill-opacity:1;fill-rule:nonzero;stroke:none"
                             d="m 472,-231 v 32 32 H 370 V -83.5 0 H 293 V -83.5 -167 H 12 v -32 -32 l 314,-445 h 44 v 222.5 222.5 z m -180,0 V -402.5 -574 L 52,-231 Z" /></g></g></g><g
                       transform="translate(500,298.3)"
                       id="g856"><g
                         id="g858"><g
                           id="g860"><path
                             id="path862"
                             style="fill:#333333;fill-opacity:1;fill-rule:nonzero;stroke:none"
                             d="m 24,-336 c 0,-175 60,-340 230,-340 131,0 222,141 222,346 C 476,-150 417,14 250,14 82,14 24,-156 24,-336 Z m 227,-314 c -86,0 -131,110 -131,323 0,208 44,315 130,315 86,0 130,-107 130,-316 0,-209 -45,-322 -129,-322 z" /></g></g></g><g
                       transform="translate(1000,298.3)"
                       id="g864"><g
                         id="g866"><g
                           id="g868"><path
                             id="path870"
                             style="fill:#333333;fill-opacity:1;fill-rule:nonzero;stroke:none"
                             d="m 125,-100 c 30,0 56,26 56,57 0,30 -26,54 -57,54 -29,0 -54,-25 -54,-54 0,-32 25,-57 55,-57 z" /></g></g></g><g
                       transform="translate(1250,298.3)"
                       id="g872"><g
                         id="g874"><g
                           id="g876"><path
                             id="path878"
                             style="fill:#333333;fill-opacity:1;fill-rule:nonzero;stroke:none"
                             d="m 24,-336 c 0,-175 60,-340 230,-340 131,0 222,141 222,346 C 476,-150 417,14 250,14 82,14 24,-156 24,-336 Z m 227,-314 c -86,0 -131,110 -131,323 0,208 44,315 130,315 86,0 130,-107 130,-316 0,-209 -45,-322 -129,-322 z" /></g></g></g><g
                       transform="translate(1750,298.3)"
                       id="g880"><g
                         id="g882"><g
                           id="g884"><path
                             id="path886"
                             style="fill:#333333;fill-opacity:1;fill-rule:nonzero;stroke:none"
                             d="m 24,-336 c 0,-175 60,-340 230,-340 131,0 222,141 222,346 C 476,-150 417,14 250,14 82,14 24,-156 24,-336 Z m 227,-314 c -86,0 -131,110 -131,323 0,208 44,315 130,315 86,0 130,-107 130,-316 0,-209 -45,-322 -129,-322 z" /></g></g></g><g
                       transform="translate(2250,298.3)"
                       id="g888"><g
                         id="g890"><g
                           id="g892"><path
                             id="path894"
                             style="fill:#333333;fill-opacity:1;fill-rule:nonzero;stroke:none"
                             d="m 24,-336 c 0,-175 60,-340 230,-340 131,0 222,141 222,346 C 476,-150 417,14 250,14 82,14 24,-156 24,-336 Z m 227,-314 c -86,0 -131,110 -131,323 0,208 44,315 130,315 86,0 130,-107 130,-316 0,-209 -45,-322 -129,-322 z" /></g></g></g><g
                       transform="translate(2750,298.3)"
                       id="g896"><g
                         id="g898"><g
                           id="g900" /></g></g></g></g><g
                   id="g902"><g
                     transform="matrix(0.02222,0,0,0.02222,146.2,8.541774)"
                     id="g904"><g
                       transform="translate(0,298.3)"
                       id="g906"><g
                         id="g908"><g
                           id="g910"><path
                             id="path912"
                             style="fill:#333333;fill-opacity:1;fill-rule:nonzero;stroke:none"
                             d="m 363,-676 c 59,-1 126,33 185,33 20,0 36,-12 42,-33 h 21 l 9,225 h -23 c -26,-114 -98,-185 -215,-185 -145,0 -238,116 -238,298 0,184 78,308 248,308 83,0 149,-30 223,-101 l 18,18 C 573,-32 473,14 360,14 161,14 28,-122 28,-326 28,-526 175,-672 363,-676 Z" /></g></g></g><g
                       transform="translate(653,298.3)"
                       id="g914"><g
                         id="g916"><g
                           id="g918"><path
                             id="path920"
                             style="fill:#333333;fill-opacity:1;fill-rule:nonzero;stroke:none"
                             d="M 355,14 C 172,14 34,-134 34,-331 c 0,-202 136,-345 327,-345 187,-1 327,146 327,349 0,202 -136,341 -333,341 z m 219,-342 c 0,-179 -59,-312 -213,-312 -151,0 -213,138 -213,311 0,172 58,307 211,307 158,0 215,-151 215,-306 z" /></g></g></g><g
                       transform="translate(1362,298.3)"
                       id="g922"><g
                         id="g924"><g
                           id="g926"><path
                             id="path928"
                             style="fill:#333333;fill-opacity:1;fill-rule:nonzero;stroke:none"
                             d="m 542,-481 c 0,152 -155,214 -340,190 v 91 91 c 1,74 15,88 94,90 V -9.5 0 H 16 V -9.5 -19 c 76,-7 84,-16 84,-101 V -336.5 -553 c -1,-73 -10,-82 -84,-90 v -9.5 -9.5 c 228,3 526,-39 526,181 z M 202,-591 v 130 130 c 133,17 231,-27 231,-144 0,-103 -62,-150 -197,-150 -27,0 -34,7 -34,34 z" /></g></g></g></g></g></g></g></g></g></g><g
         id="g930"><g
           id="g932"><g
             id="g934"><g
               transform="translate(450.5,160)"
               id="g936" /><g
               transform="translate(450.5,160)"
               id="g938"><g
                 id="g940"><path
                   id="path942"
                   style="fill:#ffffff;fill-opacity:0;fill-rule:nonzero;stroke:none"
                   d="M 0,6 C 0,0 6,0 6,0 h 228 c 6,0 6,6 6,6 v 8 c 0,6 -6,6 -6,6 H 6 C 0,20 0,14 0,14 Z" /></g><g
                 id="g944"><g
                   id="g946"><g
                     id="g948"><path
                       id="path950"
                       style="fill:none;stroke:#000000;stroke-width:3;stroke-linecap:butt;stroke-linejoin:miter;stroke-miterlimit:4;stroke-dasharray:none;stroke-opacity:0"
                       d="M 0,6 C 0,0 6,0 6,0 h 228 c 6,0 6,6 6,6 v 8 c 0,6 -6,6 -6,6 H 6 C 0,20 0,14 0,14 Z" /></g></g></g></g><g
               id="g952"><g
                 transform="translate(455.5,165)"
                 id="g954"><g
                   id="g956"><g
                     transform="matrix(0.02222,0,0,0.02222,57.56,8.541774)"
                     id="g958"><g
                       transform="translate(0,298.3)"
                       id="g960"><g
                         id="g962"><g
                           id="g964"><path
                             id="path966"
                             style="fill:#333333;fill-opacity:1;fill-rule:nonzero;stroke:none"
                             d="m 102,-334 c 3,-68 -26,-64 -75,-56 v -7.5 -7.5 l 155,-55 4,3 v 177.5 177.5 c 1,73 8,82 74,87 V -7.5 0 H 23 V -7.5 -15 c 68,-3 79,-13 79,-87 v -116 z m 33,-349 c 29,0 52,22 52,51 0,29 -22,51 -52,51 -28,0 -50,-22 -50,-51 0,-28 23,-51 50,-51 z" /></g></g></g><g
                       transform="translate(278,298.3)"
                       id="g968"><g
                         id="g970"><g
                           id="g972" /></g></g></g></g><g
                   id="g974"><g
                     transform="matrix(0.02222,0,0,0.02222,69.3,8.541774)"
                     id="g976"><g
                       transform="translate(0,298.3)"
                       id="g978"><g
                         id="g980"><g
                           id="g982"><path
                             id="path984"
                             style="fill:#333333;fill-opacity:1;fill-rule:nonzero;stroke:none"
                             d="m 528,-433 v 26.5 26.5 H 37 v -26.5 -26.5 z m 0,200 v 26.5 26.5 H 37 v -26.5 -26.5 z" /></g></g></g><g
                       transform="translate(564,298.3)"
                       id="g986"><g
                         id="g988"><g
                           id="g990" /></g></g></g></g><g
                   id="g992"><g
                     transform="matrix(0.02222,0,0,0.02222,87.38,8.541774)"
                     id="g994"><g
                       transform="translate(0,298.3)"
                       id="g996"><g
                         id="g998"><g
                           id="g1000"><path
                             id="path1002"
                             style="fill:#333333;fill-opacity:1;fill-rule:nonzero;stroke:none"
                             d="M 118,0 V -7.5 -15 c 76,-1 95,-15 95,-78 V -319.5 -546 c 0,-32 -9,-47 -30,-47 -9,0 -33,7 -72,22 v -7 -7 l 180,-91 8,2 v 300 300 c 1,48 18,59 95,59 V -7.5 0 Z" /></g></g></g><g
                       transform="translate(500,298.3)"
                       id="g1004"><g
                         id="g1006"><g
                           id="g1008"><path
                             id="path1010"
                             style="fill:#333333;fill-opacity:1;fill-rule:nonzero;stroke:none"
                             d="m 31,-477 c 23,-122 89,-199 208,-199 104,0 185,77 185,176 0,154 -206,318 -296,424 h 239 c 47,-1 58,-8 95,-66 l 13,5 L 420,0 H 30 v -6 -6 c 98,-114 308,-280 308,-449 0,-84 -56,-141 -141,-141 -70,0 -105,32 -145,130 z" /></g></g></g><g
                       transform="translate(1000,298.3)"
                       id="g1012"><g
                         id="g1014"><g
                           id="g1016"><path
                             id="path1018"
                             style="fill:#333333;fill-opacity:1;fill-rule:nonzero;stroke:none"
                             d="m 593,-676 h 43 L 249,13 h -48 z m 53,344 c 81,0 141,77 141,180 0,104 -57,176 -139,176 -81,0 -142,-76 -142,-177 0,-103 60,-179 140,-179 z m 1,26 c -41,0 -63,52 -63,151 0,100 21,152 62,152 40,0 64,-55 64,-148 0,-100 -22,-155 -63,-155 z M 188,-675 c 81,0 137,76 137,184 0,103 -57,174 -140,174 -82,0 -141,-75 -141,-178 0,-104 60,-180 144,-180 z m -2,27 c -43,0 -64,48 -64,147 0,109 20,160 61,160 42,0 65,-55 65,-152 0,-99 -23,-155 -62,-155 z" /></g></g></g><g
                       transform="translate(1833,298.3)"
                       id="g1020"><g
                         id="g1022"><g
                           id="g1024" /></g></g></g></g><g
                   id="g1026"><g
                     transform="matrix(0.02222,0,0,0.02222,133.6,8.541774)"
                     id="g1028"><g
                       transform="translate(0,298.3)"
                       id="g1030"><g
                         id="g1032"><g
                           id="g1034"><path
                             id="path1036"
                             style="fill:#333333;fill-opacity:1;fill-rule:nonzero;stroke:none"
                             d="m 5,217 v -8.5 -8.5 c 59,-6 70,-16 70,-69 v -234 -234 c 4,-60 -20,-59 -66,-56 v -8 -8 c 55,-17 90,-30 144,-51 l 6,2 v 38.5 38.5 c 44,-55 88,-79 144,-79 97,0 167,89 167,213 C 470,-102 379,10 260,10 218,10 195,0 159,-33 V 45.5 124 c 1,64 13,74 88,75 v 9 9 z m 154,-551 v 123 123 c 0,30 57,66 104,66 72,0 121,-75 121,-185 0,-117 -49,-193 -123,-193 -46,0 -102,36 -102,66 z" /></g></g></g><g
                       transform="translate(500,298.3)"
                       id="g1038"><g
                         id="g1040"><g
                           id="g1042"><path
                             id="path1044"
                             style="fill:#333333;fill-opacity:1;fill-rule:nonzero;stroke:none"
                             d="m 288,-408 c -43,0 -99,25 -118,59 v 141 141 c 1,40 17,51 68,52 V -7.5 0 H 16 V -7.5 -15 c 55,0 70,-14 70,-70 V -211.5 -338 c 2,-66 -20,-70 -67,-60 v -8.5 -8.5 c 55,-15 89,-26 140,-45 l 7,2 v 37.5 37.5 c 84,-64 110,-77 155,-77 54,0 88,27 106,84 54,-58 104,-84 163,-84 77,0 116,60 116,178 v 103 103 c -2,50 23,60 69,61 V -7.5 0 H 556 V -7.5 -15 c 58,-6 66,-13 66,-72 V -192.5 -298 c 0,-83 -18,-110 -75,-110 -47,0 -79,18 -109,61 v 126 126 c 2,64 16,80 72,80 V -7.5 0 H 286 V -7.5 -15 c 56,-3 68,-14 68,-71 V -194.5 -303 c 0,-70 -22,-105 -66,-105 z" /></g></g></g><g
                       transform="translate(1244,298.3)"
                       id="g1046"><g
                         id="g1048"><g
                           id="g1050"><path
                             id="path1052"
                             style="fill:#333333;fill-opacity:1;fill-rule:nonzero;stroke:none"
                             d="m 477,-450 v 7.5 7.5 c -30,3 -38,9 -65,78 L 284,-36 C 264,6 265,23 247,8 201,-101 157,-211 110,-320 65,-424 57,-433 19,-435 v -7.5 -7.5 h 196 v 7.5 7.5 c -57,3 -52,27 -37,65 l 102,256 99,-259 c 13,-35 7,-59 -41,-62 v -7.5 -7.5 z" /></g></g></g></g></g><g
                   id="g1054"><g
                     transform="matrix(0.02222,0,0,0.02222,64.35,35.211774)"
                     id="g1056"><g
                       transform="translate(0,298.3)"
                       id="g1058"><g
                         id="g1060"><g
                           id="g1062"><path
                             id="path1064"
                             style="fill:#333333;fill-opacity:1;fill-rule:nonzero;stroke:none"
                             d="M 18,0 V -7.5 -15 c 50,-3 62,-16 62,-75 v -124 -124 c 3,-64 -22,-70 -64,-60 v -8.5 -8.5 c 55,-16 89,-27 138,-45 l 7,2 v 39.5 39.5 c 68,-64 99,-81 145,-81 74,0 118,56 118,150 V -195.5 -81 c 1,49 12,61 61,66 V -7.5 0 H 277 V -7.5 -15 c 49,-3 63,-19 63,-84 V -203.5 -308 c 0,-66 -24,-97 -73,-97 -33,0 -56,12 -103,57 V -207.5 -67 c 0,36 16,49 66,52 V -7.5 0 Z" /></g></g></g><g
                       transform="translate(500,298.3)"
                       id="g1066"><g
                         id="g1068"><g
                           id="g1070" /></g></g></g></g><g
                   id="g1072"><g
                     transform="matrix(0.02222,0,0,0.02222,81.02,35.211774)"
                     id="g1074"><g
                       transform="translate(0,298.3)"
                       id="g1076"><g
                         id="g1078"><g
                           id="g1080"><path
                             id="path1082"
                             style="fill:#333333;fill-opacity:1;fill-rule:nonzero;stroke:none"
                             d="m 528,-433 v 26.5 26.5 H 37 v -26.5 -26.5 z m 0,200 v 26.5 26.5 H 37 v -26.5 -26.5 z" /></g></g></g><g
                       transform="translate(564,298.3)"
                       id="g1084"><g
                         id="g1086"><g
                           id="g1088" /></g></g></g></g><g
                   id="g1090"><g
                     transform="matrix(0.02222,0,0,0.02222,99.11,35.211774)"
                     id="g1092"><g
                       transform="translate(0,298.3)"
                       id="g1094"><g
                         id="g1096"><g
                           id="g1098"><path
                             id="path1100"
                             style="fill:#333333;fill-opacity:1;fill-rule:nonzero;stroke:none"
                             d="M 118,0 V -7.5 -15 c 76,-1 95,-15 95,-78 V -319.5 -546 c 0,-32 -9,-47 -30,-47 -9,0 -33,7 -72,22 v -7 -7 l 180,-91 8,2 v 300 300 c 1,48 18,59 95,59 V -7.5 0 Z" /></g></g></g><g
                       transform="translate(500,298.3)"
                       id="g1102"><g
                         id="g1104"><g
                           id="g1106"><path
                             id="path1108"
                             style="fill:#333333;fill-opacity:1;fill-rule:nonzero;stroke:none"
                             d="M 118,0 V -7.5 -15 c 76,-1 95,-15 95,-78 V -319.5 -546 c 0,-32 -9,-47 -30,-47 -9,0 -33,7 -72,22 v -7 -7 l 180,-91 8,2 v 300 300 c 1,48 18,59 95,59 V -7.5 0 Z" /></g></g></g><g
                       transform="translate(1000,298.3)"
                       id="g1110"><g
                         id="g1112"><g
                           id="g1114" /></g></g></g></g><g
                   id="g1116"><g
                     transform="matrix(0.02222,0,0,0.02222,126.8,35.211774)"
                     id="g1118"><g
                       transform="translate(0,298.3)"
                       id="g1120"><g
                         id="g1122"><g
                           id="g1124"><path
                             id="path1126"
                             style="fill:#333333;fill-opacity:1;fill-rule:nonzero;stroke:none"
                             d="m 5,217 v -8.5 -8.5 c 59,-6 70,-16 70,-69 v -234 -234 c 4,-60 -20,-59 -66,-56 v -8 -8 c 55,-17 90,-30 144,-51 l 6,2 v 38.5 38.5 c 44,-55 88,-79 144,-79 97,0 167,89 167,213 C 470,-102 379,10 260,10 218,10 195,0 159,-33 V 45.5 124 c 1,64 13,74 88,75 v 9 9 z m 154,-551 v 123 123 c 0,30 57,66 104,66 72,0 121,-75 121,-185 0,-117 -49,-193 -123,-193 -46,0 -102,36 -102,66 z" /></g></g></g><g
                       transform="translate(500,298.3)"
                       id="g1128"><g
                         id="g1130"><g
                           id="g1132"><path
                             id="path1134"
                             style="fill:#333333;fill-opacity:1;fill-rule:nonzero;stroke:none"
                             d="m 288,-408 c -43,0 -99,25 -118,59 v 141 141 c 1,40 17,51 68,52 V -7.5 0 H 16 V -7.5 -15 c 55,0 70,-14 70,-70 V -211.5 -338 c 2,-66 -20,-70 -67,-60 v -8.5 -8.5 c 55,-15 89,-26 140,-45 l 7,2 v 37.5 37.5 c 84,-64 110,-77 155,-77 54,0 88,27 106,84 54,-58 104,-84 163,-84 77,0 116,60 116,178 v 103 103 c -2,50 23,60 69,61 V -7.5 0 H 556 V -7.5 -15 c 58,-6 66,-13 66,-72 V -192.5 -298 c 0,-83 -18,-110 -75,-110 -47,0 -79,18 -109,61 v 126 126 c 2,64 16,80 72,80 V -7.5 0 H 286 V -7.5 -15 c 56,-3 68,-14 68,-71 V -194.5 -303 c 0,-70 -22,-105 -66,-105 z" /></g></g></g><g
                       transform="translate(1244,298.3)"
                       id="g1136"><g
                         id="g1138"><g
                           id="g1140"><path
                             id="path1142"
                             style="fill:#333333;fill-opacity:1;fill-rule:nonzero;stroke:none"
                             d="m 477,-450 v 7.5 7.5 c -30,3 -38,9 -65,78 L 284,-36 C 264,6 265,23 247,8 201,-101 157,-211 110,-320 65,-424 57,-433 19,-435 v -7.5 -7.5 h 196 v 7.5 7.5 c -57,3 -52,27 -37,65 l 102,256 99,-259 c 13,-35 7,-59 -41,-62 v -7.5 -7.5 z" /></g></g></g></g></g><g
                   id="g1144"><g
                     transform="matrix(0.02222,0,0,0.02222,115,61.881774)"
                     id="g1146" /></g><g
                   id="g1148"><g
                     transform="matrix(0.02222,0,0,0.02222,115,88.541774)"
                     id="g1150" /></g></g></g></g></g></g><g
         id="g1152"><g
           id="g1154"><g
             id="g1156"><g
               transform="translate(840,9.2)"
               id="g1158" /><g
               transform="translate(840,9.2)"
               id="g1160"><g
                 id="g1162"><path
                   id="path1164"
                   style="fill:#ffffff;fill-opacity:0;fill-rule:nonzero;stroke:none"
                   d="M 0,6 C 0,0 6,0 6,0 h 68 c 6,0 6,6 6,6 v 8 c 0,6 -6,6 -6,6 H 6 C 0,20 0,14 0,14 Z" /></g><g
                 id="g1166"><g
                   id="g1168"><g
                     id="g1170"><path
                       id="path1172"
                       style="fill:none;stroke:#000000;stroke-width:3;stroke-linecap:butt;stroke-linejoin:miter;stroke-miterlimit:4;stroke-dasharray:none;stroke-opacity:0"
                       d="M 0,6 C 0,0 6,0 6,0 h 68 c 6,0 6,6 6,6 v 8 c 0,6 -6,6 -6,6 H 6 C 0,20 0,14 0,14 Z" /></g></g></g></g><g
               id="g1174"><g
                 transform="translate(845,14.2)"
                 id="g1176"><g
                   id="g1178"><g
                     transform="matrix(0.02222,0,0,0.02222,23.88,8.541774)"
                     id="g1180"><g
                       transform="translate(0,298.3)"
                       id="g1182"><g
                         id="g1184"><g
                           id="g1186"><path
                             id="path1188"
                             style="fill:#333333;fill-opacity:1;fill-rule:nonzero;stroke:none"
                             d="M 118,0 V -7.5 -15 c 76,-1 95,-15 95,-78 V -319.5 -546 c 0,-32 -9,-47 -30,-47 -9,0 -33,7 -72,22 v -7 -7 l 180,-91 8,2 v 300 300 c 1,48 18,59 95,59 V -7.5 0 Z" /></g></g></g><g
                       transform="translate(500,298.3)"
                       id="g1190"><g
                         id="g1192"><g
                           id="g1194"><path
                             id="path1196"
                             style="fill:#333333;fill-opacity:1;fill-rule:nonzero;stroke:none"
                             d="m 31,-477 c 23,-122 89,-199 208,-199 104,0 185,77 185,176 0,154 -206,318 -296,424 h 239 c 47,-1 58,-8 95,-66 l 13,5 L 420,0 H 30 v -6 -6 c 98,-114 308,-280 308,-449 0,-84 -56,-141 -141,-141 -70,0 -105,32 -145,130 z" /></g></g></g></g></g></g></g></g></g></g><g
         id="g1198"><g
           id="g1200"><g
             id="g1202"><g
               id="g1204"><g
                 id="g1206"><g
                   id="g1208"><path
                     id="path1210"
                     style="fill:none;stroke:#ff1818;stroke-width:2;stroke-linecap:butt;stroke-linejoin:miter;stroke-miterlimit:4;stroke-dasharray:none;stroke-opacity:1"
                     d="M 360.8,41 V 90.7" /></g></g></g><g
               id="g1212"><g
                 id="g1214"><g
                   id="g1216"><path
                     id="path1218"
                     style="fill:none;stroke:#ff1818;stroke-width:2;stroke-linecap:butt;stroke-linejoin:miter;stroke-miterlimit:4;stroke-dasharray:none;stroke-opacity:1"
                     d="M 360.8,41 V 40" /></g></g></g><g
               id="g1220"><path
                 id="path1222"
                 style="fill:#ff1818;fill-opacity:1;fill-rule:nonzero;stroke:none"
                 d="m 360.8,106 -4.6,-14.3 h 9.3 z" /></g><g
               id="g1224"><g
                 id="g1226"><g
                   id="g1228"><path
                     id="path1230"
                     style="fill:none;stroke:#ff1818;stroke-width:2;stroke-linecap:butt;stroke-linejoin:miter;stroke-miterlimit:4;stroke-dasharray:none;stroke-opacity:1"
                     d="m 360.8,106 -4.6,-14.3 h 9.3 z" /></g></g></g></g></g></g></g><g
       transform="scale(1,-1)"
       id="g1232" /></g></svg>