<?xml version="1.0" encoding="UTF-8" standalone="no"?>
<svg
   xmlns:dc="http://purl.org/dc/elements/1.1/"
   xmlns:cc="http://creativecommons.org/ns#"
   xmlns:rdf="http://www.w3.org/1999/02/22-rdf-syntax-ns#"
   xmlns:svg="http://www.w3.org/2000/svg"
   xmlns="http://www.w3.org/2000/svg"
   viewBox="0 0 613.73334 423.60001"
   height="423.60001"
   width="613.73334"
   xml:space="preserve"
   id="svg2"
   version="1.1"><metadata
     id="metadata8"><rdf:RDF><cc:Work
         rdf:about=""><dc:format>image/svg+xml</dc:format><dc:type
           rdf:resource="http://purl.org/dc/dcmitype/StillImage" /></cc:Work></rdf:RDF></metadata><defs
     id="defs6" /><g
     transform="matrix(0.59999999,0,0,0.59999999,0,1.059e-5)"
     id="g10"><g
       id="g12"><path
         id="path14"
         style="fill:#ffffff;fill-opacity:1;fill-rule:nonzero;stroke:none"
         d="M 0,0 H 1023 V 706 H 0 Z" /></g><g
       transform="translate(3721,1141)"
       id="g16"><g
         id="g18" /><g
         id="g20"><g
           id="g22"><g
             id="g24"><g
               id="g26"><g
                 id="g28"><g
                   id="g30"><path
                     id="path32"
                     style="fill:none;stroke:#333333;stroke-width:2;stroke-linecap:butt;stroke-linejoin:miter;stroke-miterlimit:4;stroke-dasharray:none;stroke-opacity:1"
                     d="m -3599,-800 h 721" /></g></g></g><g
               id="g34"><g
                 id="g36"><g
                   id="g38"><path
                     id="path40"
                     style="fill:none;stroke:#333333;stroke-width:2;stroke-linecap:butt;stroke-linejoin:miter;stroke-miterlimit:4;stroke-dasharray:none;stroke-opacity:1"
                     d="m -3599,-800 h -1" /></g></g></g><g
               id="g42"><path
                 id="path44"
                 style="fill:#333333;fill-opacity:1;fill-rule:nonzero;stroke:none"
                 d="m -2863,-800 -14,4.6 v -9.2 z" /></g><g
               id="g46"><g
                 id="g48"><g
                   id="g50"><path
                     id="path52"
                     style="fill:none;stroke:#333333;stroke-width:2;stroke-linecap:butt;stroke-linejoin:miter;stroke-miterlimit:4;stroke-dasharray:none;stroke-opacity:1"
                     d="m -2863,-800 -14,4.6 v -9.2 z" /></g></g></g></g></g></g><g
         id="g54"><g
           id="g56"><g
             id="g58"><g
               transform="translate(-3660,-840)"
               id="g60" /><g
               transform="translate(-3660,-840)"
               id="g62"><g
                 id="g64"><path
                   id="path66"
                   style="fill:#ffffff;fill-opacity:0;fill-rule:nonzero;stroke:none"
                   d="M 0,6 C 0,0 6,0 6,0 h 108 c 6,0 6,6 6,6 v 28 c 0,6 -6,6 -6,6 H 6 C 0,40 0,34 0,34 Z" /></g><g
                 id="g68"><g
                   id="g70"><g
                     id="g72"><path
                       id="path74"
                       style="fill:none;stroke:#000000;stroke-width:3;stroke-linecap:butt;stroke-linejoin:miter;stroke-miterlimit:4;stroke-dasharray:none;stroke-opacity:0"
                       d="M 0,6 C 0,0 6,0 6,0 h 108 c 6,0 6,6 6,6 v 28 c 0,6 -6,6 -6,6 H 6 C 0,40 0,34 0,34 Z" /></g></g></g></g><g
               id="g76"><g
                 transform="translate(-3655,-835)"
                 id="g78"><g
                   id="g80"><g
                     transform="matrix(0.02222,0,0,0.02222,49.44,9.990706)"
                     id="g82"><g
                       transform="translate(0,317.7)"
                       id="g84"><g
                         id="g86"><g
                           id="g88"><path
                             id="path90"
                             style="fill:#333333;fill-opacity:1;fill-rule:nonzero;stroke:none"
                             d="m 24,-336 c 0,-175 60,-340 230,-340 131,0 222,141 222,346 C 476,-150 417,14 250,14 82,14 24,-156 24,-336 Z m 227,-314 c -86,0 -131,110 -131,323 0,208 44,315 130,315 86,0 130,-107 130,-316 0,-209 -45,-322 -129,-322 z" /></g></g></g></g></g></g></g></g></g></g><g
         id="g92"><g
           id="g94"><g
             id="g96"><g
               transform="translate(-3560,-840)"
               id="g98" /><g
               transform="translate(-3560,-840)"
               id="g100"><g
                 id="g102"><path
                   id="path104"
                   style="fill:#ffffff;fill-opacity:0;fill-rule:nonzero;stroke:none"
                   d="M 0,6 C 0,0 6,0 6,0 h 108 c 6,0 6,6 6,6 v 28 c 0,6 -6,6 -6,6 H 6 C 0,40 0,34 0,34 Z" /></g><g
                 id="g106"><g
                   id="g108"><g
                     id="g110"><path
                       id="path112"
                       style="fill:none;stroke:#000000;stroke-width:3;stroke-linecap:butt;stroke-linejoin:miter;stroke-miterlimit:4;stroke-dasharray:none;stroke-opacity:0"
                       d="M 0,6 C 0,0 6,0 6,0 h 108 c 6,0 6,6 6,6 v 28 c 0,6 -6,6 -6,6 H 6 C 0,40 0,34 0,34 Z" /></g></g></g></g><g
               id="g114"><g
                 transform="translate(-3555,-835)"
                 id="g116"><g
                   id="g118"><g
                     transform="matrix(0.02222,0,0,0.02222,49.44,9.990706)"
                     id="g120"><g
                       transform="translate(0,317.7)"
                       id="g122"><g
                         id="g124"><g
                           id="g126"><path
                             id="path128"
                             style="fill:#333333;fill-opacity:1;fill-rule:nonzero;stroke:none"
                             d="M 118,0 V -7.5 -15 c 76,-1 95,-15 95,-78 V -319.5 -546 c 0,-32 -9,-47 -30,-47 -9,0 -33,7 -72,22 v -7 -7 l 180,-91 8,2 v 300 300 c 1,48 18,59 95,59 V -7.5 0 Z" /></g></g></g></g></g></g></g></g></g></g><g
         id="g130"><g
           id="g132"><g
             id="g134"><g
               transform="translate(-3460,-840)"
               id="g136" /><g
               transform="translate(-3460,-840)"
               id="g138"><g
                 id="g140"><path
                   id="path142"
                   style="fill:#ffffff;fill-opacity:0;fill-rule:nonzero;stroke:none"
                   d="M 0,6 C 0,0 6,0 6,0 h 108 c 6,0 6,6 6,6 v 28 c 0,6 -6,6 -6,6 H 6 C 0,40 0,34 0,34 Z" /></g><g
                 id="g144"><g
                   id="g146"><g
                     id="g148"><path
                       id="path150"
                       style="fill:none;stroke:#000000;stroke-width:3;stroke-linecap:butt;stroke-linejoin:miter;stroke-miterlimit:4;stroke-dasharray:none;stroke-opacity:0"
                       d="M 0,6 C 0,0 6,0 6,0 h 108 c 6,0 6,6 6,6 v 28 c 0,6 -6,6 -6,6 H 6 C 0,40 0,34 0,34 Z" /></g></g></g></g><g
               id="g152"><g
                 transform="translate(-3455,-835)"
                 id="g154"><g
                   id="g156"><g
                     transform="matrix(0.02222,0,0,0.02222,49.44,9.990706)"
                     id="g158"><g
                       transform="translate(0,317.7)"
                       id="g160"><g
                         id="g162"><g
                           id="g164"><path
                             id="path166"
                             style="fill:#333333;fill-opacity:1;fill-rule:nonzero;stroke:none"
                             d="m 31,-477 c 23,-122 89,-199 208,-199 104,0 185,77 185,176 0,154 -206,318 -296,424 h 239 c 47,-1 58,-8 95,-66 l 13,5 L 420,0 H 30 v -6 -6 c 98,-114 308,-280 308,-449 0,-84 -56,-141 -141,-141 -70,0 -105,32 -145,130 z" /></g></g></g></g></g></g></g></g></g></g><g
         id="g168"><g
           id="g170"><g
             id="g172"><g
               transform="translate(-3360,-840)"
               id="g174" /><g
               transform="translate(-3360,-840)"
               id="g176"><g
                 id="g178"><path
                   id="path180"
                   style="fill:#ffffff;fill-opacity:0;fill-rule:nonzero;stroke:none"
                   d="M 0,6 C 0,0 6,0 6,0 h 108 c 6,0 6,6 6,6 v 28 c 0,6 -6,6 -6,6 H 6 C 0,40 0,34 0,34 Z" /></g><g
                 id="g182"><g
                   id="g184"><g
                     id="g186"><path
                       id="path188"
                       style="fill:none;stroke:#000000;stroke-width:3;stroke-linecap:butt;stroke-linejoin:miter;stroke-miterlimit:4;stroke-dasharray:none;stroke-opacity:0"
                       d="M 0,6 C 0,0 6,0 6,0 h 108 c 6,0 6,6 6,6 v 28 c 0,6 -6,6 -6,6 H 6 C 0,40 0,34 0,34 Z" /></g></g></g></g><g
               id="g190"><g
                 transform="translate(-3355,-835)"
                 id="g192"><g
                   id="g194"><g
                     transform="matrix(0.02222,0,0,0.02222,49.44,9.990706)"
                     id="g196"><g
                       transform="translate(0,317.7)"
                       id="g198"><g
                         id="g200"><g
                           id="g202"><path
                             id="path204"
                             style="fill:#333333;fill-opacity:1;fill-rule:nonzero;stroke:none"
                             d="m 359,-171 c 0,-104 -68,-170 -206,-159 l -1,-13 c 68,-24 95,-40 126,-69 70,-65 44,-204 -70,-204 -63,0 -108,32 -148,106 l -15,-4 c 30,-102 88,-162 196,-162 93,0 156,55 156,137 0,54 -25,91 -93,138 83,32 124,81 127,182 C 436,-71 304,14 156,14 86,14 43,-8 43,-43 c 0,-21 15,-35 38,-35 36,0 111,68 148,56 74,0 130,-64 130,-149 z" /></g></g></g></g></g></g></g></g></g></g><g
         id="g206"><g
           id="g208"><g
             id="g210"><g
               transform="translate(-3060,-836)"
               id="g212" /><g
               transform="translate(-3060,-836)"
               id="g214"><g
                 id="g216"><path
                   id="path218"
                   style="fill:#ffffff;fill-opacity:0;fill-rule:nonzero;stroke:none"
                   d="M 0,6 C 0,0 6,0 6,0 h 108 c 6,0 6,6 6,6 v 28 c 0,6 -6,6 -6,6 H 6 C 0,40 0,34 0,34 Z" /></g><g
                 id="g220"><g
                   id="g222"><g
                     id="g224"><path
                       id="path226"
                       style="fill:none;stroke:#000000;stroke-width:3;stroke-linecap:butt;stroke-linejoin:miter;stroke-miterlimit:4;stroke-dasharray:none;stroke-opacity:0"
                       d="M 0,6 C 0,0 6,0 6,0 h 108 c 6,0 6,6 6,6 v 28 c 0,6 -6,6 -6,6 H 6 C 0,40 0,34 0,34 Z" /></g></g></g></g><g
               id="g228"><g
                 transform="translate(-3055,-831)"
                 id="g230"><g
                   id="g232"><g
                     transform="matrix(0.02222,0,0,0.02222,43.88,9.990706)"
                     id="g234"><g
                       transform="translate(0,317.7)"
                       id="g236"><g
                         id="g238"><g
                           id="g240"><path
                             id="path242"
                             style="fill:#333333;fill-opacity:1;fill-rule:nonzero;stroke:none"
                             d="M 118,0 V -7.5 -15 c 76,-1 95,-15 95,-78 V -319.5 -546 c 0,-32 -9,-47 -30,-47 -9,0 -33,7 -72,22 v -7 -7 l 180,-91 8,2 v 300 300 c 1,48 18,59 95,59 V -7.5 0 Z" /></g></g></g><g
                       transform="translate(500,317.7)"
                       id="g244"><g
                         id="g246"><g
                           id="g248"><path
                             id="path250"
                             style="fill:#333333;fill-opacity:1;fill-rule:nonzero;stroke:none"
                             d="M 118,0 V -7.5 -15 c 76,-1 95,-15 95,-78 V -319.5 -546 c 0,-32 -9,-47 -30,-47 -9,0 -33,7 -72,22 v -7 -7 l 180,-91 8,2 v 300 300 c 1,48 18,59 95,59 V -7.5 0 Z" /></g></g></g></g></g></g></g></g></g></g><g
         id="g252"><g
           id="g254"><g
             id="g256"><g
               id="g258"><g
                 id="g260"><g
                   id="g262"><path
                     id="path264"
                     style="fill:none;stroke:#ff1818;stroke-width:2;stroke-linecap:butt;stroke-linejoin:miter;stroke-miterlimit:4;stroke-dasharray:none;stroke-opacity:1"
                     d="m -3600,-799 v 80.5" /></g></g></g><g
               id="g266"><path
                 id="path268"
                 style="fill:#ff1818;fill-opacity:1;fill-rule:nonzero;stroke:none"
                 d="m -3599,-799 h -2 v -1 h 2 z" /></g><g
               id="g270"><g
                 id="g272"><g
                   id="g274"><path
                     id="path276"
                     style="fill:none;stroke:#ff1818;stroke-width:0.05;stroke-linecap:butt;stroke-linejoin:miter;stroke-miterlimit:4;stroke-dasharray:none;stroke-opacity:1"
                     d="m -3599,-799 h -2 v -1 h 2 z" /></g></g></g><g
               id="g278"><path
                 id="path280"
                 style="fill:#ff1818;fill-opacity:1;fill-rule:nonzero;stroke:none"
                 d="m -3600,-703.2 -4,-14.3 h 9 z" /></g><g
               id="g282"><g
                 id="g284"><g
                   id="g286"><path
                     id="path288"
                     style="fill:none;stroke:#ff1818;stroke-width:2;stroke-linecap:butt;stroke-linejoin:miter;stroke-miterlimit:4;stroke-dasharray:none;stroke-opacity:1"
                     d="m -3600,-703.2 -4,-14.3 h 9 z" /></g></g></g></g></g></g><g
         id="g290"><g
           id="g292"><g
             id="g294"><g
               id="g296"><g
                 id="g298"><g
                   id="g300"><path
                     id="path302"
                     style="fill:none;stroke:#ff1818;stroke-width:2;stroke-linecap:butt;stroke-linejoin:miter;stroke-miterlimit:4;stroke-dasharray:none;stroke-opacity:1"
                     d="m -3500,-799 v 80.5" /></g></g></g><g
               id="g304"><path
                 id="path306"
                 style="fill:#ff1818;fill-opacity:1;fill-rule:nonzero;stroke:none"
                 d="m -3499,-799 h -2 v -1 h 2 z" /></g><g
               id="g308"><g
                 id="g310"><g
                   id="g312"><path
                     id="path314"
                     style="fill:none;stroke:#ff1818;stroke-width:0.05;stroke-linecap:butt;stroke-linejoin:miter;stroke-miterlimit:4;stroke-dasharray:none;stroke-opacity:1"
                     d="m -3499,-799 h -2 v -1 h 2 z" /></g></g></g><g
               id="g316"><path
                 id="path318"
                 style="fill:#ff1818;fill-opacity:1;fill-rule:nonzero;stroke:none"
                 d="m -3500,-703.2 -4,-14.3 h 9 z" /></g><g
               id="g320"><g
                 id="g322"><g
                   id="g324"><path
                     id="path326"
                     style="fill:none;stroke:#ff1818;stroke-width:2;stroke-linecap:butt;stroke-linejoin:miter;stroke-miterlimit:4;stroke-dasharray:none;stroke-opacity:1"
                     d="m -3500,-703.2 -4,-14.3 h 9 z" /></g></g></g></g></g></g><g
         id="g328"><g
           id="g330"><g
             id="g332"><g
               id="g334"><g
                 id="g336"><g
                   id="g338"><path
                     id="path340"
                     style="fill:none;stroke:#ff1818;stroke-width:2;stroke-linecap:butt;stroke-linejoin:miter;stroke-miterlimit:4;stroke-dasharray:none;stroke-opacity:1"
                     d="m -3400,-799 v 80.5" /></g></g></g><g
               id="g342"><path
                 id="path344"
                 style="fill:#ff1818;fill-opacity:1;fill-rule:nonzero;stroke:none"
                 d="m -3399,-799 h -2 v -1 h 2 z" /></g><g
               id="g346"><g
                 id="g348"><g
                   id="g350"><path
                     id="path352"
                     style="fill:none;stroke:#ff1818;stroke-width:0.05;stroke-linecap:butt;stroke-linejoin:miter;stroke-miterlimit:4;stroke-dasharray:none;stroke-opacity:1"
                     d="m -3399,-799 h -2 v -1 h 2 z" /></g></g></g><g
               id="g354"><path
                 id="path356"
                 style="fill:#ff1818;fill-opacity:1;fill-rule:nonzero;stroke:none"
                 d="m -3400,-703.2 -4,-14.3 h 9 z" /></g><g
               id="g358"><g
                 id="g360"><g
                   id="g362"><path
                     id="path364"
                     style="fill:none;stroke:#ff1818;stroke-width:2;stroke-linecap:butt;stroke-linejoin:miter;stroke-miterlimit:4;stroke-dasharray:none;stroke-opacity:1"
                     d="m -3400,-703.2 -4,-14.3 h 9 z" /></g></g></g></g></g></g><g
         id="g366"><g
           id="g368"><g
             id="g370"><g
               id="g372"><g
                 id="g374"><g
                   id="g376"><path
                     id="path378"
                     style="fill:none;stroke:#ff1818;stroke-width:2;stroke-linecap:butt;stroke-linejoin:miter;stroke-miterlimit:4;stroke-dasharray:none;stroke-opacity:1"
                     d="m -3300,-799 v 80.5" /></g></g></g><g
               id="g380"><path
                 id="path382"
                 style="fill:#ff1818;fill-opacity:1;fill-rule:nonzero;stroke:none"
                 d="m -3299,-799 h -2 v -1 h 2 z" /></g><g
               id="g384"><g
                 id="g386"><g
                   id="g388"><path
                     id="path390"
                     style="fill:none;stroke:#ff1818;stroke-width:0.05;stroke-linecap:butt;stroke-linejoin:miter;stroke-miterlimit:4;stroke-dasharray:none;stroke-opacity:1"
                     d="m -3299,-799 h -2 v -1 h 2 z" /></g></g></g><g
               id="g392"><path
                 id="path394"
                 style="fill:#ff1818;fill-opacity:1;fill-rule:nonzero;stroke:none"
                 d="m -3300,-703.2 -4,-14.3 h 9 z" /></g><g
               id="g396"><g
                 id="g398"><g
                   id="g400"><path
                     id="path402"
                     style="fill:none;stroke:#ff1818;stroke-width:2;stroke-linecap:butt;stroke-linejoin:miter;stroke-miterlimit:4;stroke-dasharray:none;stroke-opacity:1"
                     d="m -3300,-703.2 -4,-14.3 h 9 z" /></g></g></g></g></g></g><g
         id="g404"><g
           id="g406"><g
             id="g408"><g
               transform="translate(-3640,-800)"
               id="g410" /><g
               transform="translate(-3640,-800)"
               id="g412"><g
                 id="g414"><path
                   id="path416"
                   style="fill:#ffffff;fill-opacity:0;fill-rule:nonzero;stroke:none"
                   d="M 0,6 C 0,0 6,0 6,0 h 108 c 6,0 6,6 6,6 v 28 c 0,6 -6,6 -6,6 H 6 C 0,40 0,34 0,34 Z" /></g><g
                 id="g418"><g
                   id="g420"><g
                     id="g422"><path
                       id="path424"
                       style="fill:none;stroke:#000000;stroke-width:3;stroke-linecap:butt;stroke-linejoin:miter;stroke-miterlimit:4;stroke-dasharray:none;stroke-opacity:0"
                       d="M 0,6 C 0,0 6,0 6,0 h 108 c 6,0 6,6 6,6 v 28 c 0,6 -6,6 -6,6 H 6 C 0,40 0,34 0,34 Z" /></g></g></g></g><g
               id="g426"><g
                 transform="translate(-3635,-795)"
                 id="g428"><g
                   id="g430"><g
                     transform="matrix(0.02222,0,0,0.02222,49.44,9.990706)"
                     id="g432"><g
                       transform="translate(0,317.7)"
                       id="g434"><g
                         id="g436"><g
                           id="g438"><path
                             id="path440"
                             style="fill:#333333;fill-opacity:1;fill-rule:nonzero;stroke:none"
                             d="M 118,0 V -7.5 -15 c 76,-1 95,-15 95,-78 V -319.5 -546 c 0,-32 -9,-47 -30,-47 -9,0 -33,7 -72,22 v -7 -7 l 180,-91 8,2 v 300 300 c 1,48 18,59 95,59 V -7.5 0 Z" /></g></g></g></g></g></g></g></g></g></g><g
         id="g442"><g
           id="g444"><g
             id="g446"><g
               transform="translate(-3540,-800)"
               id="g448" /><g
               transform="translate(-3540,-800)"
               id="g450"><g
                 id="g452"><path
                   id="path454"
                   style="fill:#ffffff;fill-opacity:0;fill-rule:nonzero;stroke:none"
                   d="M 0,6 C 0,0 6,0 6,0 h 108 c 6,0 6,6 6,6 v 28 c 0,6 -6,6 -6,6 H 6 C 0,40 0,34 0,34 Z" /></g><g
                 id="g456"><g
                   id="g458"><g
                     id="g460"><path
                       id="path462"
                       style="fill:none;stroke:#000000;stroke-width:3;stroke-linecap:butt;stroke-linejoin:miter;stroke-miterlimit:4;stroke-dasharray:none;stroke-opacity:0"
                       d="M 0,6 C 0,0 6,0 6,0 h 108 c 6,0 6,6 6,6 v 28 c 0,6 -6,6 -6,6 H 6 C 0,40 0,34 0,34 Z" /></g></g></g></g><g
               id="g464"><g
                 transform="translate(-3535,-795)"
                 id="g466"><g
                   id="g468"><g
                     transform="matrix(0.02222,0,0,0.02222,49.44,9.990706)"
                     id="g470"><g
                       transform="translate(0,317.7)"
                       id="g472"><g
                         id="g474"><g
                           id="g476"><path
                             id="path478"
                             style="fill:#333333;fill-opacity:1;fill-rule:nonzero;stroke:none"
                             d="m 31,-477 c 23,-122 89,-199 208,-199 104,0 185,77 185,176 0,154 -206,318 -296,424 h 239 c 47,-1 58,-8 95,-66 l 13,5 L 420,0 H 30 v -6 -6 c 98,-114 308,-280 308,-449 0,-84 -56,-141 -141,-141 -70,0 -105,32 -145,130 z" /></g></g></g></g></g></g></g></g></g></g><g
         id="g480"><g
           id="g482"><g
             id="g484"><g
               transform="translate(-3440,-800)"
               id="g486" /><g
               transform="translate(-3440,-800)"
               id="g488"><g
                 id="g490"><path
                   id="path492"
                   style="fill:#ffffff;fill-opacity:0;fill-rule:nonzero;stroke:none"
                   d="M 0,6 C 0,0 6,0 6,0 h 108 c 6,0 6,6 6,6 v 28 c 0,6 -6,6 -6,6 H 6 C 0,40 0,34 0,34 Z" /></g><g
                 id="g494"><g
                   id="g496"><g
                     id="g498"><path
                       id="path500"
                       style="fill:none;stroke:#000000;stroke-width:3;stroke-linecap:butt;stroke-linejoin:miter;stroke-miterlimit:4;stroke-dasharray:none;stroke-opacity:0"
                       d="M 0,6 C 0,0 6,0 6,0 h 108 c 6,0 6,6 6,6 v 28 c 0,6 -6,6 -6,6 H 6 C 0,40 0,34 0,34 Z" /></g></g></g></g><g
               id="g502"><g
                 transform="translate(-3435,-795)"
                 id="g504"><g
                   id="g506"><g
                     transform="matrix(0.02222,0,0,0.02222,49.44,9.990706)"
                     id="g508"><g
                       transform="translate(0,317.7)"
                       id="g510"><g
                         id="g512"><g
                           id="g514"><path
                             id="path516"
                             style="fill:#333333;fill-opacity:1;fill-rule:nonzero;stroke:none"
                             d="m 359,-171 c 0,-104 -68,-170 -206,-159 l -1,-13 c 68,-24 95,-40 126,-69 70,-65 44,-204 -70,-204 -63,0 -108,32 -148,106 l -15,-4 c 30,-102 88,-162 196,-162 93,0 156,55 156,137 0,54 -25,91 -93,138 83,32 124,81 127,182 C 436,-71 304,14 156,14 86,14 43,-8 43,-43 c 0,-21 15,-35 38,-35 36,0 111,68 148,56 74,0 130,-64 130,-149 z" /></g></g></g></g></g></g></g></g></g></g><g
         id="g518"><g
           id="g520"><g
             id="g522"><g
               transform="translate(-3340,-800)"
               id="g524" /><g
               transform="translate(-3340,-800)"
               id="g526"><g
                 id="g528"><path
                   id="path530"
                   style="fill:#ffffff;fill-opacity:0;fill-rule:nonzero;stroke:none"
                   d="M 0,6 C 0,0 6,0 6,0 h 108 c 6,0 6,6 6,6 v 28 c 0,6 -6,6 -6,6 H 6 C 0,40 0,34 0,34 Z" /></g><g
                 id="g532"><g
                   id="g534"><g
                     id="g536"><path
                       id="path538"
                       style="fill:none;stroke:#000000;stroke-width:3;stroke-linecap:butt;stroke-linejoin:miter;stroke-miterlimit:4;stroke-dasharray:none;stroke-opacity:0"
                       d="M 0,6 C 0,0 6,0 6,0 h 108 c 6,0 6,6 6,6 v 28 c 0,6 -6,6 -6,6 H 6 C 0,40 0,34 0,34 Z" /></g></g></g></g><g
               id="g540"><g
                 transform="translate(-3335,-795)"
                 id="g542"><g
                   id="g544"><g
                     transform="matrix(0.02222,0,0,0.02222,49.44,9.990706)"
                     id="g546"><g
                       transform="translate(0,317.7)"
                       id="g548"><g
                         id="g550"><g
                           id="g552"><path
                             id="path554"
                             style="fill:#333333;fill-opacity:1;fill-rule:nonzero;stroke:none"
                             d="m 472,-231 v 32 32 H 370 V -83.5 0 H 293 V -83.5 -167 H 12 v -32 -32 l 314,-445 h 44 v 222.5 222.5 z m -180,0 V -402.5 -574 L 52,-231 Z" /></g></g></g></g></g></g></g></g></g></g><g
         id="g556"><g
           id="g558"><g
             id="g560"><g
               id="g562"><g
                 id="g564"><g
                   id="g566"><path
                     id="path568"
                     style="fill:none;stroke:#ff1818;stroke-width:2;stroke-linecap:butt;stroke-linejoin:miter;stroke-miterlimit:4;stroke-dasharray:none;stroke-opacity:1"
                     d="m -3000,-795 v 76.5" /></g></g></g><g
               id="g570"><path
                 id="path572"
                 style="fill:#ff1818;fill-opacity:1;fill-rule:nonzero;stroke:none"
                 d="m -2999,-795 h -2 v -1 h 2 z" /></g><g
               id="g574"><g
                 id="g576"><g
                   id="g578"><path
                     id="path580"
                     style="fill:none;stroke:#ff1818;stroke-width:0.05;stroke-linecap:butt;stroke-linejoin:miter;stroke-miterlimit:4;stroke-dasharray:none;stroke-opacity:1"
                     d="m -2999,-795 h -2 v -1 h 2 z" /></g></g></g><g
               id="g582"><path
                 id="path584"
                 style="fill:#ff1818;fill-opacity:1;fill-rule:nonzero;stroke:none"
                 d="m -3000,-703.2 -4,-14.3 h 9 z" /></g><g
               id="g586"><g
                 id="g588"><g
                   id="g590"><path
                     id="path592"
                     style="fill:none;stroke:#ff1818;stroke-width:2;stroke-linecap:butt;stroke-linejoin:miter;stroke-miterlimit:4;stroke-dasharray:none;stroke-opacity:1"
                     d="m -3000,-703.2 -4,-14.3 h 9 z" /></g></g></g></g></g></g><g
         id="g594"><g
           id="g596"><g
             id="g598"><g
               transform="translate(-3040,-800)"
               id="g600" /><g
               transform="translate(-3040,-800)"
               id="g602"><g
                 id="g604"><path
                   id="path606"
                   style="fill:#ffffff;fill-opacity:0;fill-rule:nonzero;stroke:none"
                   d="M 0,6 C 0,0 6,0 6,0 h 108 c 6,0 6,6 6,6 v 28 c 0,6 -6,6 -6,6 H 6 C 0,40 0,34 0,34 Z" /></g><g
                 id="g608"><g
                   id="g610"><g
                     id="g612"><path
                       id="path614"
                       style="fill:none;stroke:#000000;stroke-width:3;stroke-linecap:butt;stroke-linejoin:miter;stroke-miterlimit:4;stroke-dasharray:none;stroke-opacity:0"
                       d="M 0,6 C 0,0 6,0 6,0 h 108 c 6,0 6,6 6,6 v 28 c 0,6 -6,6 -6,6 H 6 C 0,40 0,34 0,34 Z" /></g></g></g></g><g
               id="g616"><g
                 transform="translate(-3035,-795)"
                 id="g618"><g
                   id="g620"><g
                     transform="matrix(0.02222,0,0,0.02222,43.88,9.990706)"
                     id="g622"><g
                       transform="translate(0,317.7)"
                       id="g624"><g
                         id="g626"><g
                           id="g628"><path
                             id="path630"
                             style="fill:#333333;fill-opacity:1;fill-rule:nonzero;stroke:none"
                             d="M 118,0 V -7.5 -15 c 76,-1 95,-15 95,-78 V -319.5 -546 c 0,-32 -9,-47 -30,-47 -9,0 -33,7 -72,22 v -7 -7 l 180,-91 8,2 v 300 300 c 1,48 18,59 95,59 V -7.5 0 Z" /></g></g></g><g
                       transform="translate(500,317.7)"
                       id="g632"><g
                         id="g634"><g
                           id="g636"><path
                             id="path638"
                             style="fill:#333333;fill-opacity:1;fill-rule:nonzero;stroke:none"
                             d="m 31,-477 c 23,-122 89,-199 208,-199 104,0 185,77 185,176 0,154 -206,318 -296,424 h 239 c 47,-1 58,-8 95,-66 l 13,5 L 420,0 H 30 v -6 -6 c 98,-114 308,-280 308,-449 0,-84 -56,-141 -141,-141 -70,0 -105,32 -145,130 z" /></g></g></g></g></g></g></g></g></g></g><g
         id="g640"><g
           id="g642"><g
             id="g644"><g
               id="g646"><g
                 id="g648"><g
                   id="g650"><path
                     id="path652"
                     style="fill:none;stroke:#333333;stroke-width:2;stroke-linecap:butt;stroke-linejoin:miter;stroke-miterlimit:4;stroke-dasharray:none;stroke-opacity:1"
                     d="m -3599,-700 h 3 m 4,0 h 6 m 4,0 h 6 m 4,0 h 6 m 4,0 h 6 m 4,0 h 6 m 4,0 h 6 m 4,0 h 6 m 4,0 h 6 m 4,0 h 6 m 4,0 h 6 m 4,0 h 6 m 4,0 h 6 m 4,0 h 6 m 4,0 h 6 m 4,0 h 6 m 4,0 h 6 m 4,0 h 6 m 4,0 h 6 m 4,0 h 6 m 4,0 h 6 m 4,0 h 6 m 4,0 h 6 m 4,0 h 6 m 4,0 h 6 m 4,0 h 6 m 4,0 h 6 m 4,0 h 6 m 4,0 h 6 m 4,0 h 6 m 4,0 h 5 m 4,0 h 6 m 4,0 h 6 m 4,0 h 6 m 4,0 h 6 m 4,0 h 6 m 4,0 h 6 m 4,0 h 6 m 4,0 h 6 m 4,0 h 6 m 4,0 h 6 m 4,0 h 6 m 4,0 h 6 m 4,0 h 6 m 4,0 h 6 m 4,0 h 6 m 4,0 h 6 m 4,0 h 6 m 4,0 h 6 m 4,0 h 6 m 4,0 h 6 m 4,0 h 6 m 4,0 h 6 m 4,0 h 6 m 4,0 h 6 m 4,0 h 6 m 4,0 h 6 m 4,0 h 6 m 4,0 h 6 m 4,0 h 6 m 4,0 h 2" /></g></g></g><g
               id="g654"><g
                 id="g656"><g
                   id="g658"><path
                     id="path660"
                     style="fill:none;stroke:#333333;stroke-width:2;stroke-linecap:butt;stroke-linejoin:miter;stroke-miterlimit:4;stroke-dasharray:none;stroke-opacity:1"
                     d="m -3599,-700 h -1" /></g></g></g><g
               id="g662"><g
                 id="g664"><g
                   id="g666"><path
                     id="path668"
                     style="fill:none;stroke:#333333;stroke-width:2;stroke-linecap:butt;stroke-linejoin:miter;stroke-miterlimit:4;stroke-dasharray:none;stroke-opacity:1"
                     d="m -3001,-700 h 1" /></g></g></g></g></g></g><g
         id="g670"><g
           id="g672"><g
             id="g674"><g
               transform="translate(-2860,-820)"
               id="g676" /><g
               transform="translate(-2860,-820)"
               id="g678"><g
                 id="g680"><path
                   id="path682"
                   style="fill:#ffffff;fill-opacity:0;fill-rule:nonzero;stroke:none"
                   d="M 0,6 C 0,0 6,0 6,0 h 88 c 6,0 6,6 6,6 v 28 c 0,6 -6,6 -6,6 H 6 C 0,40 0,34 0,34 Z" /></g><g
                 id="g684"><g
                   id="g686"><g
                     id="g688"><path
                       id="path690"
                       style="fill:none;stroke:#000000;stroke-width:3;stroke-linecap:butt;stroke-linejoin:miter;stroke-miterlimit:4;stroke-dasharray:none;stroke-opacity:0"
                       d="M 0,6 C 0,0 6,0 6,0 h 88 c 6,0 6,6 6,6 v 28 c 0,6 -6,6 -6,6 H 6 C 0,40 0,34 0,34 Z" /></g></g></g></g><g
               id="g692"><g
                 transform="translate(-2855,-815)"
                 id="g694"><g
                   id="g696"><g
                     transform="matrix(0.02222,0,0,0.02222,25.86,9.990706)"
                     id="g698"><g
                       transform="translate(0,317.7)"
                       id="g700"><g
                         id="g702"><g
                           id="g704"><path
                             id="path706"
                             style="fill:#333333;fill-opacity:1;fill-rule:nonzero;stroke:none"
                             d="m 5,217 v -8.5 -8.5 c 59,-6 70,-16 70,-69 v -234 -234 c 4,-60 -20,-59 -66,-56 v -8 -8 c 55,-17 90,-30 144,-51 l 6,2 v 38.5 38.5 c 44,-55 88,-79 144,-79 97,0 167,89 167,213 C 470,-102 379,10 260,10 218,10 195,0 159,-33 V 45.5 124 c 1,64 13,74 88,75 v 9 9 z m 154,-551 v 123 123 c 0,30 57,66 104,66 72,0 121,-75 121,-185 0,-117 -49,-193 -123,-193 -46,0 -102,36 -102,66 z" /></g></g></g><g
                       transform="translate(500,317.7)"
                       id="g708"><g
                         id="g710"><g
                           id="g712"><path
                             id="path714"
                             style="fill:#333333;fill-opacity:1;fill-rule:nonzero;stroke:none"
                             d="m 288,-408 c -43,0 -99,25 -118,59 v 141 141 c 1,40 17,51 68,52 V -7.5 0 H 16 V -7.5 -15 c 55,0 70,-14 70,-70 V -211.5 -338 c 2,-66 -20,-70 -67,-60 v -8.5 -8.5 c 55,-15 89,-26 140,-45 l 7,2 v 37.5 37.5 c 84,-64 110,-77 155,-77 54,0 88,27 106,84 54,-58 104,-84 163,-84 77,0 116,60 116,178 v 103 103 c -2,50 23,60 69,61 V -7.5 0 H 556 V -7.5 -15 c 58,-6 66,-13 66,-72 V -192.5 -298 c 0,-83 -18,-110 -75,-110 -47,0 -79,18 -109,61 v 126 126 c 2,64 16,80 72,80 V -7.5 0 H 286 V -7.5 -15 c 56,-3 68,-14 68,-71 V -194.5 -303 c 0,-70 -22,-105 -66,-105 z" /></g></g></g><g
                       transform="translate(1278,317.7)"
                       id="g716"><g
                         id="g718"><g
                           id="g720"><path
                             id="path722"
                             style="fill:#333333;fill-opacity:1;fill-rule:nonzero;stroke:none"
                             d="m 224,-460 c 103,0 144,45 144,160 v 97.5 97.5 c -5,73 38,67 74,39 v 13 13 C 407,-2 386,10 352,10 311,10 293,-10 288,-63 227,-11 186,10 142,10 40,10 4,-125 73,-184 c 43,-38 60,-46 214,-108 5,-77 -3,-144 -76,-144 -40,0 -72,22 -72,49 11,39 3,81 -40,82 -24,0 -43,-20 -43,-43 0,-63 74,-112 168,-112 z m -36,412 c 36,0 99,-18 99,-75 v -72.5 -72.5 c -119,43 -162,78 -162,143 0,43 28,77 63,77 z" /></g></g></g></g></g></g></g></g></g></g><g
         id="g724"><g
           id="g726"><g
             id="g728"><g
               transform="translate(-2960,-840)"
               id="g730" /><g
               transform="translate(-2960,-840)"
               id="g732"><g
                 id="g734"><path
                   id="path736"
                   style="fill:#ffffff;fill-opacity:0;fill-rule:nonzero;stroke:none"
                   d="M 0,6 C 0,0 6,0 6,0 h 108 c 6,0 6,6 6,6 v 28 c 0,6 -6,6 -6,6 H 6 C 0,40 0,34 0,34 Z" /></g><g
                 id="g738"><g
                   id="g740"><g
                     id="g742"><path
                       id="path744"
                       style="fill:none;stroke:#000000;stroke-width:3;stroke-linecap:butt;stroke-linejoin:miter;stroke-miterlimit:4;stroke-dasharray:none;stroke-opacity:0"
                       d="M 0,6 C 0,0 6,0 6,0 h 108 c 6,0 6,6 6,6 v 28 c 0,6 -6,6 -6,6 H 6 C 0,40 0,34 0,34 Z" /></g></g></g></g><g
               id="g746"><g
                 transform="translate(-2955,-835)"
                 id="g748"><g
                   id="g750"><g
                     transform="matrix(0.02222,0,0,0.02222,43.88,9.990706)"
                     id="g752"><g
                       transform="translate(0,317.7)"
                       id="g754"><g
                         id="g756"><g
                           id="g758"><path
                             id="path760"
                             style="fill:#333333;fill-opacity:1;fill-rule:nonzero;stroke:none"
                             d="M 118,0 V -7.5 -15 c 76,-1 95,-15 95,-78 V -319.5 -546 c 0,-32 -9,-47 -30,-47 -9,0 -33,7 -72,22 v -7 -7 l 180,-91 8,2 v 300 300 c 1,48 18,59 95,59 V -7.5 0 Z" /></g></g></g><g
                       transform="translate(500,317.7)"
                       id="g762"><g
                         id="g764"><g
                           id="g766"><path
                             id="path768"
                             style="fill:#333333;fill-opacity:1;fill-rule:nonzero;stroke:none"
                             d="m 31,-477 c 23,-122 89,-199 208,-199 104,0 185,77 185,176 0,154 -206,318 -296,424 h 239 c 47,-1 58,-8 95,-66 l 13,5 L 420,0 H 30 v -6 -6 c 98,-114 308,-280 308,-449 0,-84 -56,-141 -141,-141 -70,0 -105,32 -145,130 z" /></g></g></g></g></g></g></g></g></g></g><g
         id="g770"><g
           id="g772"><g
             id="g774"><g
               id="g776"><g
                 id="g778"><g
                   id="g780"><path
                     id="path782"
                     style="fill:none;stroke:#333333;stroke-width:2;stroke-linecap:butt;stroke-linejoin:miter;stroke-miterlimit:4;stroke-dasharray:none;stroke-opacity:1"
                     d="m -2896,-799 v 10 m 0,9.9 v 19.8 m 0,9.9 v 19.9 m 0,9.9 v 19.8 m 0,9.9 v 19.9 m 0,9.9 v 19.8 m 0,9.9 v 19.9 m 0,9.9 v 19.8 m 0,9.9 v 9.9" /></g></g></g><g
               id="g784"><g
                 id="g786"><g
                   id="g788"><path
                     id="path790"
                     style="fill:none;stroke:#333333;stroke-width:2;stroke-linecap:butt;stroke-linejoin:miter;stroke-miterlimit:4;stroke-dasharray:none;stroke-opacity:1"
                     d="m -2896,-799 v -1" /></g></g></g><g
               id="g792"><g
                 id="g794"><g
                   id="g796"><path
                     id="path798"
                     style="fill:none;stroke:#333333;stroke-width:2;stroke-linecap:butt;stroke-linejoin:miter;stroke-miterlimit:4;stroke-dasharray:none;stroke-opacity:1"
                     d="m -2896,-561 v 1" /></g></g></g></g></g></g><g
         id="g800"><g
           id="g802"><g
             id="g804"><g
               id="g806"><g
                 id="g808"><g
                   id="g810"><path
                     id="path812"
                     style="fill:none;stroke:#1aff1f;stroke-width:2;stroke-linecap:butt;stroke-linejoin:miter;stroke-miterlimit:4;stroke-dasharray:none;stroke-opacity:1"
                     d="m -2900,-841 v -160" /></g></g></g><g
               id="g814"><path
                 id="path816"
                 style="fill:#1aff1f;fill-opacity:1;fill-rule:nonzero;stroke:none"
                 d="m -2899,-840 h -2 v -1 h 2 z" /></g><g
               id="g818"><g
                 id="g820"><g
                   id="g822"><path
                     id="path824"
                     style="fill:none;stroke:#1aff1f;stroke-width:0.05;stroke-linecap:butt;stroke-linejoin:miter;stroke-miterlimit:4;stroke-dasharray:none;stroke-opacity:1"
                     d="m -2899,-840 h -2 v -1 h 2 z" /></g></g></g><g
               id="g826"><path
                 id="path828"
                 style="fill:#1aff1f;fill-opacity:1;fill-rule:nonzero;stroke:none"
                 d="m -2900,-1016 5,14 h -9 z" /></g><g
               id="g830"><g
                 id="g832"><g
                   id="g834"><path
                     id="path836"
                     style="fill:none;stroke:#1aff1f;stroke-width:2;stroke-linecap:butt;stroke-linejoin:miter;stroke-miterlimit:4;stroke-dasharray:none;stroke-opacity:1"
                     d="m -2900,-1016 5,14 h -9 z" /></g></g></g></g></g></g><g
         id="g838"><g
           id="g840"><g
             id="g842"><g
               transform="translate(-2990,-1080)"
               id="g844" /><g
               transform="translate(-2990,-1080)"
               id="g846"><g
                 id="g848"><path
                   id="path850"
                   style="fill:#ffffff;fill-opacity:0;fill-rule:nonzero;stroke:none"
                   d="M 0,6 C 0,0 6,0 6,0 h 168 c 6,0 6,6 6,6 v 51.3 c 0,6.03 -6,6.03 -6,6.03 L 6,63.3 C 0,63.33 0,57.33 0,57.33 Z" /></g><g
                 id="g852"><g
                   id="g854"><g
                     id="g856"><path
                       id="path858"
                       style="fill:none;stroke:#000000;stroke-width:3;stroke-linecap:butt;stroke-linejoin:miter;stroke-miterlimit:4;stroke-dasharray:none;stroke-opacity:0"
                       d="M 0,6 C 0,0 6,0 6,0 h 168 c 6,0 6,6 6,6 v 51.3 c 0,6.03 -6,6.03 -6,6.03 L 6,63.3 C 0,63.33 0,57.33 0,57.33 Z" /></g></g></g></g><g
               id="g860"><g
                 transform="translate(-2985,-1075)"
                 id="g862"><g
                   id="g864"><g
                     transform="matrix(0.02222,0,0,0.02222,29.95,21.610706)"
                     id="g866"><g
                       transform="translate(0,317.7)"
                       id="g868"><g
                         id="g870"><g
                           id="g872"><path
                             id="path874"
                             style="fill:#333333;fill-opacity:1;fill-rule:nonzero;stroke:none"
                             d="m 697,-662 v 9.5 9.5 c -48,3 -60,13 -92,93 L 383,11 H 368 L 122,-538 C 79,-627 65,-641 16,-643 v -9.5 -9.5 h 266 v 9.5 9.5 c -37,2 -75,3 -75,33 0,15 8,37 41,111 l 151,338 147,-367 c 23,-67 45,-111 -54,-115 v -9.5 -9.5 z" /></g></g></g><g
                       transform="translate(722,317.7)"
                       id="g876"><g
                         id="g878"><g
                           id="g880"><path
                             id="path882"
                             style="fill:#333333;fill-opacity:1;fill-rule:nonzero;stroke:none"
                             d="m 479,-231 h -23 c -12,-81 -28,-96 -110,-96 H 201 v 109 109 c 1,73 15,87 91,90 V -9.5 0 H 12 V -9.5 -19 c 76,-5 87,-16 87,-101 V -336.5 -553 c -2,-72 -14,-85 -87,-90 v -9.5 -9.5 h 531 l 3,143 H 521 C 505,-608 485,-624 369,-624 H 233 c -28,1 -32,4 -32,34 v 111 111 h 145 c 82,-2 99,-16 110,-95 h 23 v 116 z" /></g></g></g><g
                       transform="translate(1278,317.7)"
                       id="g884"><g
                         id="g886"><g
                           id="g888" /></g></g></g></g><g
                   id="g890"><g
                     transform="matrix(0.02222,0,0,0.02222,63.91,21.610706)"
                     id="g892"><g
                       transform="translate(0,317.7)"
                       id="g894"><g
                         id="g896"><g
                           id="g898"><path
                             id="path900"
                             style="fill:#333333;fill-opacity:1;fill-rule:nonzero;stroke:none"
                             d="m 528,-433 v 26.5 26.5 H 37 v -26.5 -26.5 z m 0,200 v 26.5 26.5 H 37 v -26.5 -26.5 z" /></g></g></g><g
                       transform="translate(564,317.7)"
                       id="g902"><g
                         id="g904"><g
                           id="g906" /></g></g></g></g><g
                   id="g908"><g
                     transform="matrix(0.02222,0,0,0.02222,82,21.610706)"
                     id="g910"><g
                       transform="translate(0,317.7)"
                       id="g912"><g
                         id="g914"><g
                           id="g916"><path
                             id="path918"
                             style="fill:#333333;fill-opacity:1;fill-rule:nonzero;stroke:none"
                             d="m 395,-521 c 0,138 -159,203 -170,357 h -17 c -3,-126 95,-240 95,-362 0,-67 -48,-120 -109,-120 -48,0 -94,30 -94,62 0,19 46,54 38,74 0,25 -16,41 -41,41 -32,0 -48,-21 -48,-62 0,-83 70,-145 162,-145 93,0 184,53 184,155 z M 218,-97 c 30,0 55,24 55,54 0,30 -23,51 -55,51 -31,0 -53,-21 -53,-50 0,-31 23,-55 53,-55 z" /></g></g></g><g
                       transform="translate(444,317.7)"
                       id="g920"><g
                         id="g922"><g
                           id="g924" /></g></g></g></g><g
                   id="g926"><g
                     transform="matrix(0.02222,0,0,0.02222,97.42,21.610706)"
                     id="g928"><g
                       transform="translate(0,317.7)"
                       id="g930"><g
                         id="g932"><g
                           id="g934"><path
                             id="path936"
                             style="fill:#333333;fill-opacity:1;fill-rule:nonzero;stroke:none"
                             d="m 363,-676 c 59,-1 126,33 185,33 20,0 36,-12 42,-33 h 21 l 9,225 h -23 c -26,-114 -98,-185 -215,-185 -145,0 -238,116 -238,298 0,184 78,308 248,308 83,0 149,-30 223,-101 l 18,18 C 573,-32 473,14 360,14 161,14 28,-122 28,-326 28,-526 175,-672 363,-676 Z" /></g></g></g><g
                       transform="translate(653,317.7)"
                       id="g938"><g
                         id="g940"><g
                           id="g942"><path
                             id="path944"
                             style="fill:#333333;fill-opacity:1;fill-rule:nonzero;stroke:none"
                             d="M 355,14 C 172,14 34,-134 34,-331 c 0,-202 136,-345 327,-345 187,-1 327,146 327,349 0,202 -136,341 -333,341 z m 219,-342 c 0,-179 -59,-312 -213,-312 -151,0 -213,138 -213,311 0,172 58,307 211,307 158,0 215,-151 215,-306 z" /></g></g></g><g
                       transform="translate(1362,317.7)"
                       id="g946"><g
                         id="g948"><g
                           id="g950"><path
                             id="path952"
                             style="fill:#333333;fill-opacity:1;fill-rule:nonzero;stroke:none"
                             d="m 542,-481 c 0,152 -155,214 -340,190 v 91 91 c 1,74 15,88 94,90 V -9.5 0 H 16 V -9.5 -19 c 76,-7 84,-16 84,-101 V -336.5 -553 c -1,-73 -10,-82 -84,-90 v -9.5 -9.5 c 228,3 526,-39 526,181 z M 202,-591 v 130 130 c 133,17 231,-27 231,-144 0,-103 -62,-150 -197,-150 -27,0 -34,7 -34,34 z" /></g></g></g></g></g></g></g></g></g></g><g
         id="g954"><g
           id="g956"><g
             id="g958"><g
               id="g960"><g
                 id="g962"><g
                   id="g964"><path
                     id="path966"
                     style="fill:none;stroke:#0a21b3;stroke-width:2;stroke-linecap:butt;stroke-linejoin:round;stroke-miterlimit:10;stroke-dasharray:none;stroke-opacity:1"
                     d="m -3599,-699.3 8,6.6 m 7,6.6 2,1.5 14,11 m 8,6.1 16,11.8 m 8,5.6 11,7.5 6,3.3 m 8,5.2 6,3.7 12,6.3 m 8,4.8 1,0.1 17,8.9 m 9,4.2 14,6.2 5,1.8 m 9,3.7 6,2.5 13,4.4 m 9,3.3 17,5.3 2,0.5 m 10,2.5 8,2 11,2.6 m 10,2 16,2.7 4,0.5 m 10,1.3 4,0.5 15,1.5 m 10,0.5 10,0.4 h 10 m 10,-0.1 13,-0.5 7,-0.5 m 10,-0.8 16,-1.9 4,-0.7 m 10,-1.6 1,-0.3 16,-3.2 2,-0.6 m 10,-2.5 3,-0.8 15,-4.5 1,-0.4 m 10,-3.2 4,-1.5 14,-5.6 m 9,-4 6,-2.5 12,-6.1 m 9,-4.7 8,-4.2 10,-5.7 m 8,-5.3 11,-7.1 6,-4.1 m 8,-5.9 v -0.4 l 14,-11.3 1,-0.6 m 8,-6.5 6,-5.2 9,-8.1 m 7,-6.9 13,-13.4 1,-0.9 m 7,-7.4 7,-7.9 6,-7.1 m 6,-7.7 3,-3 9,-12.7 m 6,-8 12,-16.3 m 5,-8.3 6,-8.5" /></g></g></g><g
               id="g968"><g
                 id="g970"><g
                   id="g972"><path
                     id="path974"
                     style="fill:none;stroke:#0a21b3;stroke-width:2;stroke-linecap:butt;stroke-linejoin:miter;stroke-miterlimit:4;stroke-dasharray:none;stroke-opacity:1"
                     d="m -3599,-699.3 -1,-0.7" /></g></g></g><g
               id="g976"><path
                 id="path978"
                 style="fill:#0a21b3;fill-opacity:1;fill-rule:nonzero;stroke:none"
                 d="m -2898,-793.3 -4,14.6 -8,-5 z" /></g><g
               id="g980"><g
                 id="g982"><g
                   id="g984"><path
                     id="path986"
                     style="fill:none;stroke:#0a21b3;stroke-width:2;stroke-linecap:butt;stroke-linejoin:miter;stroke-miterlimit:4;stroke-dasharray:none;stroke-opacity:1"
                     d="m -2898,-793.3 -4,14.6 -8,-5 z" /></g></g></g></g></g></g><g
         id="g988"><g
           id="g990"><g
             id="g992"><g
               transform="translate(-3220,-700)"
               id="g994" /><g
               transform="translate(-3220,-700)"
               id="g996"><g
                 id="g998"><path
                   id="path1000"
                   style="fill:#ffffff;fill-opacity:0;fill-rule:nonzero;stroke:none"
                   d="M 0,6 C 0,0 6,0 6,0 h 168 c 6,0 6,6 6,6 v 51.3 c 0,6.03 -6,6.03 -6,6.03 L 6,63.3 C 0,63.33 0,57.33 0,57.33 Z" /></g><g
                 id="g1002"><g
                   id="g1004"><g
                     id="g1006"><path
                       id="path1008"
                       style="fill:none;stroke:#000000;stroke-width:3;stroke-linecap:butt;stroke-linejoin:miter;stroke-miterlimit:4;stroke-dasharray:none;stroke-opacity:0"
                       d="M 0,6 C 0,0 6,0 6,0 h 168 c 6,0 6,6 6,6 v 51.3 c 0,6.03 -6,6.03 -6,6.03 L 6,63.3 C 0,63.33 0,57.33 0,57.33 Z" /></g></g></g></g><g
               id="g1010"><g
                 transform="translate(-3215,-695)"
                 id="g1012"><g
                   id="g1014"><g
                     transform="matrix(0.02222,0,0,0.02222,8.344,21.610706)"
                     id="g1016"><g
                       transform="translate(0,317.7)"
                       id="g1018"><g
                         id="g1020"><g
                           id="g1022"><path
                             id="path1024"
                             style="fill:#333333;fill-opacity:1;fill-rule:nonzero;stroke:none"
                             d="m 17,-662 c 224,7 531,-47 530,176 0,92 -54,142 -181,167 l 206,253 c 29,34 49,44 87,47 V -9.5 0 H 498 l -238,-308 -56,2 v 98.5 98.5 c 1,73 13,85 90,90 V -9.5 0 H 17 V -9.5 -19 c 75,-6 85,-16 85,-101 V -336.5 -553 c -1,-73 -11,-82 -85,-90 v -9.5 z m 187,73 v 123 123 c 96,-2 131,-9 177,-34 36,-20 57,-61 57,-111 0,-94 -58,-137 -183,-137 -40,0 -51,8 -51,36 z" /></g></g></g><g
                       transform="translate(667,317.7)"
                       id="g1026"><g
                         id="g1028"><g
                           id="g1030" /></g></g></g></g><g
                   id="g1032"><g
                     transform="matrix(0.02222,0,0,0.02222,28.72,21.610706)"
                     id="g1034"><g
                       transform="translate(0,317.7)"
                       id="g1036"><g
                         id="g1038"><g
                           id="g1040"><path
                             id="path1042"
                             style="fill:#333333;fill-opacity:1;fill-rule:nonzero;stroke:none"
                             d="m 528,-433 v 26.5 26.5 H 37 v -26.5 -26.5 z m 0,200 v 26.5 26.5 H 37 v -26.5 -26.5 z" /></g></g></g><g
                       transform="translate(564,317.7)"
                       id="g1044"><g
                         id="g1046"><g
                           id="g1048" /></g></g><g
                       transform="translate(814,317.7)"
                       id="g1050"><g
                         id="g1052"><g
                           id="g1054" /></g></g></g></g><g
                   id="g1056"><g
                     transform="matrix(0.02222,0,0,0.02222,52.36,21.610706)"
                     id="g1058"><g
                       transform="translate(0,317.7)"
                       id="g1060"><g
                         id="g1062"><g
                           id="g1064"><path
                             id="path1066"
                             style="fill:#333333;fill-opacity:1;fill-rule:nonzero;stroke:none"
                             d="m 74,-85 c 36,-11 108,69 143,62 79,0 139,-75 139,-171 0,-100 -52,-161 -167,-198 -42,-13 -81,-20 -113,-20 -10,1 -14,-5 -11,-13 l 109,-237 h 209 c 22,0 31,-6 46,-26 l 9,7 -38,89 c -3,8 -6,9 -23,9 H 181 l -42,85 c 118,21 175,44 219,88 49,50 68,96 68,168 C 426,-81 307,14 154,14 78,14 32,-10 32,-48 32,-73 46,-85 74,-85 Z" /></g></g></g><g
                       transform="translate(500,317.7)"
                       id="g1068"><g
                         id="g1070"><g
                           id="g1072"><path
                             id="path1074"
                             style="fill:#333333;fill-opacity:1;fill-rule:nonzero;stroke:none"
                             d="m 24,-336 c 0,-175 60,-340 230,-340 131,0 222,141 222,346 C 476,-150 417,14 250,14 82,14 24,-156 24,-336 Z m 227,-314 c -86,0 -131,110 -131,323 0,208 44,315 130,315 86,0 130,-107 130,-316 0,-209 -45,-322 -129,-322 z" /></g></g></g><g
                       transform="translate(1000,317.7)"
                       id="g1076"><g
                         id="g1078"><g
                           id="g1080"><path
                             id="path1082"
                             style="fill:#333333;fill-opacity:1;fill-rule:nonzero;stroke:none"
                             d="m 125,-100 c 30,0 56,26 56,57 0,30 -26,54 -57,54 -29,0 -54,-25 -54,-54 0,-32 25,-57 55,-57 z" /></g></g></g><g
                       transform="translate(1250,317.7)"
                       id="g1084"><g
                         id="g1086"><g
                           id="g1088"><path
                             id="path1090"
                             style="fill:#333333;fill-opacity:1;fill-rule:nonzero;stroke:none"
                             d="m 24,-336 c 0,-175 60,-340 230,-340 131,0 222,141 222,346 C 476,-150 417,14 250,14 82,14 24,-156 24,-336 Z m 227,-314 c -86,0 -131,110 -131,323 0,208 44,315 130,315 86,0 130,-107 130,-316 0,-209 -45,-322 -129,-322 z" /></g></g></g><g
                       transform="translate(1750,317.7)"
                       id="g1092"><g
                         id="g1094"><g
                           id="g1096"><path
                             id="path1098"
                             style="fill:#333333;fill-opacity:1;fill-rule:nonzero;stroke:none"
                             d="m 24,-336 c 0,-175 60,-340 230,-340 131,0 222,141 222,346 C 476,-150 417,14 250,14 82,14 24,-156 24,-336 Z m 227,-314 c -86,0 -131,110 -131,323 0,208 44,315 130,315 86,0 130,-107 130,-316 0,-209 -45,-322 -129,-322 z" /></g></g></g><g
                       transform="translate(2250,317.7)"
                       id="g1100"><g
                         id="g1102"><g
                           id="g1104"><path
                             id="path1106"
                             style="fill:#333333;fill-opacity:1;fill-rule:nonzero;stroke:none"
                             d="m 24,-336 c 0,-175 60,-340 230,-340 131,0 222,141 222,346 C 476,-150 417,14 250,14 82,14 24,-156 24,-336 Z m 227,-314 c -86,0 -131,110 -131,323 0,208 44,315 130,315 86,0 130,-107 130,-316 0,-209 -45,-322 -129,-322 z" /></g></g></g><g
                       transform="translate(2750,317.7)"
                       id="g1108"><g
                         id="g1110"><g
                           id="g1112" /></g></g></g></g><g
                   id="g1114"><g
                     transform="matrix(0.02222,0,0,0.02222,119,21.610706)"
                     id="g1116"><g
                       transform="translate(0,317.7)"
                       id="g1118"><g
                         id="g1120"><g
                           id="g1122"><path
                             id="path1124"
                             style="fill:#333333;fill-opacity:1;fill-rule:nonzero;stroke:none"
                             d="m 363,-676 c 59,-1 126,33 185,33 20,0 36,-12 42,-33 h 21 l 9,225 h -23 c -26,-114 -98,-185 -215,-185 -145,0 -238,116 -238,298 0,184 78,308 248,308 83,0 149,-30 223,-101 l 18,18 C 573,-32 473,14 360,14 161,14 28,-122 28,-326 28,-526 175,-672 363,-676 Z" /></g></g></g><g
                       transform="translate(653,317.7)"
                       id="g1126"><g
                         id="g1128"><g
                           id="g1130"><path
                             id="path1132"
                             style="fill:#333333;fill-opacity:1;fill-rule:nonzero;stroke:none"
                             d="M 355,14 C 172,14 34,-134 34,-331 c 0,-202 136,-345 327,-345 187,-1 327,146 327,349 0,202 -136,341 -333,341 z m 219,-342 c 0,-179 -59,-312 -213,-312 -151,0 -213,138 -213,311 0,172 58,307 211,307 158,0 215,-151 215,-306 z" /></g></g></g><g
                       transform="translate(1362,317.7)"
                       id="g1134"><g
                         id="g1136"><g
                           id="g1138"><path
                             id="path1140"
                             style="fill:#333333;fill-opacity:1;fill-rule:nonzero;stroke:none"
                             d="m 542,-481 c 0,152 -155,214 -340,190 v 91 91 c 1,74 15,88 94,90 V -9.5 0 H 16 V -9.5 -19 c 76,-7 84,-16 84,-101 V -336.5 -553 c -1,-73 -10,-82 -84,-90 v -9.5 -9.5 c 228,3 526,-39 526,181 z M 202,-591 v 130 130 c 133,17 231,-27 231,-144 0,-103 -62,-150 -197,-150 -27,0 -34,7 -34,34 z" /></g></g></g></g></g></g></g></g></g></g><g
         id="g1142"><g
           id="g1144"><g
             id="g1146"><g
               transform="translate(-3440,-673.3)"
               id="g1148" /><g
               transform="translate(-3440,-673.3)"
               id="g1150"><g
                 id="g1152"><path
                   id="path1154"
                   style="fill:#ffffff;fill-opacity:0;fill-rule:nonzero;stroke:none"
                   d="M 0,6 C 0,0 6,0 6,0 h 168 c 6,0 6,6 6,6 v 78 c 0,6 -6,6 -6,6 H 6 C 0,90 0,84 0,84 Z" /></g><g
                 id="g1156"><g
                   id="g1158"><g
                     id="g1160"><path
                       id="path1162"
                       style="fill:none;stroke:#000000;stroke-width:3;stroke-linecap:butt;stroke-linejoin:miter;stroke-miterlimit:4;stroke-dasharray:none;stroke-opacity:0"
                       d="M 0,6 C 0,0 6,0 6,0 h 168 c 6,0 6,6 6,6 v 78 c 0,6 -6,6 -6,6 H 6 C 0,90 0,84 0,84 Z" /></g></g></g></g><g
               id="g1164"><g
                 transform="translate(-3435,-668.3)"
                 id="g1166"><g
                   id="g1168"><g
                     transform="matrix(0.02222,0,0,0.02222,33.36,10.640706)"
                     id="g1170"><g
                       transform="translate(0,317.7)"
                       id="g1172"><g
                         id="g1174"><g
                           id="g1176"><path
                             id="path1178"
                             style="fill:#333333;fill-opacity:1;fill-rule:nonzero;stroke:none"
                             d="m 102,-334 c 3,-68 -26,-64 -75,-56 v -7.5 -7.5 l 155,-55 4,3 v 177.5 177.5 c 1,73 8,82 74,87 V -7.5 0 H 23 V -7.5 -15 c 68,-3 79,-13 79,-87 v -116 z m 33,-349 c 29,0 52,22 52,51 0,29 -22,51 -52,51 -28,0 -50,-22 -50,-51 0,-28 23,-51 50,-51 z" /></g></g></g><g
                       transform="translate(278,317.7)"
                       id="g1180"><g
                         id="g1182"><g
                           id="g1184" /></g></g></g></g><g
                   id="g1186"><g
                     transform="matrix(0.02222,0,0,0.02222,45.1,10.640706)"
                     id="g1188"><g
                       transform="translate(0,317.7)"
                       id="g1190"><g
                         id="g1192"><g
                           id="g1194"><path
                             id="path1196"
                             style="fill:#333333;fill-opacity:1;fill-rule:nonzero;stroke:none"
                             d="m 528,-433 v 26.5 26.5 H 37 v -26.5 -26.5 z m 0,200 v 26.5 26.5 H 37 v -26.5 -26.5 z" /></g></g></g><g
                       transform="translate(564,317.7)"
                       id="g1198"><g
                         id="g1200"><g
                           id="g1202" /></g></g></g></g><g
                   id="g1204"><g
                     transform="matrix(0.02222,0,0,0.02222,63.18,10.640706)"
                     id="g1206"><g
                       transform="translate(0,317.7)"
                       id="g1208"><g
                         id="g1210"><g
                           id="g1212"><path
                             id="path1214"
                             style="fill:#333333;fill-opacity:1;fill-rule:nonzero;stroke:none"
                             d="m 31,-477 c 23,-122 89,-199 208,-199 104,0 185,77 185,176 0,154 -206,318 -296,424 h 239 c 47,-1 58,-8 95,-66 l 13,5 L 420,0 H 30 v -6 -6 c 98,-114 308,-280 308,-449 0,-84 -56,-141 -141,-141 -70,0 -105,32 -145,130 z" /></g></g></g><g
                       transform="translate(500,317.7)"
                       id="g1216"><g
                         id="g1218"><g
                           id="g1220"><path
                             id="path1222"
                             style="fill:#333333;fill-opacity:1;fill-rule:nonzero;stroke:none"
                             d="m 593,-676 h 43 L 249,13 h -48 z m 53,344 c 81,0 141,77 141,180 0,104 -57,176 -139,176 -81,0 -142,-76 -142,-177 0,-103 60,-179 140,-179 z m 1,26 c -41,0 -63,52 -63,151 0,100 21,152 62,152 40,0 64,-55 64,-148 0,-100 -22,-155 -63,-155 z M 188,-675 c 81,0 137,76 137,184 0,103 -57,174 -140,174 -82,0 -141,-75 -141,-178 0,-104 60,-180 144,-180 z m -2,27 c -43,0 -64,48 -64,147 0,109 20,160 61,160 42,0 65,-55 65,-152 0,-99 -23,-155 -62,-155 z" /></g></g></g><g
                       transform="translate(1333,317.7)"
                       id="g1224"><g
                         id="g1226"><g
                           id="g1228" /></g></g></g></g><g
                   id="g1230"><g
                     transform="matrix(0.02222,0,0,0.02222,98.36,10.640706)"
                     id="g1232"><g
                       transform="translate(0,317.7)"
                       id="g1234"><g
                         id="g1236"><g
                           id="g1238"><path
                             id="path1240"
                             style="fill:#333333;fill-opacity:1;fill-rule:nonzero;stroke:none"
                             d="m 5,217 v -8.5 -8.5 c 59,-6 70,-16 70,-69 v -234 -234 c 4,-60 -20,-59 -66,-56 v -8 -8 c 55,-17 90,-30 144,-51 l 6,2 v 38.5 38.5 c 44,-55 88,-79 144,-79 97,0 167,89 167,213 C 470,-102 379,10 260,10 218,10 195,0 159,-33 V 45.5 124 c 1,64 13,74 88,75 v 9 9 z m 154,-551 v 123 123 c 0,30 57,66 104,66 72,0 121,-75 121,-185 0,-117 -49,-193 -123,-193 -46,0 -102,36 -102,66 z" /></g></g></g><g
                       transform="translate(500,317.7)"
                       id="g1242"><g
                         id="g1244"><g
                           id="g1246"><path
                             id="path1248"
                             style="fill:#333333;fill-opacity:1;fill-rule:nonzero;stroke:none"
                             d="m 288,-408 c -43,0 -99,25 -118,59 v 141 141 c 1,40 17,51 68,52 V -7.5 0 H 16 V -7.5 -15 c 55,0 70,-14 70,-70 V -211.5 -338 c 2,-66 -20,-70 -67,-60 v -8.5 -8.5 c 55,-15 89,-26 140,-45 l 7,2 v 37.5 37.5 c 84,-64 110,-77 155,-77 54,0 88,27 106,84 54,-58 104,-84 163,-84 77,0 116,60 116,178 v 103 103 c -2,50 23,60 69,61 V -7.5 0 H 556 V -7.5 -15 c 58,-6 66,-13 66,-72 V -192.5 -298 c 0,-83 -18,-110 -75,-110 -47,0 -79,18 -109,61 v 126 126 c 2,64 16,80 72,80 V -7.5 0 H 286 V -7.5 -15 c 56,-3 68,-14 68,-71 V -194.5 -303 c 0,-70 -22,-105 -66,-105 z" /></g></g></g><g
                       transform="translate(1278,317.7)"
                       id="g1250"><g
                         id="g1252"><g
                           id="g1254"><path
                             id="path1256"
                             style="fill:#333333;fill-opacity:1;fill-rule:nonzero;stroke:none"
                             d="m 224,-460 c 103,0 144,45 144,160 v 97.5 97.5 c -5,73 38,67 74,39 v 13 13 C 407,-2 386,10 352,10 311,10 293,-10 288,-63 227,-11 186,10 142,10 40,10 4,-125 73,-184 c 43,-38 60,-46 214,-108 5,-77 -3,-144 -76,-144 -40,0 -72,22 -72,49 11,39 3,81 -40,82 -24,0 -43,-20 -43,-43 0,-63 74,-112 168,-112 z m -36,412 c 36,0 99,-18 99,-75 v -72.5 -72.5 c -119,43 -162,78 -162,143 0,43 28,77 63,77 z" /></g></g></g></g></g><g
                   id="g1258"><g
                     transform="matrix(0.02222,0,0,0.02222,34.6,37.310706)"
                     id="g1260"><g
                       transform="translate(0,317.7)"
                       id="g1262"><g
                         id="g1264"><g
                           id="g1266"><path
                             id="path1268"
                             style="fill:#333333;fill-opacity:1;fill-rule:nonzero;stroke:none"
                             d="M 18,0 V -7.5 -15 c 50,-3 62,-16 62,-75 v -124 -124 c 3,-64 -22,-70 -64,-60 v -8.5 -8.5 c 55,-16 89,-27 138,-45 l 7,2 v 39.5 39.5 c 68,-64 99,-81 145,-81 74,0 118,56 118,150 V -195.5 -81 c 1,49 12,61 61,66 V -7.5 0 H 277 V -7.5 -15 c 49,-3 63,-19 63,-84 V -203.5 -308 c 0,-66 -24,-97 -73,-97 -33,0 -56,12 -103,57 V -207.5 -67 c 0,36 16,49 66,52 V -7.5 0 Z" /></g></g></g><g
                       transform="translate(500,317.7)"
                       id="g1270"><g
                         id="g1272"><g
                           id="g1274" /></g></g></g></g><g
                   id="g1276"><g
                     transform="matrix(0.02222,0,0,0.02222,51.26,37.310706)"
                     id="g1278"><g
                       transform="translate(0,317.7)"
                       id="g1280"><g
                         id="g1282"><g
                           id="g1284"><path
                             id="path1286"
                             style="fill:#333333;fill-opacity:1;fill-rule:nonzero;stroke:none"
                             d="m 528,-433 v 26.5 26.5 H 37 v -26.5 -26.5 z m 0,200 v 26.5 26.5 H 37 v -26.5 -26.5 z" /></g></g></g><g
                       transform="translate(564,317.7)"
                       id="g1288"><g
                         id="g1290"><g
                           id="g1292" /></g></g></g></g><g
                   id="g1294"><g
                     transform="matrix(0.02222,0,0,0.02222,69.35,37.310706)"
                     id="g1296"><g
                       transform="translate(0,317.7)"
                       id="g1298"><g
                         id="g1300"><g
                           id="g1302"><path
                             id="path1304"
                             style="fill:#333333;fill-opacity:1;fill-rule:nonzero;stroke:none"
                             d="M 118,0 V -7.5 -15 c 76,-1 95,-15 95,-78 V -319.5 -546 c 0,-32 -9,-47 -30,-47 -9,0 -33,7 -72,22 v -7 -7 l 180,-91 8,2 v 300 300 c 1,48 18,59 95,59 V -7.5 0 Z" /></g></g></g><g
                       transform="translate(500,317.7)"
                       id="g1306"><g
                         id="g1308"><g
                           id="g1310"><path
                             id="path1312"
                             style="fill:#333333;fill-opacity:1;fill-rule:nonzero;stroke:none"
                             d="m 31,-477 c 23,-122 89,-199 208,-199 104,0 185,77 185,176 0,154 -206,318 -296,424 h 239 c 47,-1 58,-8 95,-66 l 13,5 L 420,0 H 30 v -6 -6 c 98,-114 308,-280 308,-449 0,-84 -56,-141 -141,-141 -70,0 -105,32 -145,130 z" /></g></g></g><g
                       transform="translate(1000,317.7)"
                       id="g1314"><g
                         id="g1316"><g
                           id="g1318" /></g></g></g></g><g
                   id="g1320"><g
                     transform="matrix(0.02222,0,0,0.02222,97.13,37.310706)"
                     id="g1322"><g
                       transform="translate(0,317.7)"
                       id="g1324"><g
                         id="g1326"><g
                           id="g1328"><path
                             id="path1330"
                             style="fill:#333333;fill-opacity:1;fill-rule:nonzero;stroke:none"
                             d="m 5,217 v -8.5 -8.5 c 59,-6 70,-16 70,-69 v -234 -234 c 4,-60 -20,-59 -66,-56 v -8 -8 c 55,-17 90,-30 144,-51 l 6,2 v 38.5 38.5 c 44,-55 88,-79 144,-79 97,0 167,89 167,213 C 470,-102 379,10 260,10 218,10 195,0 159,-33 V 45.5 124 c 1,64 13,74 88,75 v 9 9 z m 154,-551 v 123 123 c 0,30 57,66 104,66 72,0 121,-75 121,-185 0,-117 -49,-193 -123,-193 -46,0 -102,36 -102,66 z" /></g></g></g><g
                       transform="translate(500,317.7)"
                       id="g1332"><g
                         id="g1334"><g
                           id="g1336"><path
                             id="path1338"
                             style="fill:#333333;fill-opacity:1;fill-rule:nonzero;stroke:none"
                             d="m 288,-408 c -43,0 -99,25 -118,59 v 141 141 c 1,40 17,51 68,52 V -7.5 0 H 16 V -7.5 -15 c 55,0 70,-14 70,-70 V -211.5 -338 c 2,-66 -20,-70 -67,-60 v -8.5 -8.5 c 55,-15 89,-26 140,-45 l 7,2 v 37.5 37.5 c 84,-64 110,-77 155,-77 54,0 88,27 106,84 54,-58 104,-84 163,-84 77,0 116,60 116,178 v 103 103 c -2,50 23,60 69,61 V -7.5 0 H 556 V -7.5 -15 c 58,-6 66,-13 66,-72 V -192.5 -298 c 0,-83 -18,-110 -75,-110 -47,0 -79,18 -109,61 v 126 126 c 2,64 16,80 72,80 V -7.5 0 H 286 V -7.5 -15 c 56,-3 68,-14 68,-71 V -194.5 -303 c 0,-70 -22,-105 -66,-105 z" /></g></g></g><g
                       transform="translate(1278,317.7)"
                       id="g1340"><g
                         id="g1342"><g
                           id="g1344"><path
                             id="path1346"
                             style="fill:#333333;fill-opacity:1;fill-rule:nonzero;stroke:none"
                             d="m 224,-460 c 103,0 144,45 144,160 v 97.5 97.5 c -5,73 38,67 74,39 v 13 13 C 407,-2 386,10 352,10 311,10 293,-10 288,-63 227,-11 186,10 142,10 40,10 4,-125 73,-184 c 43,-38 60,-46 214,-108 5,-77 -3,-144 -76,-144 -40,0 -72,22 -72,49 11,39 3,81 -40,82 -24,0 -43,-20 -43,-43 0,-63 74,-112 168,-112 z m -36,412 c 36,0 99,-18 99,-75 v -72.5 -72.5 c -119,43 -162,78 -162,143 0,43 28,77 63,77 z" /></g></g></g></g></g><g
                   id="g1348"><g
                     transform="matrix(0.02222,0,0,0.02222,85,63.980706)"
                     id="g1350" /></g></g></g></g></g></g><g
         id="g1352"><g
           id="g1354"><g
             id="g1356"><g
               transform="translate(-2980,-560)"
               id="g1358" /><g
               transform="translate(-2980,-560)"
               id="g1360"><g
                 id="g1362"><path
                   id="path1364"
                   style="fill:#ffffff;fill-opacity:0;fill-rule:nonzero;stroke:none"
                   d="M 0,6 C 0,0 6,0 6,0 h 168 c 6,0 6,6 6,6 v 51.3 c 0,6.03 -6,6.03 -6,6.03 L 6,63.3 C 0,63.33 0,57.33 0,57.33 Z" /></g><g
                 id="g1366"><g
                   id="g1368"><g
                     id="g1370"><path
                       id="path1372"
                       style="fill:none;stroke:#000000;stroke-width:3;stroke-linecap:butt;stroke-linejoin:miter;stroke-miterlimit:4;stroke-dasharray:none;stroke-opacity:0"
                       d="M 0,6 C 0,0 6,0 6,0 h 168 c 6,0 6,6 6,6 v 51.3 c 0,6.03 -6,6.03 -6,6.03 L 6,63.3 C 0,63.33 0,57.33 0,57.33 Z" /></g></g></g></g><g
               id="g1374"><g
                 transform="translate(-2975,-555)"
                 id="g1376"><g
                   id="g1378"><g
                     transform="matrix(0.02222,0,0,0.02222,75.74,21.610706)"
                     id="g1380"><g
                       transform="translate(0,317.7)"
                       id="g1382"><g
                         id="g1384"><g
                           id="g1386"><path
                             id="path1388"
                             style="fill:#333333;fill-opacity:1;fill-rule:nonzero;stroke:none"
                             d="m 5,217 v -8.5 -8.5 c 59,-6 70,-16 70,-69 v -234 -234 c 4,-60 -20,-59 -66,-56 v -8 -8 c 55,-17 90,-30 144,-51 l 6,2 v 38.5 38.5 c 44,-55 88,-79 144,-79 97,0 167,89 167,213 C 470,-102 379,10 260,10 218,10 195,0 159,-33 V 45.5 124 c 1,64 13,74 88,75 v 9 9 z m 154,-551 v 123 123 c 0,30 57,66 104,66 72,0 121,-75 121,-185 0,-117 -49,-193 -123,-193 -46,0 -102,36 -102,66 z" /></g></g></g><g
                       transform="translate(500,317.7)"
                       id="g1390"><g
                         id="g1392"><g
                           id="g1394"><path
                             id="path1396"
                             style="fill:#333333;fill-opacity:1;fill-rule:nonzero;stroke:none"
                             d="m 116,-450 c -2,-143 47,-233 176,-233 60,0 104,26 104,62 0,23 -18,41 -42,41 -17,0 -30,-9 -45,-36 -37,-69 -110,-44 -110,50 v 58 58 h 123 v 16 16 H 200 v 157 157 c 0,75 11,86 93,89 V -7.5 0 H 33 V -7.5 -15 c 71,-3 83,-14 83,-89 V -261 -418 H 34 v -16 -16 z" /></g></g></g></g></g></g></g></g></g></g><g
         id="g1398"><g
           id="g1400"><g
             id="g1402"><g
               transform="translate(-3289,-855)"
               id="g1404" /><g
               transform="translate(-3289,-855)"
               id="g1406"><g
                 id="g1408"><path
                   id="path1410"
                   style="fill:#ffffff;fill-opacity:0;fill-rule:nonzero;stroke:none"
                   d="M 0,6 C 0,0 6,0 6,0 h 120 c 6,0 6,6 6,6 v 38 c 0,6 -6,6 -6,6 H 6 C 0,50 0,44 0,44 Z" /></g><g
                 id="g1412"><g
                   id="g1414"><g
                     id="g1416"><path
                       id="path1418"
                       style="fill:none;stroke:#000000;stroke-width:3;stroke-linecap:butt;stroke-linejoin:miter;stroke-miterlimit:4;stroke-dasharray:none;stroke-opacity:0"
                       d="M 0,6 C 0,0 6,0 6,0 h 120 c 6,0 6,6 6,6 v 38 c 0,6 -6,6 -6,6 H 6 C 0,50 0,44 0,44 Z" /></g></g></g></g><g
               id="g1420"><g
                 transform="translate(-3284,-850)"
                 id="g1422"><g
                   id="g1424"><g
                     transform="matrix(0.09259,0,0,0.09259,47.11,-0.255843)"
                     id="g1426"><g
                       transform="translate(0,317.7)"
                       id="g1428"><g
                         id="g1430"><g
                           id="g1432"><path
                             id="path1434"
                             style="fill:#333333;fill-opacity:1;fill-rule:nonzero;stroke:none"
                             d="M 33,0 V -19 -38 H 67 V -19 0 Z" /></g></g></g><g
                       transform="translate(100,317.7)"
                       id="g1436"><g
                         id="g1438"><g
                           id="g1440"><path
                             id="path1442"
                             style="fill:#333333;fill-opacity:1;fill-rule:nonzero;stroke:none"
                             d="M 33,0 V -19 -38 H 67 V -19 0 Z" /></g></g></g><g
                       transform="translate(200,317.7)"
                       id="g1444"><g
                         id="g1446"><g
                           id="g1448"><path
                             id="path1450"
                             style="fill:#333333;fill-opacity:1;fill-rule:nonzero;stroke:none"
                             d="M 33,0 V -19 -38 H 67 V -19 0 Z" /></g></g></g></g></g></g></g></g></g></g></g><g
       transform="scale(1,-1)"
       id="g1452" /></g></svg>